{
    "@class": "com.kony.gen.viz.model.container.KVizSegment2",
    "DNDConfig": null,
    "__parentReadjusting__": false,
    "_bounces_": false,
    "_data_": [
        [
            {
                "lblHeaderKA": {
                    "@class": "com.viz.ide.model.segment.SimpleTextSegmentData",
                    "i18nkey": "i18n.settings.accountAlerts",
                    "text": "Account Alerts"
                }
            },
            [
                {
                    "Hidden": {
                        "@class": "com.viz.ide.model.segment.SimpleTextSegmentData",
                        "text": ""
                    },
                    "imgProgressKey": {
                        "@class": "com.viz.ide.model.segment.ImageSegmentData",
                        "src": ""
                    },
                    "lblSettingsNameKA": {
                        "@class": "com.viz.ide.model.segment.SimpleTextSegmentData",
                        "text": ""
                    },
                    "lblSettingsStatusKA": {
                        "@class": "com.viz.ide.model.segment.SimpleTextSegmentData",
                        "text": ""
                    }
                }
            ]
        ]
    ],
    "_height_": {
        "type": "ref",
        "value": "preferred"
    },
    "_indicator_": "none",
    "_left_": {
        "type": "string",
        "value": "0dp"
    },
    "_margin_": [
        0,
        0,
        0,
        0
    ],
    "_orientation_": 2,
    "_padding_": [
        0,
        0,
        0,
        0
    ],
    "_render_": true,
    "_top_": {
        "type": "string",
        "value": "0dp"
    },
    "_width_": {
        "type": "string",
        "value": "100%"
    },
    "android": {
        "render": true
    },
    "autogrowmode": 1,
    "canUpdateUI": true,
    "containerweight": 100,
    "counter": "00",
    "editstyle": "none",
    "focusedindex": null,
    "focuseditem": null,
    "generatedtemplate": "b4d3cced842c4af380c7d52ba7070134",
    "groupcells": false,
    "hasSections": true,
    "id": "AlertsData",
    "ide_onRowClick": "AS_Segment_5041502381554331b1dc89212f1e3d1b",
    "info": null,
    "ipad": {
        "psp": {
            "indicator": "rowselect"
        }
    },
    "iphone": {
        "psp": {
            "bounces": false,
            "editStyle": "none",
            "indicator": "none",
            "searchBy": null,
            "showProgressIndicator": false
        },
        "render": true
    },
    "isvisible": true,
    "kuid": "f2345c10772f43dbbf0563fdaadfc1c4",
    "masterdata": {},
    "name": "kony.ui.SegmentedUI2",
    "needpageindicator": true,
    "onrowclick": "AS_Segment_cc56effc9e3b43f6815689c6b7c03f12",
    "pageoffdotimage": "pageoffdot.png",
    "pageondotimage": "pageondot.png",
    "paginationconfig": {
        "position": "bottom"
    },
    "parent": "alertsTypes",
    "pf": "frmAlertsKA",
    "retainselection": false,
    "rowTemplateId": "fb0943a1d67c4d44985ee8a514c19c6d",
    "rowcounter": 0,
    "rowfocusskin": "sd637e0f4cfa4026ba5ae8c9a2292000",
    "rowskin": "s188360adf7c445da91ce74d44371e05",
    "rowtemplate": "Copycontainer09742046d0d2944",
    "screenlevelwidget": false,
    "searchBy": null,
    "seccounter": 0,
    "sectionHeaderTemplateId": "12354dd64f814198a16f1050bdf37bc7",
    "sectionheaderskin": "s166bbed35d04ad1b28badead9d39877",
    "sectionheadertemplate": "Copycontainer087f3a0994b334a",
    "selectedRows": null,
    "selectedState": false,
    "selectedindex": null,
    "selectedindices": null,
    "selecteditems": null,
    "selectedsectionindex": 0,
    "selectionbehavior": "default",
    "separatorcolor": "64646400",
    "separatorrequired": false,
    "separatorthickness": 0,
    "showprogressindicator": false,
    "showscrollbars": false,
    "spaan": {
        "render": true
    },
    "spabb": {
        "render": true
    },
    "spaip": {
        "render": true
    },
    "spawinphone8": {
        "render": true
    },
    "viewtype": "tableview",
    "vizProps": {},
    "wType": "Segment",
    "widgetalignment": 5,
    "widgetdatamap": {
        "Copycontainer087f3a0994b334a": "Copycontainer087f3a0994b334a",
        "Copycontainer09742046d0d2944": "Copycontainer09742046d0d2944",
        "Hidden": "Hidden",
        "contactListDivider": "contactListDivider",
        "imgProgressKey": "imgProgressKey",
        "lblHeaderKA": "lblHeaderKA",
        "lblSettingsNameKA": "lblSettingsNameKA",
        "lblSettingsStatusKA": "lblSettingsStatusKA"
    },
    "winphone8": {
        "render": true
    }
}