{
    "DNDConfig": null,
    "__parentReadjusting__": false,
    "_height_": {
        "type": "string",
        "value": "25dp"
    },
    "_margin_": [
        0,
        0,
        0,
        0
    ],
    "_orientation_": 6,
    "_padding_": [
        0,
        0,
        0,
        0
    ],
    "_percent_": true,
    "_right_": {
        "type": "string",
        "value": "5%"
    },
    "_skin_": "sbcfe7bb08044eec8c39d165593571dc",
    "_top_": {
        "type": "string",
        "value": "0dp"
    },
    "_width_": {
        "type": "string",
        "value": "44dp"
    },
    "allboxes": [],
    "autogrowmode": 0,
    "canUpdateUI": true,
    "centery": {
        "type": "string",
        "value": "50%"
    },
    "children": [
        "CopyflxInnerDisabled0i6415505d76141",
        "CopyflxILineDisabled0f4f4fb9013fc42"
    ],
    "clipbounds": true,
    "containerweight": 100,
    "enablescrolling": true,
    "id": "flxAlertMorningBalanceDisable",
    "ide_onClick": "AS_FlexContainer_f50aa84f81fe426ea8c83971c3cf1152",
    "info": null,
    "isvisible": false,
    "kuid": "g0219efe0f2e467f8bd3d7b48e65fb66",
    "layouttype": 2,
    "name": "kony.ui.FlexContainer",
    "parent": "flxAlertMorningBalance",
    "pf": "frmAlertsKA",
    "snapgridsize": 10,
    "snaptogrid": true,
    "wType": "FlexContainer",
    "widgetalignment": 1,
    "zindex": 1
}