{
  "operationConfig" : {
    "name" : "getAppConfig8278",
    "type" : "MappedToBackend",
    "cachable" : false,
    "smsEnabled" : false,
    "security" : "public",
    "responseEncoding" : "UTF-8",
    "httpMethod" : "GET",
    "decodeResponseBody" : false,
    "oMapping" : "<?xml version=\"1.0\" encoding=\"UTF-8\" standalone=\"yes\"?><mapper xmlns=\"http://www.kony.com/ns/mapper\">                        <map inputpath=\"response_in\" outputpath=\"response_out\">                          <set-param inputpath=\"statusCode\" outputpath=\"statusCode\"/>                            <set-param inputpath=\"statusType\" outputpath=\"statusType\"/>                            <set-param inputpath=\"statusMessage\" outputpath=\"statusMessage\"/>                            <set-param inputpath=\"AppConfig\" outputpath=\"AppConfig\"/>              <set-param inputpath=\"Username\" outputpath=\"Username\"/>             <set-param inputpath=\"Password\" outputpath=\"Password\"/>       </map></mapper>",
    "applyCommonMapping" : false,
    "backendMeta" : {
      "serviceVersion" : "1.0",
      "operationName" : "getAppConfig",
      "serviceName" : "BOJRestServices"
    },
    "relationshipHierarchyMapping" : {
      "children" : [ ],
      "name" : "DeviceRegistration",
      "selected" : true
    },
    "requestXmlMappingOverride" : true,
    "responseXmlMappingOverride" : true
  }
}