{
    "@class": "com.kony.gen.viz.model.component.KVizButton",
    "DNDConfig": null,
    "__parentReadjusting__": false,
    "_height_": {
        "type": "string",
        "value": "72dp"
    },
    "_left_": {
        "type": "string",
        "value": "68%"
    },
    "_margin_": [
        6,
        6,
        6,
        6
    ],
    "_padding_": [
        0,
        0,
        0,
        0
    ],
    "_skin_": "s3ab10e73bc24d3687ec37d64d30f97c",
    "_text_": "9",
    "_top_": {
        "type": "string",
        "value": "45%"
    },
    "_width_": {
        "type": "string",
        "value": "72dp"
    },
    "canUpdateUI": true,
    "centerx": {
        "type": "string",
        "value": "78%"
    },
    "containerweight": 100,
    "contentalignment": 5,
    "disabledSkins": {},
    "displaytext": true,
    "focusskin": "s91eeaf3bdbd49be8c430a952a997520",
    "id": "btnNine",
    "ide_onClick": "AS_Button_f2ccad04a5a34bb08ea7f457ffb82204",
    "info": null,
    "iphone": {
        "psp": {
            "showProgressIndicator": false
        }
    },
    "isvisible": true,
    "kuid": "30fa975d90b242c39810021470543769",
    "name": "kony.ui.Button",
    "parent": "flxDialPad",
    "pf": "frmPinEntryStep1",
    "wType": "Button",
    "zindex": 1
}