{
    "@class": "com.kony.gen.viz.model.component.KVizButton",
    "DNDConfig": null,
    "__parentReadjusting__": false,
    "_height_": {
        "type": "string",
        "value": "72dp"
    },
    "_left_": {
        "type": "string",
        "value": "3%"
    },
    "_margin_": [
        6,
        6,
        6,
        6
    ],
    "_padding_": [
        0,
        0,
        0,
        0
    ],
    "_skin_": "s3ab10e73bc24d3687ec37d64d30f97c",
    "_text_": "1",
    "_top_": {
        "type": "string",
        "value": "2%"
    },
    "_width_": {
        "type": "string",
        "value": "72dp"
    },
    "canUpdateUI": true,
    "centerx": {
        "type": "string",
        "value": "22%"
    },
    "containerweight": 100,
    "contentalignment": 5,
    "disabledSkins": {},
    "displaytext": true,
    "focusskin": "s91eeaf3bdbd49be8c430a952a997520",
    "id": "btnOne",
    "ide_onClick": "AS_Button_34f0a076bde343fe9fd5118b758ba83a",
    "info": null,
    "iphone": {
        "psp": {
            "showProgressIndicator": false
        }
    },
    "isvisible": true,
    "kuid": "3797978ab1bd403995d9b29dabc12a77",
    "name": "kony.ui.Button",
    "parent": "flxDialPad",
    "pf": "frmPinEntryStep1",
    "wType": "Button",
    "zindex": 1
}