{
    "@class": "com.kony.gen.viz.model.component.KVizButton",
    "DNDConfig": null,
    "__parentReadjusting__": false,
    "_height_": {
        "type": "string",
        "value": "90%"
    },
    "_left_": {
        "type": "string",
        "value": "5%"
    },
    "_margin_": [
        6,
        6,
        6,
        6
    ],
    "_padding_": [
        0,
        0,
        0,
        0
    ],
    "_skin_": "s9dd8fe1ab7b4f26aad257d210a41f6e",
    "_text_": "",
    "_top_": {
        "type": "string",
        "value": "5%"
    },
    "_width_": {
        "type": "string",
        "value": "40%"
    },
    "canUpdateUI": true,
    "containerweight": 100,
    "contentalignment": 5,
    "displaytext": true,
    "focusskin": "s41f76e1d28f429b9a3c442badbf71f0",
    "id": "btnCancel",
    "ide_onClick": "AS_Button_13469d8209c84ca6b7f8647821063d72",
    "info": null,
    "iphone": {
        "psp": {
            "showProgressIndicator": false
        }
    },
    "isvisible": true,
    "kuid": "c27ae1b0f49b4e2fa5839a1b5ffd3b23",
    "name": "kony.ui.Button",
    "onclick": "AS_Button_328c114136424552afae15f35f5f3837",
    "parent": "flxUtilbtns",
    "pf": "frmLoginKA",
    "showprogressindicator": false,
    "texti18n": "i18n.common.cancelC",
    "wType": "Button",
    "zindex": 1
}