{
    "@class": "com.kony.gen.viz.model.component.KVizButton",
    "DNDConfig": null,
    "__parentReadjusting__": false,
    "_height_": {
        "type": "string",
        "value": "16%"
    },
    "_margin_": [
        6,
        6,
        6,
        6
    ],
    "_padding_": [
        0,
        0,
        0,
        0
    ],
    "_skin_": "s51d68053cae4eba826625de179be4ae",
    "_text_": "",
    "_top_": {
        "type": "string",
        "value": "8%"
    },
    "_width_": {
        "type": "string",
        "value": "75%"
    },
    "canUpdateUI": true,
    "centerx": {
        "type": "string",
        "value": "50.03%"
    },
    "containerweight": 100,
    "contentalignment": 5,
    "disabledSkins": {},
    "displaytext": true,
    "focusskin": "s51d68053cae4eba826625de179be4ae",
    "id": "btnCancelLabibaLogin",
    "ide_onClick": "AS_Button_cb8f52a6baa742f0bf21db8cf6b224e9",
    "info": null,
    "iphone": {
        "psp": {
            "showProgressIndicator": false
        }
    },
    "isvisible": false,
    "kuid": "ba0c10e7934b43d388bf29fea520673d",
    "name": "kony.ui.Button",
    "onclick": "AS_Button_5be6fadb298145d7b15d8be4b19e6dc9",
    "parent": "loginCard",
    "pf": "frmLoginKA",
    "showprogressindicator": false,
    "texti18n": "i18n.login.CancelChatbotLogin",
    "wType": "Button",
    "zindex": 5
}