{
    "@class": "com.kony.gen.viz.model.component.KVizButton",
    "DNDConfig": null,
    "__parentReadjusting__": false,
    "_height_": {
        "type": "string",
        "value": "100%"
    },
    "_left_": {
        "type": "string",
        "value": "0%"
    },
    "_margin_": [
        6,
        6,
        6,
        6
    ],
    "_padding_": [
        0,
        0,
        0,
        0
    ],
    "_skin_": "s1204841cca74cc29ad0a416dd26c47d",
    "_text_": "",
    "_top_": {
        "type": "string",
        "value": "0%"
    },
    "_width_": {
        "type": "string",
        "value": "86%"
    },
    "canUpdateUI": true,
    "containerweight": 100,
    "contentalignment": 6,
    "displaytext": true,
    "focusskin": "sabd2f4a46f44db9b2fae325182cb531",
    "id": "btnDisableFeatire",
    "ide_onClick": "AS_Button_a0fb44d6d63c4d2b991d78e3da3eb26e",
    "info": null,
    "isvisible": true,
    "kuid": "i126df9b55a7490ca70c84a48bad2ea7",
    "name": "kony.ui.Button",
    "paddinginpixel": false,
    "parent": "flxDisabe",
    "pf": "frmLoginKA",
    "texti18n": "i18n.common.Disablethisfeature",
    "wType": "Button",
    "zindex": 1
}