{
    "@class": "com.kony.gen.viz.model.component.KVizButton",
    "DNDConfig": null,
    "__parentReadjusting__": false,
    "_height_": {
        "type": "string",
        "value": "60dp"
    },
    "_margin_": [
        6,
        6,
        6,
        6
    ],
    "_padding_": [
        0,
        0,
        0,
        0
    ],
    "_right_": {
        "type": "string",
        "value": "60%"
    },
    "_skin_": "s94d80e187a44bd9bb9ce6db5e729010",
    "_text_": "3",
    "_top_": {
        "type": "string",
        "value": "0%"
    },
    "_width_": {
        "type": "string",
        "value": "60dp"
    },
    "canUpdateUI": true,
    "containerweight": 100,
    "contentalignment": 5,
    "displaytext": true,
    "focusskin": "s6e8459b84e349d98629a088bbfe1304",
    "id": "btnPinLogin",
    "ide_onClick": "AS_Button_ie729bbbcca24784a8c1aa45dfff67f7",
    "info": null,
    "iphone": {
        "psp": {
            "showProgressIndicator": false
        }
    },
    "iscustomlayout": true,
    "isvisible": true,
    "kuid": "d9284f31985a41999c977b0351d7c13c",
    "name": "kony.ui.Button",
    "onclick": "AS_Button_328c114136424552afae15f35f5f3837",
    "parent": "utilityLinks",
    "pf": "frmLoginKA",
    "retainflexpositionproperties": true,
    "showprogressindicator": false,
    "wType": "Button",
    "zindex": 1
}