{
    "@class": "com.kony.gen.viz.model.component.KVizButton",
    "DNDConfig": null,
    "__parentReadjusting__": false,
    "_height_": {
        "type": "string",
        "value": "50dp"
    },
    "_left_": {
        "type": "string",
        "value": "5dp"
    },
    "_margin_": [
        6,
        6,
        6,
        6
    ],
    "_padding_": [
        0,
        0,
        0,
        0
    ],
    "_skin_": "see68cd63ba243d98af2bd9f497e474c",
    "_text_": "F",
    "_top_": {
        "type": "string",
        "value": "0dp"
    },
    "_width_": {
        "type": "string",
        "value": "40dp"
    },
    "canUpdateUI": true,
    "containerweight": 100,
    "contentalignment": 5,
    "displaytext": true,
    "focusskin": "see68cd63ba243d98af2bd9f497e474c",
    "id": "CopyButton0e1741010299c42",
    "info": null,
    "isvisible": false,
    "kuid": "c85cb3798d50469a8cdc690b1a3c358e",
    "name": "kony.ui.Button",
    "parent": "flxDisabe",
    "pf": "frmLoginKA",
    "wType": "Button",
    "zindex": 1
}