{
    "@class": "com.kony.gen.viz.model.component.KVizLabel",
    "DNDConfig": null,
    "__parentReadjusting__": false,
    "_height_": {
        "type": "ref",
        "value": "preferred"
    },
    "_left_": {
        "type": "string",
        "value": "66%"
    },
    "_margin_": [
        1,
        1,
        1,
        1
    ],
    "_padding_": [
        0,
        0,
        0,
        0
    ],
    "_skin_": "sac16f496aa5486f876ef24615d4257c",
    "_text_": "",
    "_top_": {
        "type": "string",
        "value": "68%"
    },
    "_width_": {
        "type": "string",
        "value": "25%"
    },
    "_wrapping_": 2,
    "accessibilityconfig": {
        "a11yLabel": "Register"
    },
    "android": {
        "textStyle": {
            "letterSpacing": 0,
            "strikeThrough": false
        }
    },
    "canUpdateUI": true,
    "containerweight": 100,
    "contentalignment": 5,
    "id": "lblNewCusticon",
    "info": null,
    "ipad": {
        "psp": {
            "wrapping": 2
        }
    },
    "iphone": {
        "psp": {
            "wrapping": 2
        }
    },
    "iscustomlayout": true,
    "isvisible": true,
    "kuid": "f46dc36570e442618888625684a23218",
    "name": "kony.ui.Label",
    "parent": "utilityLinks",
    "pf": "frmLoginKA",
    "retainflexpositionproperties": true,
    "texti18n": "i18n.newCustomer",
    "textstyle": {},
    "tooltip": "",
    "wType": "Label",
    "zindex": 1
}