{
    "@class": "com.kony.gen.viz.model.component.KVizTextBox2",
    "DNDConfig": null,
    "__parentReadjusting__": false,
    "_bottom_": {
        "type": "string",
        "value": "0%"
    },
    "_height_": {
        "type": "string",
        "value": "60%"
    },
    "_left_": {
        "type": "string",
        "value": "2%"
    },
    "_margin_": [
        0,
        0,
        0,
        0
    ],
    "_padding_": [
        0,
        0,
        0,
        0
    ],
    "_placeholder_": "",
    "_skin_": "sa42c9202bb341369447f425b4bf7e30",
    "_text_": "",
    "_width_": {
        "type": "string",
        "value": "110%"
    },
    "android": {
        "ide_onBeginEditing": "AS_TextField_j8f53be97bf04fdcbd55901c41740ccb",
        "ide_onEndEditing": "AS_TextField_a47356be9f69448f9e26666a578d6223",
        "psp": {
            "keyboardActionLabel": 1
        }
    },
    "autocapitalize": "none",
    "autocomplete": false,
    "autocorrect": false,
    "autofilter": false,
    "canUpdateUI": true,
    "containerheight": "",
    "containerheightmode": 1,
    "containerweight": 100,
    "contentalignment": 4,
    "focusskin": "sa42c9202bb341369447f425b4bf7e30",
    "id": "passwordTextField",
    "ide_onDone": "AS_TextField_g90e239868f046658b662648076b22ea",
    "ide_onTextChange": "AS_TextField_cd68fa69f76a4bd9966d8b41beea9fdb",
    "ide_onTouchEnd": "AS_TextField_j3223466667d4767a05c94e8307e7f3b",
    "ide_onTouchStart": "AS_TextField_a97a99d890794fdbae84264ec2f33229",
    "info": null,
    "iphone": {
        "ide_onBeginEditing": "AS_TextField_c72b0b2787d848caae92f8d97a31c0ae",
        "ide_onEndEditing": "AS_TextField_e59acce6858d4d25892c636c96ef4cd4",
        "psp": {
            "showClearButton": false,
            "showCloseButton": false,
            "showProgressIndicator": false
        }
    },
    "isvisible": true,
    "keyboardtype": "A",
    "kuid": "gebffd1db9784bd59bf80517a50ca247",
    "maxtextlength": 20,
    "mode": "A",
    "name": "kony.ui.TextBox2",
    "paddinginpixel": false,
    "parent": "passwordContainer",
    "pf": "frmLoginKA",
    "securetextentry": true,
    "textinputmode": "A",
    "viewtype": "default",
    "wType": "TextField",
    "zindex": 20
}