{
    "@class": "com.kony.gen.viz.model.component.KVizButton",
    "DNDConfig": null,
    "__parentReadjusting__": false,
    "_height_": {
        "type": "string",
        "value": "100%"
    },
    "_left_": {
        "type": "string",
        "value": "92%"
    },
    "_margin_": [
        6,
        6,
        6,
        6
    ],
    "_padding_": [
        0,
        0,
        0,
        0
    ],
    "_skin_": "se585b6ddb114255bac1b2843339e93c",
    "_text_": "y",
    "_top_": {
        "type": "string",
        "value": "0%"
    },
    "_width_": {
        "type": "string",
        "value": "8%"
    },
    "canUpdateUI": true,
    "containerweight": 100,
    "contentalignment": 5,
    "disabledSkins": {},
    "displaytext": true,
    "focusskin": "se585b6ddb114255bac1b2843339e93c",
    "id": "btnContactBook",
    "ide_onClick": "AS_Button_g72ce29dd91c4ccb9dc6629449749664",
    "info": null,
    "iphone": {
        "psp": {
            "showProgressIndicator": false
        }
    },
    "isvisible": true,
    "kuid": "b03aff15e60a4f08b27f056554c85849",
    "name": "kony.ui.Button",
    "parent": "flxAlias",
    "pf": "frmJoMoPay",
    "wType": "Button",
    "zindex": 5
}