{
    "@class": "com.kony.gen.viz.model.component.KVizRichText",
    "DNDConfig": null,
    "__parentReadjusting__": false,
    "_height_": {
        "type": "ref",
        "value": "preferred"
    },
    "_left_": {
        "type": "string",
        "value": "5%"
    },
    "_margin_": [
        0,
        0,
        0,
        0
    ],
    "_padding_": [
        0,
        0,
        0,
        0
    ],
    "_render_": true,
    "_skin_": "se718bca95e74875a5e06b807acc5137",
    "_text_": "",
    "_top_": {
        "type": "string",
        "value": "20dp"
    },
    "_width_": {
        "type": "string",
        "value": "90%"
    },
    "_wrapping_": 2,
    "android": {},
    "canUpdateUI": true,
    "containerweight": 100,
    "contentalignment": 4,
    "id": "richTexttermsandconditionsOld",
    "info": null,
    "iphone": {},
    "isvisible": true,
    "kuid": "d56f793a52854ea8a85ab7d96ea76a83",
    "name": "kony.ui.RichText",
    "parent": "mainContent",
    "pf": "frmTermsAndConditionsKA",
    "spaan": {},
    "spabb": {},
    "spaip": {},
    "spawinphone8": {},
    "wType": "RichText",
    "widgetalignment": 5,
    "winphone8": {},
    "zindex": 1
}