{
    "@class": "com.kony.gen.viz.model.component.KVizButton",
    "DNDConfig": null,
    "__parentReadjusting__": false,
    "_bottom_": {
        "type": "string",
        "value": "5%"
    },
    "_height_": {
        "type": "string",
        "value": "9%"
    },
    "_margin_": [
        6,
        6,
        6,
        6
    ],
    "_padding_": [
        0,
        0,
        0,
        0
    ],
    "_skin_": "sf7766faf6e34d0789442a84c1e76e1a",
    "_text_": "",
    "_top_": {
        "type": "string",
        "value": "5%"
    },
    "_width_": {
        "type": "string",
        "value": "70%"
    },
    "canUpdateUI": true,
    "centerx": {
        "type": "string",
        "value": "50%"
    },
    "containerweight": 100,
    "contentalignment": 5,
    "disabledSkins": {},
    "displaytext": true,
    "focusskin": "sad5d6d4890b44858a39e4bf8a290332",
    "id": "btnConfirm",
    "ide_onClick": "AS_Button_c3d1393f887b422f8a610452c2380d4c",
    "info": null,
    "isvisible": true,
    "kuid": "c12af757446445c09f09c45939b1b220",
    "name": "kony.ui.Button",
    "parent": "flxConfirmDeposite",
    "pf": "frmOpenTermDeposit",
    "texti18n": "i18n.transfers.CONFIRM",
    "wType": "Button",
    "zindex": 1
}