{
    "@class": "com.kony.gen.viz.model.component.KVizButton",
    "DNDConfig": null,
    "__parentReadjusting__": false,
    "_height_": {
        "type": "string",
        "value": "60%"
    },
    "_left_": {
        "type": "string",
        "value": "0%"
    },
    "_margin_": [
        6,
        6,
        6,
        6
    ],
    "_padding_": [
        0,
        0,
        0,
        0
    ],
    "_skin_": "s494451ca8854dac96d3671570e53376",
    "_text_": "",
    "_top_": {
        "type": "string",
        "value": "5%"
    },
    "_width_": {
        "type": "string",
        "value": "31%"
    },
    "canUpdateUI": true,
    "containerweight": 100,
    "contentalignment": 5,
    "displaytext": true,
    "focusskin": "s80a175c468242d792bdc547cfe69645",
    "id": "btnWithInterest",
    "ide_onClick": "AS_Button_c2ca62e41a154eb289728df409a8816f",
    "info": null,
    "isvisible": false,
    "kuid": "af3a87f39ce44406994eb92252a67df9",
    "name": "kony.ui.Button",
    "parent": "flxMaturityInstructions",
    "pf": "frmOpenTermDeposit",
    "texti18n": "i18n.termDeposit.renWithInterest",
    "wType": "Button",
    "zindex": 1
}