{
    "DNDConfig": null,
    "__parentReadjusting__": false,
    "_height_": {
        "type": "ref",
        "value": "preferred"
    },
    "_left_": {
        "type": "string",
        "value": "0dp"
    },
    "_margin_": [
        0,
        0,
        0,
        0
    ],
    "_padding_": [
        0,
        0,
        0,
        0
    ],
    "_skin_": "s5449e85b7e0472ba7d4939096f3873d",
    "_top_": {
        "type": "string",
        "value": "60dp"
    },
    "_width_": {
        "type": "string",
        "value": "100%"
    },
    "allboxes": [],
    "autogrowmode": 1,
    "canUpdateUI": true,
    "children": [
        "Label07b268452752c4c",
        "CopysuccessIcon0f42e785ae2344c",
        "CopyLabel04e32e5c0a78845",
        "CopyLabel0d00f815bcc7c41",
        "CopyLabel016560c53601949",
        "btnReLoginKA"
    ],
    "clipbounds": true,
    "containerweight": 100,
    "enabled": false,
    "enablescrolling": true,
    "id": "FlexContainer00a3c07fadcbf4b",
    "info": null,
    "isvisible": true,
    "kuid": "e4c1d1e7bd8a47158f5bda4d1695da2f",
    "layouttype": 4,
    "name": "kony.ui.FlexContainer",
    "orientation": 6,
    "parent": "touchFeature",
    "percent": true,
    "pf": "frmCheckReOrderSuccessKA",
    "snapgridsize": 10,
    "snaptogrid": true,
    "wType": "FlexContainer",
    "widgetalignment": 1,
    "zindex": 1
}