{
    "DNDConfig": null,
    "_height_": {
        "type": "string",
        "value": "58dp"
    },
    "_margin_": [
        0,
        0,
        0,
        0
    ],
    "_orientation_": 6,
    "_padding_": [
        0,
        0,
        0,
        0
    ],
    "_percent_": true,
    "_skin_": "s80e6857987f48a288568a48b807478f",
    "allboxes": [],
    "autogrowmode": 0,
    "canUpdateUI": true,
    "children": [
        "lblfrequency",
        "lblKey"
    ],
    "clipbounds": true,
    "containerId": true,
    "containerweight": 100,
    "enablescrolling": true,
    "id": "CopyflxFrequencyTmp0ba944e73638745",
    "info": null,
    "isTemplate": true,
    "isvisible": true,
    "kuid": "dabe605a88e24e53a096349448179e21",
    "layouttype": 2,
    "name": "kony.ui.FlexContainer",
    "parent": "tmpPOT",
    "pf": "tmpPOT",
    "snapgridsize": 10,
    "snaptogrid": true,
    "wType": "FlexContainer",
    "widgetalignment": 1
}