{
    "@class": "com.kony.gen.viz.model.component.KVizButton",
    "DNDConfig": null,
    "__parentReadjusting__": false,
    "_height_": {
        "type": "string",
        "value": "50dp"
    },
    "_margin_": [
        6,
        6,
        6,
        6
    ],
    "_padding_": [
        0,
        0,
        0,
        0
    ],
    "_skin_": "s369ab04a83040bc808b21001c014f1a",
    "_text_": "i",
    "_width_": {
        "type": "string",
        "value": "100%"
    },
    "canUpdateUI": true,
    "centerx": {
        "type": "string",
        "value": "50%"
    },
    "centery": {
        "type": "string",
        "value": "50%"
    },
    "containerweight": 100,
    "contentalignment": 5,
    "disabledSkins": {},
    "displaytext": true,
    "focusskin": "s369ab04a83040bc808b21001c014f1a",
    "id": "CopybtnAccounts0ff48f9feb0aa42",
    "ide_onClick": "AS_Button_a4a66f3ab84043499299b3e3692c013f",
    "info": null,
    "isvisible": true,
    "kuid": "c9e828855d56402d9fa8c73f3cee80fa",
    "name": "kony.ui.Button",
    "parent": "FlxBot",
    "pf": "frmCreditCardsKA",
    "wType": "Button",
    "zindex": 1
}