{
    "@class": "com.kony.gen.viz.model.component.KVizButton",
    "DNDConfig": null,
    "__parentReadjusting__": false,
    "_height_": {
        "type": "string",
        "value": "42dp"
    },
    "_margin_": [
        6,
        6,
        6,
        6
    ],
    "_padding_": [
        0,
        0,
        0,
        0
    ],
    "_skin_": "s409616a424246c78da4bbcd9516e43d",
    "_text_": "CONTINUE",
    "_top_": {
        "type": "string",
        "value": "30dp"
    },
    "_width_": {
        "type": "string",
        "value": "70%"
    },
    "canUpdateUI": true,
    "centerx": {
        "type": "string",
        "value": "50.00%"
    },
    "containerweight": 100,
    "contentalignment": 5,
    "disabledSkins": {},
    "displaytext": true,
    "focusskin": "s855d4a3c7a14976abf747a9184ae0d0",
    "id": "successContinue",
    "ide_onClick": "AS_Button_b644b50814b64ea1b08e0ecfd9fc025c",
    "info": null,
    "iphone": {
        "psp": {
            "showProgressIndicator": false
        }
    },
    "isvisible": true,
    "kuid": "b5d85aff6e894d27be154634b2dcf8d3",
    "name": "kony.ui.Button",
    "onclick": "AS_Button_37ba36aa177d4a3ab2da8ed3a91ae00b",
    "parent": "innerSuccessContainer",
    "pf": "frmSuccessFormQRCodeKA",
    "showprogressindicator": false,
    "texti18n": "i18n.common.btnContinue",
    "wType": "Button",
    "zindex": 1
}