{
    "@class": "com.kony.gen.viz.model.component.KVizLabel",
    "DNDConfig": null,
    "__parentReadjusting__": false,
    "_height_": {
        "type": "string",
        "value": "35dp"
    },
    "_left_": {
        "type": "string",
        "value": "5%"
    },
    "_margin_": [
        1,
        1,
        1,
        1
    ],
    "_padding_": [
        0,
        0,
        0,
        0
    ],
    "_skin_": "s0b888d3bcda4850ae2668ecca3a6152",
    "_text_": "For Transfers",
    "_width_": {
        "type": "string",
        "value": "64.16%"
    },
    "_wrapping_": 2,
    "canUpdateUI": true,
    "containerweight": 100,
    "contentalignment": 4,
    "enabled": false,
    "id": "lbltransferHeader",
    "info": null,
    "ipad": {
        "psp": {
            "wrapping": 2
        }
    },
    "iphone": {
        "psp": {
            "wrapping": 2
        }
    },
    "isvisible": true,
    "kuid": "1e8cca0f74e34f869ae65606993bb1f2",
    "name": "kony.ui.Label",
    "paddinginpixel": false,
    "parent": "androidSettings",
    "pf": "frmPreferredAccountsKA",
    "tooltip": "",
    "wType": "Label"
}