{
    "@class": "com.kony.gen.viz.model.container.KVizGroup",
    "DNDConfig": null,
    "__markedForDelete__": true,
    "__parentReadjusting__": false,
    "_height_": {
        "type": "string",
        "value": "50%"
    },
    "_left_": 0,
    "_margin_": [
        0,
        0,
        0,
        0
    ],
    "_opacity_": 100,
    "_orientation_": 6,
    "_padding_": [
        0,
        0,
        0,
        0
    ],
    "_percent_": true,
    "_skin_": "sc522605a3b44f049a0b80f2ec7b7a76",
    "_spacing_": 0,
    "_top_": 0,
    "_width_": {
        "type": "string",
        "value": "100%"
    },
    "allboxes": [],
    "android": {
        "render": false
    },
    "canUpdateUI": true,
    "children": [
        "grpAccounts",
        "grpCards"
    ],
    "clipbounds": true,
    "containerweight": 100,
    "desktopweb": {
        "render": false
    },
    "enablescrolling": true,
    "id": "grpTop",
    "info": null,
    "ipad": {
        "render": false
    },
    "iphone": {
        "render": false
    },
    "isvisible": true,
    "kiosk": {
        "render": false
    },
    "kuid": "bf93e8a62a8d4eec9391d00232160165",
    "layouttype": 3,
    "name": "kony.ui.Group",
    "paddinginpixel": true,
    "parent": "frmWatMenu",
    "pf": "frmWatMenu",
    "snapgridsize": 10,
    "snaptogrid": false,
    "spaan": {
        "render": false
    },
    "spaandroidtablet": {
        "render": false
    },
    "spabb": {
        "render": false
    },
    "spaip": {
        "render": false
    },
    "spaipad": {
        "render": false
    },
    "spawindowstablet": {
        "render": false
    },
    "spawinphone8": {
        "render": false
    },
    "tabrcandroid": {
        "render": false
    },
    "wType": "Group",
    "widgetalignment": 1,
    "windows8": {
        "render": false
    },
    "winphone8": {
        "render": false
    }
}