{
    "@class": "com.kony.gen.viz.model.component.KVizButton",
    "DNDConfig": null,
    "__parentReadjusting__": false,
    "_height_": {
        "type": "string",
        "value": "50dp"
    },
    "_margin_": [
        6,
        6,
        6,
        6
    ],
    "_padding_": [
        0,
        0,
        0,
        0
    ],
    "_right_": {
        "type": "string",
        "value": "10dp"
    },
    "_skin_": "s6ba61c1f3b24f2d9a607a6d158dd307",
    "_text_": "Edit",
    "_top_": {
        "type": "string",
        "value": "0dp"
    },
    "_width_": {
        "type": "string",
        "value": "50dp"
    },
    "canUpdateUI": true,
    "containerweight": 100,
    "contentalignment": 5,
    "displaytext": true,
    "focusskin": "s6ba61c1f3b24f2d9a607a6d158dd307",
    "id": "btnEditKA",
    "ide_onClick": "AS_Button_3875da5975144751887cda88fbbae13d",
    "info": null,
    "iphone": {
        "psp": {
            "showProgressIndicator": false
        }
    },
    "isvisible": false,
    "kuid": "11d59124f2c744e3bcba0319676c2ad7",
    "name": "kony.ui.Button",
    "onclick": "AS_Button_e1ca8e78445b4b4aa53efb4793fd7658",
    "parent": "titleBarWrapper",
    "pf": "frmRecentDepositKA",
    "showprogressindicator": false,
    "texti18n": "i18n.common.edit",
    "wType": "Button",
    "zindex": 1
}