{
    "DNDConfig": null,
    "__parentReadjusting__": false,
    "_height_": {
        "type": "string",
        "value": "100%"
    },
    "_left_": {
        "type": "string",
        "value": "0dp"
    },
    "_margin_": [
        0,
        0,
        0,
        0
    ],
    "_padding_": [
        0,
        0,
        0,
        0
    ],
    "_skin_": "s5449e85b7e0472ba7d4939096f3873d",
    "_top_": {
        "type": "string",
        "value": "0dp"
    },
    "_width_": {
        "type": "string",
        "value": "21%"
    },
    "allboxes": [],
    "autogrowmode": 0,
    "canUpdateUI": true,
    "children": [
        "CopyImage06fda7a0f69c945",
        "Label02bec01fd5baf4c"
    ],
    "clipbounds": true,
    "containerId": true,
    "containerweight": 100,
    "enabled": false,
    "enablescrolling": true,
    "id": "CopyFlexContainer02d619202407a4e",
    "ide_onClick": "AS_FlexContainer_c4b89bb731a74015ab4cee5ae7e17482",
    "info": null,
    "isvisible": true,
    "kuid": "ab7355c231d9432ab6cddfa4f3e5b172",
    "layouttype": 2,
    "name": "kony.ui.FlexContainer",
    "orientation": 6,
    "parent": "tabBarBackground",
    "percent": true,
    "pf": "tabBarAccounts",
    "snapgridsize": 10,
    "snaptogrid": true,
    "wType": "FlexContainer",
    "widgetalignment": 1,
    "zindex": 1
}