{
    "@class": "com.kony.gen.viz.model.container.KVizSegment2",
    "DNDConfig": null,
    "__parentReadjusting__": false,
    "_data_": [
        {
            "lblData": {
                "@class": "com.viz.ide.model.segment.SimpleTextSegmentData",
                "text": "    For Account Balance Speak:"
            }
        },
        {
            "lblData": {
                "@class": "com.viz.ide.model.segment.SimpleTextSegmentData",
                "text": "                         Account Search Balance"
            }
        },
        {
            "lblData": {
                "@class": "com.viz.ide.model.segment.SimpleTextSegmentData",
                "text": "    For Transfer Speak:"
            }
        },
        {
            "lblData": {
                "@class": "com.viz.ide.model.segment.SimpleTextSegmentData",
                "text": "                         Send Money"
            }
        },
        {
            "lblData": {
                "@class": "com.viz.ide.model.segment.SimpleTextSegmentData",
                "text": "                         Transfer Money"
            }
        }
    ],
    "_height_": {
        "type": "ref",
        "value": "preferred"
    },
    "_indicator_": "none",
    "_left_": {
        "type": "string",
        "value": "0dp"
    },
    "_margin_": [
        0,
        0,
        0,
        0
    ],
    "_orientation_": 2,
    "_padding_": [
        0,
        0,
        0,
        0
    ],
    "_top_": {
        "type": "string",
        "value": "5dp"
    },
    "_width_": {
        "type": "string",
        "value": "100%"
    },
    "autogrowmode": 1,
    "canUpdateUI": true,
    "containerweight": 100,
    "counter": "04",
    "focusedindex": null,
    "focuseditem": null,
    "generatedtemplate": "j8fd9703f5b64d90bf25a909a094315f",
    "groupcells": false,
    "hasSections": false,
    "id": "segmentSIRI",
    "info": null,
    "ipad": {
        "psp": {
            "indicator": "rowselect"
        }
    },
    "iphone": {
        "psp": {
            "indicator": "rowselect"
        }
    },
    "isvisible": true,
    "kuid": "i25ab478e77d46f7a1314f642ee0d31d",
    "masterdata": {},
    "name": "kony.ui.SegmentedUI2",
    "needpageindicator": true,
    "pageoffdotimage": "pageoffdot.png",
    "pageondotimage": "pageondot.png",
    "paginationconfig": {
        "position": "bottom"
    },
    "parent": "flxSeg",
    "pf": "frmUserSettingsSiri",
    "retainselection": false,
    "rowTemplateId": "j8fd9703f5b64d90bf25a909a094315f",
    "rowcounter": 4,
    "rowfocusskin": "s5fa38be22fb4f22b7c642b08276ab82",
    "rowskin": "sd2ca277651a46c0ba82f3226859f5a6",
    "rowtemplate": "FBox0a8248f803e1745",
    "screenlevelwidget": false,
    "seccounter": 0,
    "sectionheaderskin": "s67621b8a82d49f285da06b4f5a0c993",
    "selectedRows": null,
    "selectedState": false,
    "selectedindex": null,
    "selectedindices": null,
    "selecteditems": null,
    "selectedsectionindex": 0,
    "selectionbehavior": "default",
    "separatorrequired": false,
    "showscrollbars": false,
    "viewtype": "tableview",
    "vizProps": {},
    "wType": "Segment",
    "widgetalignment": 5,
    "widgetdatamap": {
        "lblData": "lblData"
    },
    "zindex": 1
}