{
    "DNDConfig": null,
    "__parentReadjusting__": false,
    "_height_": {
        "type": "string",
        "value": "100%"
    },
    "_left_": {
        "type": "string",
        "value": "0dp"
    },
    "_margin_": [
        0,
        0,
        0,
        0
    ],
    "_padding_": [
        0,
        0,
        0,
        0
    ],
    "_render_": true,
    "_skin_": "s5449e85b7e0472ba7d4939096f3873d",
    "_top_": {
        "type": "string",
        "value": "110dp"
    },
    "_width_": {
        "type": "string",
        "value": "100%"
    },
    "allboxes": [],
    "android": {
        "render": true
    },
    "autogrowmode": 0,
    "canUpdateUI": true,
    "children": [
        "FlxMinBal",
        "Border1",
        "FlxBalanceUpdate",
        "Border2",
        "FlxDebitLimit",
        "Border3",
        "FlxCreditLimit",
        "Border4",
        "FlxPaymentDue",
        "Border5",
        "FlxDepositRemainder",
        "flxIosTransferAlertsSwitchKA",
        "flxIosCheckAlertsSwitchKA",
        "HiddenAlertsReq",
        "HiddenSuccessTransfer",
        "HiddenCheckClear",
        "HiddenAlertId",
        "HiddenName",
        "HiddenAccNum"
    ],
    "clipbounds": true,
    "containerweight": 100,
    "enabled": false,
    "enablescrolling": true,
    "id": "androidAlerts",
    "info": null,
    "iphone": {
        "render": true
    },
    "isvisible": true,
    "kuid": "177c545864734dedbf18ae34ae3f437a",
    "layouttype": 4,
    "name": "kony.ui.FlexContainer",
    "orientation": 6,
    "parent": "mainContent",
    "percent": true,
    "pf": "frmAccountAlertsKA",
    "snapgridsize": 10,
    "snaptogrid": true,
    "spaan": {
        "render": true
    },
    "spabb": {
        "render": false
    },
    "spaip": {
        "render": true
    },
    "spawinphone8": {
        "render": false
    },
    "wType": "FlexContainer",
    "widgetalignment": 1,
    "winphone8": {
        "render": false
    },
    "zindex": 1
}