{
    "@class": "com.kony.gen.viz.model.component.KVizLabel",
    "DNDConfig": null,
    "__parentReadjusting__": false,
    "_height_": {
        "type": "ref",
        "value": "preferred"
    },
    "_margin_": [
        1,
        1,
        1,
        1
    ],
    "_padding_": [
        0,
        0,
        0,
        0
    ],
    "_right_": {
        "type": "string",
        "value": "35dp"
    },
    "_skin_": "sa273cdbc8e344f6a1554b94ab5c8723",
    "_text_": "Status",
    "_width_": {
        "type": "ref",
        "value": "preferred"
    },
    "_wrapping_": 2,
    "canUpdateUI": true,
    "centery": {
        "type": "string",
        "value": "48.72%"
    },
    "containerweight": 100,
    "contentalignment": 4,
    "enabled": false,
    "id": "credit",
    "info": null,
    "ipad": {
        "psp": {
            "wrapping": 2
        }
    },
    "iphone": {
        "psp": {
            "wrapping": 2
        }
    },
    "isvisible": true,
    "kuid": "d01506fd8d3f4f63902d194f38ac3e4c",
    "name": "kony.ui.Label",
    "parent": "FlxCreditLimit",
    "pf": "frmAccountAlertsKA",
    "tooltip": "",
    "wType": "Label"
}