{
  "operationConfig" : {
    "name" : "GetCustIdandValidate1929",
    "type" : "MappedToBackend",
    "cachable" : false,
    "smsEnabled" : false,
    "security" : "public",
    "responseEncoding" : "UTF-8",
    "httpMethod" : "GET",
    "decodeResponseBody" : false,
    "oMapping" : "<?xml version=\"1.0\" encoding=\"UTF-8\" standalone=\"yes\"?><mapper xmlns=\"http://www.kony.com/ns/mapper\">              <map inputpath=\"response_in\" outputpath=\"response_out\">                            <set-param inputpath=\"status_code\" outputpath=\"status_code\"/>                            <set-param inputpath=\"sessionID\" outputpath=\"sessionID\"/>                            <set-param inputpath=\"statusType\" outputpath=\"statusType\"/>                            <set-param inputpath=\"Cust_id\" outputpath=\"Cust_id\"/>                            <set-param inputpath=\"statusMessageChek\" outputpath=\"statusMessageChek\"/>                            <set-param inputpath=\"maskedPhone\" outputpath=\"maskedPhone\"/>                            <set-param inputpath=\"statusMessage\" outputpath=\"statusMessage\"/>                            <set-param inputpath=\"statusTypeCheck\" outputpath=\"statusTypeCheck\"/>              <set-param inputpath=\"cmpCustIDRes\" outputpath=\"cmpCustIDRes\"/>    <set-param inputpath=\"user_id\" outputpath=\"user_id\"/>    <set-param inputpath=\"username\" outputpath=\"username\"/>  </map></mapper>",
    "applyCommonMapping" : false,
    "backendMeta" : {
      "serviceVersion" : "1.0",
      "operationName" : "GetCustIdandValidate",
      "serviceName" : "BojUserReg"
    },
    "relationshipHierarchyMapping" : {
      "children" : [ ],
      "name" : "NewUser",
      "selected" : true
    },
    "requestXmlMappingOverride" : true,
    "responseXmlMappingOverride" : true
  }
}