{
    "DNDConfig": null,
    "__parentReadjusting__": false,
    "_height_": {
        "type": "ref",
        "value": "preferred"
    },
    "_left_": {
        "type": "string",
        "value": "0dp"
    },
    "_margin_": [
        0,
        0,
        0,
        0
    ],
    "_orientation_": 6,
    "_padding_": [
        0,
        0,
        0,
        0
    ],
    "_percent_": true,
    "_skin_": "s388f0c575ef4d08ac3a5ed0a4b90085",
    "_top_": {
        "type": "string",
        "value": "0dp"
    },
    "_width_": {
        "type": "string",
        "value": "100%"
    },
    "allboxes": [],
    "autogrowmode": 1,
    "canUpdateUI": true,
    "children": [
        "lblBenificiaryTitle",
        "flxBenficiryNameKA",
        "txtBenficiryNameKAInline",
        "flxBenficiryNickName",
        "txtBenficiryNickNameInline",
        "flxAddressBene",
        "tbxAddressBeneInline",
        "flxCityName",
        "tbxCityInline",
        "flxCountryName",
        "tbxCountryInline"
    ],
    "clipbounds": true,
    "containerweight": 100,
    "enablescrolling": true,
    "id": "flxBeneficiary",
    "info": null,
    "isvisible": true,
    "kuid": "fa294ef5354a40b8862c9ddc5ea45629",
    "layouttype": 4,
    "name": "kony.ui.FlexContainer",
    "parent": "flxMain",
    "pf": "frmAddExternalAccountKA",
    "snapgridsize": 10,
    "snaptogrid": true,
    "wType": "FlexContainer",
    "widgetalignment": 1,
    "zindex": 1
}