{
    "@class": "com.kony.gen.viz.model.component.KVizLabel",
    "DNDConfig": null,
    "__parentReadjusting__": false,
    "_height_": {
        "type": "ref",
        "value": "preferred"
    },
    "_left_": {
        "type": "string",
        "value": "2%"
    },
    "_margin_": [
        1,
        1,
        1,
        1
    ],
    "_padding_": [
        0,
        0,
        0,
        0
    ],
    "_skin_": "s253c4b5c1d64fbc9867399488272dbb",
    "_text_": "Country",
    "_top_": {
        "type": "string",
        "value": "18%"
    },
    "_width_": {
        "type": "string",
        "value": "85%"
    },
    "_wrapping_": 2,
    "android": {
        "textStyle": {
            "letterSpacing": 0,
            "strikeThrough": false
        }
    },
    "canUpdateUI": true,
    "containerweight": 100,
    "contentalignment": 4,
    "id": "lblCountryTitle",
    "info": null,
    "ipad": {
        "psp": {
            "wrapping": 2
        }
    },
    "iphone": {
        "psp": {
            "wrapping": 2
        }
    },
    "isvisible": false,
    "kuid": "a7278d5c5bdb46a290af53d1d3bde9a5",
    "maxnumberoflines": 1,
    "name": "kony.ui.Label",
    "parent": "flxCountryName",
    "pf": "frmAddExternalAccountKA",
    "texti18n": "i18n.NUO.Country",
    "texttruncateposition": 3,
    "tooltip": "",
    "wType": "Label",
    "zindex": 2
}