{
    "@class": "com.kony.gen.viz.model.component.KVizTextBox2",
    "DNDConfig": null,
    "__parentReadjusting__": false,
    "_bottom_": {
        "type": "string",
        "value": "4%"
    },
    "_height_": {
        "type": "string",
        "value": "60%"
    },
    "_margin_": [
        0,
        0,
        0,
        0
    ],
    "_padding_": [
        3,
        0,
        0,
        0
    ],
    "_placeholder_": "",
    "_skin_": "s029998596d3421892d0917ea7492e1d",
    "_text_": "",
    "_width_": {
        "type": "string",
        "value": "100%"
    },
    "accessibilityconfig": {
        "a11yLabel": "Enter your Username"
    },
    "android": {
        "ide_onEndEditing": "AS_TextField_c0ff511909ad44f1ae600c8e9b5a5380",
        "onEndEditing": "AS_TextField_ja28486c7a3043998424fea66ecabfa6",
        "psp": {
            "keyboardActionLabel": 12
        }
    },
    "autocapitalize": "none",
    "autocomplete": false,
    "autocorrect": false,
    "autofilter": false,
    "canUpdateUI": true,
    "centerx": "50%",
    "containerheight": "",
    "containerheightmode": 1,
    "containerweight": 100,
    "contentalignment": 4,
    "disabledSkins": {},
    "focusskin": "s029998596d3421892d0917ea7492e1d",
    "id": "tbxAddressBene",
    "ide_onDone": "AS_TextField_bb3b1bd137dd4f0bb3e02ab20fed1163",
    "ide_onTextChange": "AS_TextField_b590ebc603554d609305bcbdb55fd73a",
    "ide_onTouchEnd": "AS_TextField_j1ef35a01059446f980eaa83fe2973d8",
    "info": null,
    "iphone": {
        "ide_onEndEditing": "AS_TextField_deb58d1a925045df99935d539e9c06af",
        "onBeginEditing": "AS_TextField_c0713df9ccfc44dba27a3f28bca350b8",
        "onEndEditing": "AS_TextField_c0713df9ccfc44dba27a3f28bca350b8",
        "psp": {
            "keyboardActionLabel": 1
        }
    },
    "isvisible": true,
    "keyboardactionlabel": 4,
    "keyboardtype": "A",
    "kuid": "i80321bf5ed648038aa38cf20424437a",
    "maxtextlength": 35,
    "mode": "A",
    "name": "kony.ui.TextBox2",
    "parent": "flxAddressBene",
    "pf": "frmAddExternalAccountKA",
    "securetextentry": false,
    "textinputmode": "A",
    "viewtype": "default",
    "wType": "TextField",
    "zindex": 1
}