{
    "@class": "com.kony.gen.viz.model.component.KVizLabel",
    "DNDConfig": null,
    "__parentReadjusting__": false,
    "_height_": {
        "type": "ref",
        "value": "preferred"
    },
    "_margin_": [
        1,
        1,
        1,
        1
    ],
    "_padding_": [
        0,
        0,
        0,
        0
    ],
    "_skin_": "s94c6b278d1243898f734f4f2316f2c8",
    "_text_": "Accounts",
    "_top_": {
        "type": "string",
        "value": "34dp"
    },
    "_width_": {
        "type": "ref",
        "value": "preferred"
    },
    "_wrapping_": 2,
    "canUpdateUI": true,
    "centerx": {
        "type": "string",
        "value": "50%"
    },
    "containerId": true,
    "containerweight": 100,
    "contentalignment": 5,
    "enabled": false,
    "id": "Label0c0d55c2acd1d43",
    "info": null,
    "ipad": {
        "psp": {
            "wrapping": 2
        }
    },
    "iphone": {
        "psp": {
            "wrapping": 2
        }
    },
    "isvisible": true,
    "kuid": "dd031409a28647feb7c5624110edcf1a",
    "name": "kony.ui.Label",
    "parent": "FlexContainer0c6e533ec2e5d48",
    "pf": "tabBarDeposits",
    "texti18n": "i18n.my_money.accounts",
    "tooltip": "",
    "wType": "Label",
    "zindex": 1
}