{
    "@class": "com.kony.gen.viz.model.component.KVizButton",
    "DNDConfig": null,
    "__parentReadjusting__": false,
    "_height_": {
        "type": "string",
        "value": "8%"
    },
    "_margin_": [
        6,
        6,
        6,
        6
    ],
    "_padding_": [
        0,
        0,
        0,
        0
    ],
    "_skin_": "sf7766faf6e34d0789442a84c1e76e1a",
    "_text_": "",
    "_top_": {
        "type": "string",
        "value": "85%"
    },
    "_width_": {
        "type": "string",
        "value": "70%"
    },
    "canUpdateUI": true,
    "centerx": {
        "type": "string",
        "value": "50%"
    },
    "containerweight": 100,
    "contentalignment": 5,
    "displaytext": true,
    "focusskin": "sad5d6d4890b44858a39e4bf8a290332",
    "id": "btnAddBene",
    "ide_onClick": "AS_Button_g0d2f17d9fa740eab689b862f3b4c95f",
    "info": null,
    "isvisible": false,
    "kuid": "g18c9b1ff2a54210b32797e5da46e477",
    "name": "kony.ui.Button",
    "parent": "flxCheckRegJomopay",
    "pf": "frmJoMoPayLanding",
    "texti18n": "i18n.Bene.Addbeneficiary",
    "wType": "Button",
    "zindex": 2
}