{
    "@class": "com.kony.gen.viz.model.component.KVizButton",
    "DNDConfig": null,
    "__parentReadjusting__": false,
    "_bottom_": {
        "type": "string",
        "value": "10%"
    },
    "_height_": {
        "type": "string",
        "value": "80%"
    },
    "_margin_": [
        6,
        6,
        6,
        6
    ],
    "_padding_": [
        0,
        0,
        0,
        0
    ],
    "_skin_": "sf7766faf6e34d0789442a84c1e76e1a",
    "_text_": "",
    "_width_": {
        "type": "string",
        "value": "70%"
    },
    "canUpdateUI": true,
    "centerx": {
        "type": "string",
        "value": "50%"
    },
    "containerweight": 100,
    "contentalignment": 5,
    "displaytext": true,
    "focusskin": "sad5d6d4890b44858a39e4bf8a290332",
    "id": "btnScanMerchantQR",
    "ide_onClick": "AS_Button_a8d3b9a3aff644329f6cc789089a46ba",
    "info": null,
    "isvisible": true,
    "kuid": "cc5e3f7a4e8b4cc78edd20f96fea7c37",
    "name": "kony.ui.Button",
    "parent": "flxScanMerchantQR",
    "pf": "frmJoMoPayLanding",
    "texti18n": "i18n.jomopay.scanMerchantQR",
    "wType": "Button",
    "zindex": 2
}