{
    "@class": "com.kony.gen.viz.model.component.KVizImage2",
    "DNDConfig": null,
    "__parentReadjusting__": false,
    "_base64_": null,
    "_height_": {
        "type": "string",
        "value": "100%"
    },
    "_margin_": [
        0,
        0,
        0,
        0
    ],
    "_padding_": [
        0,
        0,
        0,
        0
    ],
    "_right_": {
        "type": "string",
        "value": "19.44%"
    },
    "_skin_": "sa625024fef740fea5133ed43bbfac5f",
    "_src_": "qrcode.png",
    "_top_": {
        "type": "string",
        "value": "0.00%"
    },
    "_width_": {
        "type": "string",
        "value": "9%"
    },
    "canUpdateUI": true,
    "containerweight": 100,
    "context": {
        "channel": "mobile",
        "formID": "frmJoMoPayLanding",
        "platform": "android",
        "templateType": "forms",
        "topLevelBox": null
    },
    "id": "imgQRIcon",
    "imagescalemode": 1,
    "info": null,
    "invokedProperty": "src",
    "isvisible": true,
    "kuid": "deb1fa2d0d6d442d95f106ebc4f97710",
    "name": "kony.ui.Image2",
    "parent": "flxScanMerchantQR",
    "pf": "frmJoMoPayLanding",
    "srcType": 1,
    "wType": "Image",
    "widgetalignment": 5,
    "zindex": 2
}