{
    "@class": "com.kony.gen.viz.model.component.KVizLabel",
    "DNDConfig": null,
    "__parentReadjusting__": false,
    "_height_": {
        "type": "ref",
        "value": "preferred"
    },
    "_margin_": [
        1,
        1,
        1,
        1
    ],
    "_padding_": [
        0,
        0,
        0,
        0
    ],
    "_skin_": "s94c6b278d1243898f734f4f2316f2c8",
    "_text_": "Deposits",
    "_top_": {
        "type": "string",
        "value": "34dp"
    },
    "_width_": {
        "type": "ref",
        "value": "preferred"
    },
    "_wrapping_": 2,
    "android": {
        "textStyle": {
            "letterSpacing": 0,
            "strikeThrough": false
        }
    },
    "canUpdateUI": true,
    "centerx": {
        "type": "string",
        "value": "50%"
    },
    "containerweight": 100,
    "contentalignment": 5,
    "id": "Label04221a71494e848",
    "info": null,
    "ipad": {
        "psp": {
            "wrapping": 2
        }
    },
    "iphone": {
        "psp": {
            "wrapping": 2
        }
    },
    "isvisible": false,
    "kuid": "b6cbe1a42e2e4f3fb998af7297123bf8",
    "name": "kony.ui.Label",
    "parent": "FlxDeposits",
    "pf": "frmJoMoPayLanding",
    "texti18n": "i18n.common.deposits",
    "textstyle": {},
    "tooltip": "",
    "wType": "Label",
    "zindex": 1
}