{
    "@class": "com.kony.gen.viz.model.component.KVizButton",
    "DNDConfig": null,
    "__parentReadjusting__": false,
    "_height_": {
        "type": "string",
        "value": "100%"
    },
    "_left_": {
        "type": "string",
        "value": "50%"
    },
    "_margin_": [
        6,
        6,
        6,
        6
    ],
    "_padding_": [
        0,
        1,
        0,
        0
    ],
    "_skin_": "s7d36df6cf6f406fa2ff1418541f0ec0",
    "_text_": "SCHEDULED",
    "_top_": {
        "type": "string",
        "value": "0dp"
    },
    "_width_": {
        "type": "string",
        "value": "50%"
    },
    "canUpdateUI": true,
    "containerweight": 100,
    "contentalignment": 5,
    "displaytext": true,
    "focusskin": "s80191b6ac7b456395dfcf46858959f6",
    "id": "CopyscheduledTabButton0f2be9f13f83a4d",
    "ide_onClick": "AS_Button_j70c6a9f797d4f0f9f35990f4c75728d",
    "info": null,
    "iphone": {
        "psp": {
            "showProgressIndicator": false
        }
    },
    "isvisible": false,
    "kuid": "bc8ce941bb6146bd97f9155f00206f3e",
    "name": "kony.ui.Button",
    "onclick": "AS_Button_5cf352ceb8094acf83e90f4325190ed3",
    "paddinginpixel": false,
    "parent": "flxLoansListInfo",
    "pf": "frmAccountDetailKA",
    "showprogressindicator": false,
    "texti18n": "i18n.common.cSCHEDULED",
    "wType": "Button"
}