{
    "DNDConfig": null,
    "__parentReadjusting__": false,
    "_height_": {
        "type": "string",
        "value": "100dp"
    },
    "_left_": {
        "type": "string",
        "value": "0"
    },
    "_margin_": [
        0,
        0,
        0,
        0
    ],
    "_padding_": [
        0,
        0,
        0,
        0
    ],
    "_skin_": "s3eaae82ed2b4f849e66577b8bc7b07b",
    "_width_": {
        "type": "string",
        "value": "33.33%"
    },
    "allboxes": [],
    "autogrowmode": 0,
    "canUpdateUI": true,
    "centery": {
        "type": "string",
        "value": "50%"
    },
    "children": [
        "CopyStatementsFlx0c890a1567e2447",
        "CopybuttonDivider0i0eec9f495924a",
        "CopyStatementsButton0d24a38dadef241"
    ],
    "clipbounds": true,
    "containerweight": 100,
    "enabled": false,
    "enablescrolling": true,
    "id": "CopyStatementsWrapper0j399a4f4d50848",
    "info": null,
    "isvisible": false,
    "kuid": "c46aac3672bd45d68e3afe6a5e2aa0bc",
    "layouttype": 2,
    "masterType": 1,
    "name": "kony.ui.FlexContainer",
    "orientation": 6,
    "parent": "CopyactionWrapper0b8641777576440",
    "percent": true,
    "pf": "frmAccountDetailKA",
    "snapgridsize": 10,
    "snaptogrid": true,
    "wType": "FlexContainer",
    "widgetalignment": 1,
    "zindex": 1
}