{
    "@class": "com.kony.gen.viz.model.component.KVizButton",
    "DNDConfig": null,
    "__parentReadjusting__": false,
    "_bottom_": {
        "type": "string",
        "value": "10%"
    },
    "_height_": {
        "type": "string",
        "value": "40dp"
    },
    "_left_": {
        "type": "string",
        "value": "15dp"
    },
    "_margin_": [
        6,
        6,
        6,
        6
    ],
    "_padding_": [
        0,
        0,
        0,
        0
    ],
    "_skin_": "s409616a424246c78da4bbcd9516e43d",
    "_text_": "ACCOUNT DETAIL",
    "_top_": {
        "type": "number",
        "value": "0"
    },
    "_width_": {
        "type": "string",
        "value": "40%"
    },
    "canUpdateUI": true,
    "containerweight": 100,
    "contentalignment": 5,
    "disabledSkins": {},
    "displaytext": true,
    "focusskin": "s855d4a3c7a14976abf747a9184ae0d0",
    "id": "CopyaccountInfoButton0e7a58b9df11446",
    "ide_onClick": "AS_Button_fe1cef3bb60e4e828f55ce2ef74f385f",
    "info": null,
    "iphone": {
        "psp": {
            "showProgressIndicator": false
        }
    },
    "isvisible": true,
    "kuid": "b90fed8955b94880a534d9c164edd014",
    "name": "kony.ui.Button",
    "onclick": "AS_Button_075ee92b7f8f4fecb2bb81921de90fae",
    "paddinginpixel": false,
    "parent": "CopyflxAccntDetailButtonsKA0be145932176d41",
    "pf": "frmAccountDetailKA",
    "showprogressindicator": false,
    "texti18n": "i18n.Accounts.DetailsC",
    "vizProps": {
        "hide": false
    },
    "wType": "Button",
    "zindex": 1
}