{
    "@class": "com.kony.gen.viz.model.component.KVizLabel",
    "DNDConfig": null,
    "__parentReadjusting__": false,
    "_height_": {
        "type": "string",
        "value": "90%"
    },
    "_left_": {
        "type": "string",
        "value": "1%"
    },
    "_margin_": [
        1,
        1,
        1,
        1
    ],
    "_padding_": [
        1,
        0,
        0,
        0
    ],
    "_skin_": "sf2d7d03d9644e3785bf995321ff63a7",
    "_text_": "",
    "_width_": {
        "type": "string",
        "value": "5%"
    },
    "_wrapping_": 2,
    "android": {
        "textStyle": {
            "letterSpacing": 0,
            "strikeThrough": false
        }
    },
    "canUpdateUI": true,
    "centery": {
        "type": "string",
        "value": "50%"
    },
    "containerweight": 100,
    "contentalignment": 4,
    "id": "lblBackIcon",
    "ide_onTouchEnd": "AS_Label_c71cd08657254db5ab3ca89bb1e72c54",
    "info": null,
    "ipad": {
        "psp": {
            "wrapping": 2
        }
    },
    "iphone": {
        "psp": {
            "wrapping": 2
        }
    },
    "iscustomlayout": true,
    "isvisible": true,
    "kuid": "aa302171244b4f049f375f966224a0ea",
    "name": "kony.ui.Label",
    "paddinginpixel": false,
    "parent": "accountDetailsTitleBar",
    "pf": "frmAccountDetailKA",
    "retainflexpositionproperties": true,
    "texti18n": "i18n.common.back",
    "textstyle": {},
    "tooltip": "",
    "wType": "Label",
    "zindex": 20
}