{
    "@class": "com.kony.gen.viz.model.component.KVizButton",
    "DNDConfig": null,
    "__parentReadjusting__": false,
    "_height_": {
        "type": "string",
        "value": "50dp"
    },
    "_margin_": [
        6,
        6,
        6,
        6
    ],
    "_padding_": [
        0,
        0,
        0,
        14
    ],
    "_skin_": "s369ab04a83040bc808b21001c014f1a",
    "_text_": "i",
    "_width_": {
        "type": "string",
        "value": "100%"
    },
    "accessibilityconfig": {
        "a11yValue": "Transfer"
    },
    "canUpdateUI": true,
    "centerx": {
        "type": "string",
        "value": "50%"
    },
    "centery": {
        "type": "string",
        "value": "50%"
    },
    "containerId": true,
    "containerweight": 100,
    "contentalignment": 5,
    "disabledSkins": {},
    "displaytext": true,
    "focusskin": "sd291eaf83084ea781b9988b6f1fc66d",
    "id": "CopybtnAccounts0ff48f9feb0aa42",
    "ide_onClick": "AS_Button_b76c39ef427143f18d933073c05028af",
    "info": null,
    "isvisible": true,
    "kuid": "ba223e2b52414a91b49aad9b3bf65558",
    "name": "kony.ui.Button",
    "paddinginpixel": false,
    "parent": "FlxBot",
    "pf": "iphoneFooterAr",
    "wType": "Button",
    "zindex": 1
}