{
    "@class": "com.kony.gen.viz.model.component.KVizButton",
    "DNDConfig": null,
    "__parentReadjusting__": false,
    "_height_": {
        "type": "string",
        "value": "50dp"
    },
    "_margin_": [
        6,
        6,
        6,
        6
    ],
    "_padding_": [
        0,
        0,
        0,
        0
    ],
    "_skin_": "s369ab04a83040bc808b21001c014f1a",
    "_text_": "J",
    "_width_": {
        "type": "string",
        "value": "100%"
    },
    "canUpdateUI": true,
    "centerx": {
        "type": "string",
        "value": "50%"
    },
    "centery": {
        "type": "string",
        "value": "50%"
    },
    "containerId": true,
    "containerweight": 100,
    "contentalignment": 5,
    "disabledSkins": {},
    "displaytext": true,
    "focusskin": "s369ab04a83040bc808b21001c014f1a",
    "id": "CopybtnAccounts0bc68a97c14fb49",
    "info": null,
    "isvisible": true,
    "kuid": "cc8ed4c462564d99bf6d86c21959710c",
    "name": "kony.ui.Button",
    "parent": "FlxDeposits",
    "pf": "iphoneFooterAr",
    "wType": "Button",
    "zindex": 1
}