{
    "@class": "com.kony.gen.viz.model.component.KVizButton",
    "DNDConfig": null,
    "__parentReadjusting__": false,
    "_height_": {
        "type": "string",
        "value": "100%"
    },
    "_left_": {
        "type": "string",
        "value": "0dp"
    },
    "_margin_": [
        6,
        6,
        6,
        6
    ],
    "_padding_": [
        0,
        0,
        0,
        0
    ],
    "_skin_": "sdca1e763f194628acc584f5033e37ab",
    "_text_": "Accounts",
    "_top_": {
        "type": "string",
        "value": "0dp"
    },
    "_width_": {
        "type": "string",
        "value": "33.30%"
    },
    "canUpdateUI": true,
    "centery": {
        "type": "string",
        "value": "50%"
    },
    "containerweight": 100,
    "contentalignment": 5,
    "disabledSkins": {},
    "displaytext": true,
    "focusskin": "sdca1e763f194628acc584f5033e37ab",
    "id": "btnAccounts1",
    "ide_onClick": "AS_Button_ed3ea6423c374f07aa96c2805f82658a",
    "info": null,
    "isvisible": true,
    "kuid": "i76809011ad64ba8a63e04178c975061",
    "name": "kony.ui.Button",
    "parent": "flxTabDeals",
    "pf": "frmAccountsLandingKA",
    "texti18n": "i18n.accounts.accounts",
    "wType": "Button",
    "zindex": 1
}