{
    "@class": "com.kony.gen.viz.model.component.KVizButton",
    "DNDConfig": null,
    "__parentReadjusting__": false,
    "_height_": {
        "type": "string",
        "value": "100%"
    },
    "_left_": {
        "type": "string",
        "value": "33.30%"
    },
    "_margin_": [
        6,
        6,
        6,
        6
    ],
    "_padding_": [
        0,
        0,
        0,
        0
    ],
    "_skin_": "s53ac86ee520407b808663727586ec9a",
    "_text_": "",
    "_top_": {
        "type": "string",
        "value": "0dp"
    },
    "_width_": {
        "type": "string",
        "value": "33.30%"
    },
    "canUpdateUI": true,
    "centery": {
        "type": "string",
        "value": "50%"
    },
    "containerweight": 100,
    "contentalignment": 5,
    "disabledSkins": {},
    "displaytext": true,
    "focusskin": "s53ac86ee520407b808663727586ec9a",
    "id": "btnDeals1",
    "info": null,
    "isvisible": true,
    "kuid": "e90b3ba3a46548daa710c33de629eac0",
    "name": "kony.ui.Button",
    "parent": "flxTabDeals",
    "pf": "frmAccountsLandingKA",
    "texti18n": "i18n.accounts.deals",
    "wType": "Button",
    "zindex": 1
}