{
  "operationConfig" : {
    "name" : "TransferOP7991",
    "type" : "MappedToBackend",
    "cachable" : false,
    "smsEnabled" : false,
    "security" : "public",
    "responseEncoding" : "UTF-8",
    "httpMethod" : "GET",
    "decodeResponseBody" : false,
    "iMapping" : "<?xml version=\"1.0\" encoding=\"UTF-8\" standalone=\"yes\"?><mapper xmlns=\"http://www.kony.com/ns/mapper\">  <map inputpath=\"request_in\" outputpath=\"request_out\">    <set-param inputpath=\"p_deal_ref_no\" outputpath=\"p_deal_ref_no\"/>    <set-param inputpath=\"p_Nation\" outputpath=\"p_Nation\"/>    <set-param inputpath=\"p_biller_code\" outputpath=\"p_biller_code\"/>    <set-param inputpath=\"BenCity\" outputpath=\"BenCity\"/>    <set-param inputpath=\"toAccountNumber\" outputpath=\"toAccountNumber\"/>    <set-param inputpath=\"p_Fees_On_Biller\" outputpath=\"p_Fees_On_Biller\"/>    <set-param inputpath=\"P_deno\" outputpath=\"P_deno\"/>    <set-param inputpath=\"p_ServiceType\" outputpath=\"p_ServiceType\"/>    <set-param inputpath=\"p_fcdb_ref_no\" outputpath=\"p_fcdb_ref_no\"/>    <set-param inputpath=\"BenAddress2\" outputpath=\"BenAddress2\"/>    <set-param inputpath=\"amount\" outputpath=\"amount\"/>    <set-param inputpath=\"BenAddress1\" outputpath=\"BenAddress1\"/>    <set-param inputpath=\"p_imb_addr1\" outputpath=\"p_imb_addr1\"/>    <set-param inputpath=\"p_imb_country\" outputpath=\"p_imb_country\"/>    <set-param inputpath=\"p_exc_comm\" outputpath=\"p_exc_comm\"/>    <set-param inputpath=\"BenAddress3\" outputpath=\"BenAddress3\"/>    <set-param inputpath=\"p_imb_addr2\" outputpath=\"p_imb_addr2\"/>    <set-param inputpath=\"p_BillingNo\" outputpath=\"p_BillingNo\"/>    <set-param inputpath=\"p_national_crear_code\" outputpath=\"p_national_crear_code\"/>    <set-param inputpath=\"p_pay_mode\" outputpath=\"p_pay_mode\"/>    <set-param inputpath=\"p_AccessChannel\" outputpath=\"p_AccessChannel\"/>    <set-param inputpath=\"frequencyEndDate\" outputpath=\"frequencyEndDate\"/>    <set-param inputpath=\"p_imb_city\" outputpath=\"p_imb_city\"/>    <set-param inputpath=\"p_acc_or_cr\" outputpath=\"p_acc_or_cr\"/>    <set-param inputpath=\"p_lc_amount\" outputpath=\"p_lc_amount\"/>    <set-param inputpath=\"P_mobile_no\" outputpath=\"P_mobile_no\"/>    <set-param inputpath=\"BenCountry\" outputpath=\"BenCountry\"/>    <set-param inputpath=\"p_PaymentMethod\" outputpath=\"p_PaymentMethod\"/>    <set-param inputpath=\"toAccountName\" outputpath=\"toAccountName\"/>    <set-param inputpath=\"frequencyStartDate\" outputpath=\"frequencyStartDate\"/>    <set-param inputpath=\"p_paymt_Type\" outputpath=\"p_paymt_Type\"/>    <set-param inputpath=\"frequencyType\" outputpath=\"frequencyType\"/>    <set-param inputpath=\"p_national_crear_code_type\" outputpath=\"p_national_crear_code_type\"/>    <set-param inputpath=\"toAccountType\" outputpath=\"toAccountType\"/>    <set-param inputpath=\"numberOfRecurrences\" outputpath=\"numberOfRecurrences\"/>    <set-param inputpath=\"p_SendSMSFlag\" outputpath=\"p_SendSMSFlag\"/>    <set-param inputpath=\"p_trans_amt_ccy\" outputpath=\"p_trans_amt_ccy\"/>    <set-param inputpath=\"p_cr_amount\" outputpath=\"p_cr_amount\"/>    <set-param inputpath=\"p_payment_Status\" outputpath=\"p_payment_Status\"/>    <set-param inputpath=\"p_serv_type_code\" outputpath=\"p_serv_type_code\"/>    <set-param inputpath=\"p_imb_swift_code\" outputpath=\"p_imb_swift_code\"/>    <set-param inputpath=\"jomopayType\" outputpath=\"jomopayType\"/>    <set-param inputpath=\"p_BillerCode\" outputpath=\"p_BillerCode\"/>    <set-param inputpath=\"p_ben_bank_name\" outputpath=\"p_ben_bank_name\"/>    <set-param inputpath=\"lang\" outputpath=\"lang\"/>    <set-param inputpath=\"p_ben_bank_city\" outputpath=\"p_ben_bank_city\"/>    <set-param inputpath=\"p_account_br\" outputpath=\"p_account_br\"/>    <set-param inputpath=\"p_BillNo\" outputpath=\"p_BillNo\"/>    <set-param inputpath=\"SwiftCode\" outputpath=\"SwiftCode\"/>    <set-param inputpath=\"p_corresp_charges\" outputpath=\"p_corresp_charges\"/>    <set-param inputpath=\"p_MobileNo\" outputpath=\"p_MobileNo\"/>    <set-param inputpath=\"p_IdType\" outputpath=\"p_IdType\"/>    <set-param inputpath=\"p_due_amt\" outputpath=\"p_due_amt\"/>    <set-param inputpath=\"p_remmit_purpose\" outputpath=\"p_remmit_purpose\"/>    <set-param inputpath=\"BenBranchCode\" outputpath=\"BenBranchCode\"/>    <set-param inputpath=\"usr\" outputpath=\"usr\"/>    <set-param inputpath=\"p_ben_bank_addr1\" outputpath=\"p_ben_bank_addr1\"/>    <set-param inputpath=\"p_ben_bank_addr2\" outputpath=\"p_ben_bank_addr2\"/>    <set-param inputpath=\"custId\" outputpath=\"custId\"/>    <set-param inputpath=\"p_ben_bank_country\" outputpath=\"p_ben_bank_country\"/>    <set-param inputpath=\"p_validation_code\" outputpath=\"p_validation_code\"/>    <set-param inputpath=\"p_ID\" outputpath=\"p_ID\"/>    <set-param inputpath=\"p_CustInfoFlag\" outputpath=\"p_CustInfoFlag\"/>    <set-param inputpath=\"p_ben_branch_code\" outputpath=\"p_ben_branch_code\"/>    <set-param inputpath=\"fromAccountNumber\" outputpath=\"fromAccountNumber\"/>    <set-param inputpath=\"transactionsNotes\" outputpath=\"transactionsNotes\"/>    <set-param inputpath=\"fees\" outputpath=\"fees\"/>    <set-param inputpath=\"p_billing_no\" outputpath=\"p_billing_no\"/>    <set-param inputpath=\"referenceId\" outputpath=\"referenceId\"/>    <set-param inputpath=\"p_iban\" outputpath=\"p_iban\"/>    <set-param inputpath=\"SourceBranchCode\" outputpath=\"SourceBranchCode\"/>    <set-param inputpath=\"pass\" outputpath=\"pass\"/>    <set-param inputpath=\"transactionType\" outputpath=\"transactionType\"/>    <set-param inputpath=\"TransferFlag\" outputpath=\"TransferFlag\"/>    <set-param inputpath=\"p_pmt_details3\" outputpath=\"p_pmt_details3\"/>    <set-param inputpath=\"p_pmt_details4\" outputpath=\"p_pmt_details4\"/>    <set-param inputpath=\"p_DueAmt\" outputpath=\"p_DueAmt\"/>    <set-param inputpath=\"p_imb_name\" outputpath=\"p_imb_name\"/>    <set-param inputpath=\"p_comm\" outputpath=\"p_comm\"/>    <set-param inputpath=\"p_pmt_details1\" outputpath=\"p_pmt_details1\"/>    <set-param inputpath=\"p_pmt_details2\" outputpath=\"p_pmt_details2\"/>  </map></mapper>",
    "oMapping" : "<?xml version=\"1.0\" encoding=\"UTF-8\" standalone=\"yes\"?><mapper xmlns=\"http://www.kony.com/ns/mapper\">  <map inputpath=\"response_in\" outputpath=\"response_out\">    <set-param inputpath=\"referenceId\" outputpath=\"referenceId\"/>    <set-param inputpath=\"ErrorCode\" outputpath=\"ErrorCode\"/>  </map></mapper>",
    "applyCommonMapping" : false,
    "backendMeta" : {
      "serviceVersion" : "1.0",
      "operationName" : "TransferOP",
      "serviceName" : "TransferMoneySS"
    },
    "relationshipHierarchyMapping" : {
      "children" : [ ],
      "name" : "Transactions",
      "selected" : true
    },
    "requestXmlMappingOverride" : true,
    "responseXmlMappingOverride" : true
  }
}