{
  "operationConfig" : {
    "name" : "getAccountTransactionList5130",
    "type" : "MappedToBackend",
    "cachable" : false,
    "smsEnabled" : false,
    "security" : "authorized_app",
    "responseEncoding" : "UTF-8",
    "httpMethod" : "GET",
    "decodeResponseBody" : false,
    "iMapping" : "<?xml version=\"1.0\" encoding=\"UTF-8\" standalone=\"yes\"?><mapper xmlns=\"http://www.kony.com/ns/mapper\">        <map inputpath=\"request_in\" outputpath=\"request_out\">                <set-param inputpath=\"pass\" outputpath=\"pass\"/>                <set-param inputpath=\"p_fromDate\" outputpath=\"p_fromDate\"/>                <set-param inputpath=\"p_fcdb_ref_no\" outputpath=\"p_fcdb_ref_no\"/>                <set-param inputpath=\"accountNumber\" outputpath=\"accountNumber\"/>                <set-param inputpath=\"p_no_Of_Txn\" outputpath=\"p_no_Of_Txn\"/>                <set-param inputpath=\"usr\" outputpath=\"usr\"/>                <set-param inputpath=\"p_Branch\" outputpath=\"p_Branch\"/>                <set-param inputpath=\"custId\" outputpath=\"custId\"/>                <set-param inputpath=\"p_toDate\" outputpath=\"p_toDate\"/>                <set-param inputpath=\"lang\" outputpath=\"lang\"/>                <set-param inputpath=\"p_debit_card_no\" outputpath=\"p_debit_card_no\"/>        </map></mapper>",
    "oMapping" : "<mapper xmlns=\"http://www.kony.com/ns/mapper\">                                      <map inputpath=\"response_in\" outputpath=\"response_out\">                                                                            <map inputpath=\"Transactions\" outputpath=\"Transactions\">                                                                                                                  <set-param inputpath=\"payeeNickName\" outputpath=\"payeeNickName\"/>                                                                                                                  <set-param inputpath=\"payPersonEmail\" outputpath=\"payPersonEmail\"/>                                                                                                                  <set-param inputpath=\"frequencyEndDate\" outputpath=\"frequencyEndDate\"/>                                                                                                                  <set-param inputpath=\"cashlessSecurityCode\" outputpath=\"cashlessSecurityCode\"/>                                                                                                                  <set-param inputpath=\"fromAccountNumber\" outputpath=\"fromAccountNumber\"/>                                                                                                                  <set-param inputpath=\"frequencyStartDate\" outputpath=\"frequencyStartDate\"/>                                                                                                                  <set-param inputpath=\"fromNickName\" outputpath=\"fromNickName\"/>                                                                                                                  <set-param inputpath=\"payPersonPhone\" outputpath=\"payPersonPhone\"/>                                                                                                                  <set-param inputpath=\"cashlessPhone\" outputpath=\"cashlessPhone\"/>                                                                                                                  <set-param inputpath=\"description\" outputpath=\"description\"/>                                                                                                                  <set-param inputpath=\"scheduledDate\" outputpath=\"scheduledDate\"/>                                                                                                                  <set-param inputpath=\"isScheduled\" outputpath=\"isScheduled\"/>                                                                                                                  <set-param inputpath=\"transactionComments\" outputpath=\"transactionComments\"/>                                                                                                                  <set-param inputpath=\"transactiontype\" outputpath=\"transactionType\"/>                                                                                                                  <set-param inputpath=\"cashWithdrawalTransactionStatus\" outputpath=\"cashWithdrawalTransactionStatus\"/>                                                                                                                  <set-param inputpath=\"fromAccountType\" outputpath=\"fromAccountType\"/>                                                                                                                  <set-param inputpath=\"ExternalAccountNumber\" outputpath=\"ExternalAccountNumber\"/>                                                                                                                  <set-param inputpath=\"payeeId\" outputpath=\"payeeId\"/>                                                                                                                  <set-param inputpath=\"cashlessEmail\" outputpath=\"cashlessEmail\"/>                                                                                                                  <set-param inputpath=\"cashlessOTPValidDate\" outputpath=\"cashlessOTPValidDate\"/>                                                                                                                  <set-param inputpath=\"recurrenceDesc\" outputpath=\"recurrenceDesc\"/>                                                                                                                  <set-param inputpath=\"amount\" outputpath=\"amount\"/>                                                                                                                  <set-param inputpath=\"toAccountType\" outputpath=\"toAccountType\"/>                                                                                                                  <set-param inputpath=\"fromAccountName\" outputpath=\"fromAccountName\"/>                                                                                                                  <set-param inputpath=\"numberOfRecurrences\" outputpath=\"numberOfRecurrences\"/>                                                                                                                  <set-param inputpath=\"hasDepositImage\" outputpath=\"hasDepositImage\"/>                                                                                                                  <set-param inputpath=\"transactionDate\" outputpath=\"transactionDate\"/>                                                                                                                  <set-param inputpath=\"cashlessPersonName\" outputpath=\"cashlessPersonName\"/>                                                                                                                  <set-param inputpath=\"transactionId\" outputpath=\"transactionId\"/>                                                                                                                  <set-param inputpath=\"toAccountName\" outputpath=\"toAccountName\"/>                                                                                                                  <set-param inputpath=\"statusDescription\" outputpath=\"statusDescription\"/>                                                                                                                  <set-param inputpath=\"fromAccountBalance\" outputpath=\"fromAccountBalance\"/>                                                                                                                  <set-param inputpath=\"description\" outputpath=\"transactionsNotes\"/>                                                                                                                  <set-param inputpath=\"toAccountNumber\" outputpath=\"toAccountNumber\"/>                                                                                                                  <set-param inputpath=\"payPersonName\" outputpath=\"payPersonName\"/>                                                                                                                  <set-param inputpath=\"frequencyType\" outputpath=\"frequencyType\"/>                                                                                                                  <set-param inputpath=\"category\" outputpath=\"category\"/>                                                                                                                  <set-param inputpath=\"cashlessOTP\" outputpath=\"cashlessOTP\"/>                                                                                                                  <set-param inputpath=\"cashlessMode\" outputpath=\"cashlessMode\"/>                                                                            </map>                                                                                                <set-param inputpath=\"success\" outputpath=\"success\"/>                                                                            <set-param inputpath=\"errmsg\" outputpath=\"errmsg\"/>                                                                            <set-param inputpath=\"personId\" outputpath=\"personId\"/>                                                                            <set-param inputpath=\"referenceId\" outputpath=\"referenceId\"/>                                      </map></mapper>",
    "applyCommonMapping" : false,
    "backendMeta" : {
      "serviceVersion" : "1.0",
      "operationName" : "getAccountTransactionList",
      "serviceName" : "AccountTransactions"
    },
    "relationshipHierarchyMapping" : {
      "children" : [ ],
      "name" : "Transactions",
      "selected" : true
    },
    "requestXmlMappingOverride" : true,
    "responseXmlMappingOverride" : true
  }
}