{
    "@class": "com.kony.gen.viz.model.component.KVizLabel",
    "DNDConfig": null,
    "__parentReadjusting__": false,
    "_height_": {
        "type": "ref",
        "value": "preferred"
    },
    "_left_": {
        "type": "string",
        "value": "0%"
    },
    "_margin_": [
        1,
        1,
        1,
        1
    ],
    "_padding_": [
        0,
        0,
        0,
        0
    ],
    "_skin_": "s2eb913b539d48b89d9c9d7fecaca1c2",
    "_text_": "",
    "_top_": {
        "type": "string",
        "value": "0%"
    },
    "_width_": {
        "type": "string",
        "value": "100%"
    },
    "_wrapping_": 2,
    "accessibilityconfig": {},
    "android": {
        "textStyle": {
            "letterSpacing": 0,
            "strikeThrough": false
        }
    },
    "canUpdateUI": true,
    "containerweight": 100,
    "contentalignment": 5,
    "id": "lblNotYourNum",
    "ide_onTouchEnd": "AS_Label_cb5ecd0073264ab09f5d319e2e65f99b",
    "info": null,
    "ipad": {
        "psp": {
            "wrapping": 2
        }
    },
    "iphone": {
        "psp": {
            "wrapping": 2
        }
    },
    "isvisible": true,
    "kuid": "hc91d7fa702445b2a74365fc0bf485e8",
    "name": "kony.ui.Label",
    "parent": "flxCallCallCenter",
    "pf": "frmEnrolluserLandingKA",
    "texti18n": "i18n.common.con",
    "textstyle": {},
    "tooltip": "",
    "wType": "Label",
    "zindex": 1
}