{
    "@class": "com.kony.gen.viz.model.component.KVizTextBox2",
    "DNDConfig": null,
    "__parentReadjusting__": false,
    "_bottom_": {
        "type": "string",
        "value": "4%"
    },
    "_height_": {
        "type": "string",
        "value": "60%"
    },
    "_margin_": [
        0,
        0,
        0,
        0
    ],
    "_padding_": [
        3,
        0,
        0,
        0
    ],
    "_placeholder_": "",
    "_skin_": "s029998596d3421892d0917ea7492e1d",
    "_text_": "",
    "_width_": {
        "type": "string",
        "value": "100%"
    },
    "accessibilityconfig": {
        "a11yLabel": "Enter Password"
    },
    "android": {
        "ide_onEndEditing": "AS_TextField_b1325229fcb14190b124c5a6eb8d6d5f",
        "psp": {
            "keyboardActionLabel": 4
        }
    },
    "autocapitalize": "none",
    "autocomplete": false,
    "autocorrect": false,
    "autofilter": false,
    "canUpdateUI": true,
    "centerx": {
        "type": "string",
        "value": "50%"
    },
    "containerheight": "",
    "containerheightmode": 1,
    "containerweight": 100,
    "contentalignment": 4,
    "disabledSkins": {},
    "focusskin": "s029998596d3421892d0917ea7492e1d",
    "id": "tbxPasswordKA",
    "ide_onDone": "AS_TextField_g7aac657578b42b2a48160c604f9046e",
    "ide_onTextChange": "AS_TextField_d692480d02be416faf4ea8ea5cbdef29",
    "ide_onTouchEnd": "AS_TextField_d748b1bee4474d59b1a1ad30befe143c",
    "info": null,
    "iphone": {
        "ide_onEndEditing": "AS_TextField_bab41adf25d1428d8d71724205585ab6",
        "psp": {
            "keyboardActionLabel": 4,
            "pasteboardType": 1,
            "showClearButton": false,
            "showCloseButton": false,
            "showProgressIndicator": false
        }
    },
    "isvisible": true,
    "keyboardactionlabel": 4,
    "keyboardtype": "A",
    "kuid": "c956f06bec5d4aecbed9965b502ffd61",
    "mode": "A",
    "name": "kony.ui.TextBox2",
    "parent": "flxPassword",
    "pasteboardtype": 1,
    "pf": "frmEnrolluserLandingKA",
    "securetextentry": true,
    "textinputmode": "A",
    "viewtype": "default",
    "wType": "TextField",
    "zindex": 1
}