{
    "DNDConfig": null,
    "__parentReadjusting__": false,
    "_height_": {
        "type": "string",
        "value": "6%"
    },
    "_left_": {
        "type": "string",
        "value": "10%"
    },
    "_margin_": [
        0,
        0,
        0,
        0
    ],
    "_orientation_": 6,
    "_padding_": [
        0,
        0,
        0,
        0
    ],
    "_percent_": true,
    "_skin_": "s388f0c575ef4d08ac3a5ed0a4b90085",
    "_top_": {
        "type": "string",
        "value": "25%"
    },
    "_width_": {
        "type": "string",
        "value": "80%"
    },
    "allboxes": [],
    "autogrowmode": 0,
    "canUpdateUI": true,
    "children": [
        "CopyFlexContainer0a1c986471e234b",
        "lblCardYear",
        "CopylblProfileRightIcon0h068901a6f8143"
    ],
    "clipbounds": true,
    "containerweight": 100,
    "enablescrolling": true,
    "id": "CopyFlexContainer0a6645c15cd5447",
    "ide_onClick": "AS_FlexContainer_e26e3a8dbcdb4c7e92220d55e21b6c76",
    "info": null,
    "isvisible": true,
    "kuid": "c3c3768a170547608ec307fb7d7a389b",
    "layouttype": 2,
    "name": "kony.ui.FlexContainer",
    "parent": "flxCardsFilterScreen",
    "pf": "frmCardStatementKA",
    "snapgridsize": 10,
    "snaptogrid": true,
    "wType": "FlexContainer",
    "widgetalignment": 1,
    "zindex": 1
}