{
    "DNDConfig": null,
    "__parentReadjusting__": false,
    "_height_": {
        "type": "string",
        "value": "17%"
    },
    "_margin_": [
        0,
        0,
        0,
        0
    ],
    "_orientation_": 6,
    "_padding_": [
        0,
        0,
        0,
        0
    ],
    "_percent_": true,
    "_skin_": "s388f0c575ef4d08ac3a5ed0a4b90085",
    "_width_": {
        "type": "string",
        "value": "6%"
    },
    "allboxes": [],
    "autogrowmode": 0,
    "canUpdateUI": true,
    "centerx": {
        "type": "string",
        "value": "68%"
    },
    "centery": {
        "type": "string",
        "value": "40%"
    },
    "children": [
        "imgSortDateDesc"
    ],
    "clipbounds": true,
    "containerweight": 100,
    "enablescrolling": true,
    "id": "flxSortDateDesc",
    "ide_onClick": "AS_FlexContainer_g14e13003aad489b833b5d519a1cfd18",
    "info": null,
    "isvisible": true,
    "kuid": "b62cbed914be4b039964fe02b1b32d31",
    "layouttype": 2,
    "name": "kony.ui.FlexContainer",
    "parent": "flxAccountDetailsSort",
    "pf": "frmCardStatementKA",
    "snapgridsize": 10,
    "snaptogrid": true,
    "wType": "FlexContainer",
    "widgetalignment": 1,
    "zindex": 1
}