{
    "@class": "com.kony.gen.viz.model.component.KVizButton",
    "DNDConfig": null,
    "__parentReadjusting__": false,
    "_height_": {
        "type": "string",
        "value": "100%"
    },
    "_margin_": [
        6,
        6,
        6,
        6
    ],
    "_padding_": [
        0,
        0,
        0,
        0
    ],
    "_right_": {
        "type": "string",
        "value": "0.00%"
    },
    "_skin_": "sef0e6318cb74729a63354552567c681",
    "_text_": "Next",
    "_top_": {
        "type": "string",
        "value": "0.18%"
    },
    "_width_": {
        "type": "string",
        "value": "20%"
    },
    "canUpdateUI": true,
    "containerweight": 100,
    "contentalignment": 5,
    "disabledSkins": {},
    "displaytext": true,
    "focusskin": "sef0e6318cb74729a63354552567c681",
    "id": "btnNext",
    "ide_onClick": "AS_Button_bff471f8745643e38a6c14e519b82583",
    "info": null,
    "iscustomlayout": true,
    "isvisible": true,
    "kuid": "a1ad85b8ff324ba7ac36b585efd7b735",
    "name": "kony.ui.Button",
    "parent": "flxCreditCardHeader",
    "pf": "frmCreditCardPayment",
    "retaincontentalignment": true,
    "retainflexpositionproperties": true,
    "texti18n": "i18n.login.next",
    "wType": "Button",
    "zindex": 2
}