{
    "@class": "com.kony.gen.viz.model.component.KVizLabel",
    "DNDConfig": null,
    "__parentReadjusting__": false,
    "_height_": {
        "type": "string",
        "value": "20%"
    },
    "_left_": {
        "type": "string",
        "value": "15%"
    },
    "_margin_": [
        1,
        1,
        1,
        1
    ],
    "_padding_": [
        0,
        0,
        0,
        0
    ],
    "_skin_": "se1819f9e2614049b72bc74028e3b172",
    "_text_": "",
    "_top_": {
        "type": "string",
        "value": "4%"
    },
    "_width_": {
        "type": "ref",
        "value": "preferred"
    },
    "_wrapping_": 2,
    "android": {
        "textStyle": {
            "letterSpacing": 0,
            "strikeThrough": false
        }
    },
    "canUpdateUI": true,
    "containerweight": 100,
    "contentalignment": 4,
    "id": "lblBOJCard",
    "info": null,
    "ipad": {
        "psp": {
            "wrapping": 2
        }
    },
    "iphone": {
        "psp": {
            "wrapping": 2
        }
    },
    "isvisible": true,
    "kuid": "d1f1adbc22ca4fe0aa4f603bfbd7626a",
    "name": "kony.ui.Label",
    "parent": "flxCardDetails",
    "pf": "frmCreditCardPayment",
    "texti18n": "i18n.creditcard.cardnumber",
    "textstyle": {},
    "tooltip": "",
    "wType": "Label",
    "zindex": 2
}