{
    "@class": "com.kony.gen.viz.model.component.KVizTextBox2",
    "DNDConfig": null,
    "__parentReadjusting__": false,
    "_height_": {
        "type": "string",
        "value": "45%"
    },
    "_left_": {
        "type": "string",
        "value": "5%"
    },
    "_margin_": [
        0,
        0,
        0,
        0
    ],
    "_padding_": [
        0,
        0,
        0,
        0
    ],
    "_placeholder_": "0.000",
    "_skin_": "s029998596d3421892d0917ea7492e1d",
    "_text_": "",
    "_top_": {
        "type": "string",
        "value": "40%"
    },
    "_width_": {
        "type": "string",
        "value": "90%"
    },
    "android": {
        "ide_onBeginEditing": "AS_TextField_hce8f31a9bc048e7bdef1ac38ab9243f",
        "ide_onEndEditing": "AS_TextField_h700c696b8c94ebd87be37c7c85f6ded",
        "psp": {
            "keyboardActionLabel": 1
        }
    },
    "autocapitalize": "none",
    "autocomplete": false,
    "autocorrect": false,
    "autofilter": false,
    "canUpdateUI": true,
    "containerheight": "",
    "containerheightmode": 1,
    "containerweight": 100,
    "contentalignment": 4,
    "focusskin": "sa25e426dcb94c13ab46f59a2b31a09a",
    "id": "txtFieldAmount",
    "ide_onDone": "AS_TextField_e59de8c02998442899f89a1dc1de84aa",
    "ide_onTextChange": "AS_TextField_a00a6d6ba27147ffa6408a7e2f5d510e",
    "ide_onTouchStart": "AS_TextField_bfe0bbfc64304b5780f41cb2b631a240",
    "info": null,
    "iphone": {
        "ide_onBeginEditing": "AS_TextField_hea9f8d233a849a6a885b128172d751d",
        "ide_onEndEditing": "AS_TextField_af84f13fb0cc47cfbed3b88c7fded79b",
        "psp": {
            "keyboardActionLabel": 1,
            "showClearButton": false,
            "showCloseButton": false,
            "showProgressIndicator": false
        }
    },
    "isvisible": true,
    "keyboardactionlabel": 4,
    "keyboardstyle": "number",
    "keyboardtype": "A",
    "kuid": "bae5f6ccd2c4423b99667c4db730031d",
    "maxtextlength": 9,
    "mode": "N",
    "name": "kony.ui.TextBox2",
    "paddinginpixel": false,
    "parent": "flxAmountDetails",
    "pf": "frmWebCharge",
    "securetextentry": false,
    "showclearbutton": false,
    "showoprogressindicator": false,
    "spa": {},
    "textinputmode": "N",
    "viewtype": "default",
    "wType": "TextField",
    "zindex": 1
}