{
    "@class": "com.kony.gen.viz.model.component.KVizTextBox2",
    "DNDConfig": null,
    "__parentReadjusting__": false,
    "_bottom_": {
        "type": "string",
        "value": "4%"
    },
    "_height_": {
        "type": "string",
        "value": "60%"
    },
    "_margin_": [
        0,
        0,
        0,
        0
    ],
    "_padding_": [
        3,
        0,
        0,
        0
    ],
    "_placeholder_": "",
    "_skin_": "s029998596d3421892d0917ea7492e1d",
    "_text_": "",
    "_width_": {
        "type": "string",
        "value": "100%"
    },
    "accessibilityconfig": {
        "a11yLabel": "Enter your Username"
    },
    "android": {
        "ide_onEndEditing": "AS_TextField_i83910330d114f72a4a7876cd49666c3",
        "onEndEditing": "AS_TextField_ja28486c7a3043998424fea66ecabfa6",
        "psp": {
            "keyboardActionLabel": 12
        }
    },
    "autocapitalize": "none",
    "autocomplete": false,
    "autocorrect": false,
    "autofilter": false,
    "canUpdateUI": true,
    "centerx": "50%",
    "containerheight": "",
    "containerheightmode": 1,
    "containerweight": 100,
    "contentalignment": 4,
    "disabledSkins": {},
    "focusskin": "s029998596d3421892d0917ea7492e1d",
    "id": "txtAddressMail",
    "ide_onDone": "AS_TextField_becbec46852b42c1b8564238ffe6bd02",
    "ide_onTextChange": "AS_TextField_d2c6e07db35f442da0a8216872d756cf",
    "ide_onTouchEnd": "AS_TextField_ed09446bab5f4124865def3096aafbbf",
    "info": null,
    "iphone": {
        "ide_onEndEditing": "AS_TextField_e4105892ad5149deba2a6d7b9a135926",
        "onBeginEditing": "AS_TextField_c0713df9ccfc44dba27a3f28bca350b8",
        "onEndEditing": "AS_TextField_c0713df9ccfc44dba27a3f28bca350b8",
        "psp": {
            "keyboardActionLabel": 4
        }
    },
    "isvisible": true,
    "keyboardactionlabel": 4,
    "keyboardtype": "A",
    "kuid": "f2dd8928ec3f4b0c809e5776b0cb4457",
    "maxtextlength": 75,
    "mode": "A",
    "name": "kony.ui.TextBox2",
    "parent": "flxAddressMail",
    "pf": "frmRequestStatementAccounts",
    "securetextentry": false,
    "textinputmode": "A",
    "viewtype": "default",
    "wType": "TextField",
    "zindex": 1
}