{
    "@class": "com.kony.gen.viz.model.component.KVizButton",
    "DNDConfig": null,
    "__parentReadjusting__": false,
    "_height_": {
        "type": "string",
        "value": "50dp"
    },
    "_left_": {
        "type": "string",
        "value": "45dp"
    },
    "_margin_": [
        6,
        6,
        6,
        6
    ],
    "_padding_": [
        0,
        0,
        0,
        0
    ],
    "_skin_": "s51d68053cae4eba826625de179be4ae",
    "_text_": "SET UP FACE ID...",
    "_top_": {
        "type": "string",
        "value": "50dp"
    },
    "_width_": {
        "type": "string",
        "value": "260dp"
    },
    "canUpdateUI": true,
    "centerx": {
        "type": "string",
        "value": "50%"
    },
    "containerweight": 100,
    "contentalignment": 5,
    "displaytext": true,
    "focusskin": "sbe13586f59d4a768bfe23c1b619f8c6",
    "id": "Button074ef6a5b805c40",
    "ide_onClick": "AS_Button_dc4c1b07ec1b478a96d02c428258a3a7",
    "info": null,
    "isvisible": true,
    "kuid": "aadf14ab593f47b4bfda28f89d766763",
    "name": "kony.ui.Button",
    "parent": "mainContent",
    "pf": "frmSetupFaceIdSettingsKA",
    "wType": "Button",
    "zindex": 1
}