{
    "@class": "com.kony.gen.viz.model.component.KVizButton",
    "DNDConfig": null,
    "__parentReadjusting__": false,
    "_height_": {
        "type": "string",
        "value": "100%"
    },
    "_margin_": [
        6,
        6,
        6,
        6
    ],
    "_padding_": [
        0,
        0,
        0,
        0
    ],
    "_right_": {
        "type": "number",
        "value": "0"
    },
    "_skin_": "s7383615e4f04fc8a44f10f5e544ac57",
    "_text_": "o",
    "_top_": {
        "type": "string",
        "value": "0dp"
    },
    "_width_": {
        "type": "string",
        "value": "53dp"
    },
    "canUpdateUI": true,
    "containerweight": 100,
    "contentalignment": 5,
    "displaytext": true,
    "focusskin": "s7383615e4f04fc8a44f10f5e544ac57",
    "id": "btnForward1",
    "info": null,
    "isvisible": true,
    "kuid": "dbfa56221e6b4d5ab9cfe85c4d6b0ef7",
    "masterType": 1,
    "name": "kony.ui.Button",
    "parent": "flxAcc1",
    "pf": "frmNewTransferKA",
    "texti18n": "i18n.common.backReverse",
    "wType": "Button",
    "zindex": 1
}