{
    "@class": "com.kony.gen.viz.model.component.KVizButton",
    "DNDConfig": null,
    "__parentReadjusting__": false,
    "_height_": {
        "type": "string",
        "value": "100%"
    },
    "_margin_": [
        6,
        6,
        6,
        6
    ],
    "_padding_": [
        0,
        0,
        0,
        0
    ],
    "_right_": {
        "type": "string",
        "value": "0dp"
    },
    "_skin_": "s290d646be224caa899af134d2389f06",
    "_text_": "Edit",
    "_width_": {
        "type": "string",
        "value": "56dp"
    },
    "canUpdateUI": true,
    "centery": {
        "type": "string",
        "value": "50%"
    },
    "containerweight": 100,
    "contentalignment": 5,
    "displaytext": true,
    "focusskin": "s6df4c410eaa444bb19006f9133a2af1",
    "id": "editFromCard",
    "ide_onClick": "AS_Button_7262a2605242483584d0d15e8783de0e",
    "info": null,
    "iphone": {
        "psp": {
            "showProgressIndicator": false
        }
    },
    "isvisible": true,
    "kuid": "edba433220164ca68ee525e2495e0c20",
    "name": "kony.ui.Button",
    "onclick": "AS_Button_7262a2605242483584d0d15e8783de0e",
    "parent": "fromAccountPick",
    "pf": "frmNewTransferKA",
    "showprogressindicator": false,
    "texti18n": "i18n.common.edit",
    "wType": "Button",
    "zindex": 1
}