{
    "@class": "com.kony.gen.viz.model.component.KVizButton",
    "DNDConfig": null,
    "__parentReadjusting__": false,
    "_height_": {
        "type": "string",
        "value": "10%"
    },
    "_left_": {
        "type": "string",
        "value": "0dp"
    },
    "_margin_": [
        6,
        6,
        6,
        6
    ],
    "_padding_": [
        0,
        0,
        0,
        0
    ],
    "_skin_": "s94d80e187a44bd9bb9ce6db5e729010",
    "_text_": "Do it Later",
    "_top_": {
        "type": "string",
        "value": "82%"
    },
    "_width_": {
        "type": "string",
        "value": "80%"
    },
    "canUpdateUI": true,
    "centerx": {
        "type": "string",
        "value": "50%"
    },
    "containerweight": 100,
    "contentalignment": 5,
    "disabledSkins": {},
    "displaytext": true,
    "focusskin": "s6e8459b84e349d98629a088bbfe1304",
    "id": "btnLater",
    "ide_onClick": "AS_Button_ba8c464b75b243589f143b62870823bf",
    "info": null,
    "isvisible": true,
    "kuid": "ca6541fa3da0421699e16425e2410bc3",
    "name": "kony.ui.Button",
    "parent": "flxSetFaceID",
    "pf": "frmFacialAuthEnable",
    "texti18n": "i18n.DoitLater",
    "wType": "Button",
    "zindex": 1
}