{
    "@class": "com.kony.gen.viz.model.component.KVizButton",
    "DNDConfig": null,
    "__parentReadjusting__": false,
    "_height_": {
        "type": "string",
        "value": "50%"
    },
    "_left_": {
        "type": "string",
        "value": "0%"
    },
    "_margin_": [
        6,
        6,
        6,
        6
    ],
    "_padding_": [
        0,
        0,
        0,
        0
    ],
    "_skin_": "sfdddcea6cff4d788f42120343a323ef",
    "_text_": "d",
    "_top_": {
        "type": "string",
        "value": "35%"
    },
    "_width_": {
        "type": "string",
        "value": "100%"
    },
    "canUpdateUI": true,
    "containerweight": 100,
    "contentalignment": 6,
    "displaytext": true,
    "focusskin": "sfdddcea6cff4d788f42120343a323ef",
    "id": "btnReason",
    "ide_onClick": "AS_Button_g49eb981ff5a4833a8b1dd5a9ead9062",
    "info": null,
    "isvisible": true,
    "kuid": "a41ea0b60ebd46f290a5ec5851e70b09",
    "name": "kony.ui.Button",
    "parent": "flxReason",
    "pf": "frmApplyNewCardsKA",
    "wType": "Button",
    "zindex": 1
}