{
    "DNDConfig": null,
    "__parentReadjusting__": false,
    "_height_": {
        "type": "string",
        "value": "10%"
    },
    "_left_": {
        "type": "string",
        "value": "5%"
    },
    "_margin_": [
        0,
        0,
        0,
        0
    ],
    "_orientation_": 6,
    "_padding_": [
        0,
        0,
        0,
        0
    ],
    "_percent_": true,
    "_skin_": "s388f0c575ef4d08ac3a5ed0a4b90085",
    "_top_": {
        "type": "string",
        "value": "2%"
    },
    "_width_": {
        "type": "string",
        "value": "90%"
    },
    "allboxes": [],
    "autogrowmode": 0,
    "canUpdateUI": true,
    "children": [
        "lblDateFrom",
        "CopyFlexContainer0d80598fcd6d44c",
        "CopyFlexContainer0g5b3a6c46c784b",
        "CopyFlexContainer0a61f8d99e19649",
        "calDatefrom",
        "calDateTo",
        "lblDateTo",
        "CopyLabel0jba95dfa466447",
        "CopyLabel0ccd1a4d962ec45"
    ],
    "clipbounds": true,
    "containerweight": 100,
    "enablescrolling": true,
    "id": "CopyFlexContainer0f90c1916338042",
    "info": null,
    "isvisible": false,
    "kuid": "e0104697e8d742a18f17d966d2c676c4",
    "layouttype": 2,
    "name": "kony.ui.FlexContainer",
    "parent": "flxDatePicker",
    "pf": "frmFilterTransaction",
    "snapgridsize": 10,
    "snaptogrid": true,
    "wType": "FlexContainer",
    "widgetalignment": 1,
    "zindex": 1
}