{
  "background_color": "052c49ff",
  "bg_type": "one",
  "border_color": "000000ff",
  "border_style": "plain",
  "border_type": 0,
  "border_width": 0,
  "isDefaultSkin": false,
  "kuid": "s9ee013f344a41dd80b71e7b6a6486f6",
  "wType": "FlexScrollContainer"
}