{
  "background_color": "0f738fff",
  "bg_type": "one",
  "border_color": "000000ff",
  "border_radius": 2,
  "border_style": "custom",
  "border_type": 0,
  "border_width": 0,
  "font_color": "000000ff",
  "font_name": "Arial",
  "font_size": 100,
  "font_style": "normal",
  "font_weight": "normal",
  "isDefaultSkin": false,
  "kuid": "s2966c9a226f48c5af149f1ac82d112d",
  "wType": "Group"
}