{
  "background_color": "ffffff00",
  "bg_type": "one",
  "border_color": "000000ff",
  "border_style": "plain",
  "border_type": 0,
  "border_width": 0,
  "isDefaultSkin": false,
  "kuid": "sdb5c84bf91546c1acb345dbb8ea40c7",
  "wType": "Segment"
}