{
  "background_color": "072c4800",
  "bg_type": "one",
  "border_color": "000000ff",
  "border_style": "plain",
  "border_type": 0,
  "border_width": 0,
  "isDefaultSkin": false,
  "kuid": "s1865525dbb04cbea163446873057248",
  "wType": "FlexContainer"
}