{
  "background_color": "ffffffff",
  "bg_type": "one",
  "border_color": "282828ff",
  "border_style": "plain",
  "border_type": 0,
  "border_width": 1,
  "font_color": "555555ff",
  "font_name": "Cairo-Regular",
  "font_size": 125,
  "font_style": "normal",
  "font_weight": "normal",
  "isDefaultSkin": false,
  "kuid": "sa4ed47ae0f9469884a27d7e9309d58e",
  "wType": "TextField"
}