{
  "android": {
    "font_size": 45,
    "isForked": false
  },
  "background_color": "00000000",
  "bg_type": "one",
  "border_color": "424242ff",
  "border_style": "plain",
  "border_type": 0,
  "border_width": 0,
  "desktopweb": {
    "font_size": 119,
    "isForked": false
  },
  "fontSizeInPx": true,
  "font_color": "ffffff7f",
  "font_name": "System",
  "font_size": 68,
  "font_style": "normal",
  "font_weight": "normal",
  "ipad": {
    "font_size": 68,
    "isForked": false
  },
  "iphone": {
    "font_size": 68,
    "isForked": false
  },
  "isDefaultSkin": false,
  "kiosk": {
    "font_size": 119,
    "isForked": false
  },
  "kuid": "s0bdba2f87e2422e853c9d6291d5d0c2",
  "spaan": {
    "font_size": 63,
    "isForked": false
  },
  "spaandroidtablet": {
    "font_size": 59,
    "isForked": false
  },
  "spabb": {
    "font_size": 79,
    "isForked": false
  },
  "spaip": {
    "font_size": 68,
    "isForked": false
  },
  "spaipad": {
    "font_size": 56,
    "isForked": false
  },
  "spawindowstablet": {
    "font_size": 56,
    "isForked": false
  },
  "spawinphone8": {
    "font_size": 79,
    "isForked": false
  },
  "tabrcandroid": {
    "font_size": 113,
    "isForked": false
  },
  "wType": "Label",
  "watchos": {
    "font_name": "Cairo-Regular",
    "font_size": 68,
    "isForked": false
  },
  "windows8": {
    "font_size": 46,
    "isForked": false
  },
  "winphone8": {
    "font_size": 63,
    "isForked": false
  }
}