{
  "background_color": "072c48ff",
  "bg_type": "one",
  "border_color": "000000ff",
  "border_style": "plain",
  "border_type": 0,
  "border_width": 0,
  "isDefaultSkin": false,
  "kuid": "s73758e4c2d1408db6e1bee063d34637",
  "wType": "FlexContainer"
}