{
    "background_color": "00000000",
    "bg_type": "one",
    "border_color": "424242ff",
    "border_style": "plain",
    "border_type": 0,
    "border_width": 0,
    "font_color": "42424200",
    "font_name": "Cairo-Regular",
    "font_size": 214,
    "font_style": "normal",
    "font_weight": "normal",
    "isDefaultSkin": false,
    "kuid": "s38d9cf496394af89f7f34009cc58015",
    "wType": "Label"
}