{
  "background_image": "loansd.png",
  "bg_type": "image",
  "border_color": "000000ff",
  "border_style": "plain",
  "border_type": 0,
  "border_width": 0,
  "isDefaultSkin": false,
  "kuid": "s5edebc627ac4b1b83d48965a9d86a74",
  "wType": "FlexContainer"
}