{
  "background_color": "9060b7ff",
  "bg_type": "one",
  "border_color": "000000ff",
  "border_style": "plain",
  "border_type": 0,
  "border_width": 0,
  "isDefaultSkin": false,
  "kuid": "s026deb4b7e2446fad5c183f8eabe7fc",
  "wType": "FlexContainer"
}