{
  "android": {
    "font_name": "BOJ-Phase-II",
    "font_size": 146,
    "isForked": false
  },
  "background_color": "00000000",
  "bg_type": "one",
  "border_color": "424242ff",
  "border_style": "plain",
  "border_type": 0,
  "border_width": 0,
  "desktopweb": {
    "font_name": "Andale Mono",
    "font_size": 146,
    "isForked": false
  },
  "fontSizeInPx": false,
  "font_color": "ffffff8c",
  "font_name": "",
  "font_size": 146,
  "font_style": "normal",
  "font_weight": "normal",
  "ipad": {
    "font_name": "Lato-Regular",
    "font_size": 146,
    "isForked": false
  },
  "iphone": {
    "font_name": "BOJ-Phase-II",
    "font_size": 146,
    "isForked": false
  },
  "isDefaultSkin": false,
  "kiosk": {
    "font_name": "GenericMonospace",
    "font_size": 146,
    "isForked": false
  },
  "kuid": "s6e8dd5530e74caaa386e5accf8c837d",
  "spaan": {
    "font_name": "Andale Mono",
    "font_size": 146,
    "isForked": false
  },
  "spaandroidtablet": {
    "font_name": "Andale Mono",
    "font_size": 146,
    "isForked": false
  },
  "spabb": {
    "font_name": "Andale Mono",
    "font_size": 146,
    "isForked": false
  },
  "spaip": {
    "font_name": "Andale Mono",
    "font_size": 146,
    "isForked": false
  },
  "spaipad": {
    "font_name": "Andale Mono",
    "font_size": 146,
    "isForked": false
  },
  "spawindowstablet": {
    "font_name": "Andale Mono",
    "font_size": 146,
    "isForked": false
  },
  "spawinphone8": {
    "font_name": "Andale Mono",
    "font_size": 146,
    "isForked": false
  },
  "tabrcandroid": {
    "font_name": "Lato-Regular",
    "font_size": 146,
    "isForked": false
  },
  "wType": "Label",
  "watchos": {
    "font_name": "Arial",
    "font_size": 146,
    "isForked": false
  },
  "windows8": {
    "font_name": "GenericMonospace",
    "font_size": 146,
    "isForked": false
  },
  "winphone8": {
    "font_name": "GenericMonospace",
    "font_size": 146,
    "isForked": false
  }
}