{
  "background_color": "02acd8ff",
  "bg_type": "one",
  "border_color": "000000ff",
  "border_style": "plain",
  "border_type": 0,
  "border_width": 0,
  "isDefaultSkin": false,
  "kuid": "se98fa11a4be4d76ae5f5eedfabf4cb5",
  "wType": "FlexContainer"
}