{
  "background_color": "ffffff33",
  "bg_type": "one",
  "border_color": "ffffff00",
  "border_style": "rc",
  "border_type": 0,
  "border_width": 1,
  "isDefaultSkin": false,
  "kuid": "sbd1d8e38f474cbc999731225d6c9498",
  "wType": "FlexContainer"
}