{
  "background_color": "00000000",
  "bg_type": "one",
  "border_color": "000000ff",
  "border_style": "plain",
  "border_type": 0,
  "border_width": 0,
  "isDefaultSkin": false,
  "kuid": "s3eaae82ed2b4f849e66577b8bc7b07b",
  "wType": "FlexContainer"
}