{
  "background_color": "ffffff00",
  "bg_type": "one",
  "border_color": "e2e2e2ff",
  "border_style": "plain",
  "border_type": 0,
  "border_width": 0,
  "isDefaultSkin": false,
  "kuid": "s7bdb14c52724345bb23d1744d40849f",
  "wType": "FlexContainer"
}