{
  "background_color": "626463ff",
  "bg_type": "one",
  "border_color": "000000ff",
  "border_style": "plain",
  "border_type": 0,
  "border_width": 0,
  "isDefaultSkin": false,
  "kuid": "s019baff88864a358eee4fede7cf693f",
  "wType": "FlexContainer"
}