{
  "background_color": "ff8359ff",
  "bg_type": "one",
  "border_color": "ff8359ff",
  "border_radius": 83,
  "border_style": "custom",
  "border_type": 0,
  "border_width": 1,
  "isDefaultSkin": false,
  "kuid": "sb9e421622404ec7ac2fca761dba2c76",
  "wType": "FlexContainer"
}