{
  "background_color": "74bd44ff",
  "bg_type": "one",
  "border_color": "74bd4438",
  "border_radius": 100,
  "border_style": "custom",
  "border_type": 0,
  "border_width": 1,
  "isDefaultSkin": false,
  "kuid": "scbf70f389c54e39b191dc806e927125",
  "wType": "FlexContainer"
}