{
  "background_color": "99dbd7ff",
  "bg_type": "one",
  "border_color": "ffffff00",
  "border_radius": 100,
  "border_style": "custom",
  "border_type": 0,
  "border_width": 1,
  "isDefaultSkin": false,
  "kuid": "sb7390df20d3417f8c3cd46a43bcaedc",
  "wType": "FlexContainer"
}