{
  "background_color": "072c48ff",
  "bg_type": "one",
  "border_color": "000000ff",
  "border_style": "plain",
  "border_type": 0,
  "border_width": 0,
  "isDefaultSkin": false,
  "kuid": "sa605bd9dbb249219998c81a7358aa42",
  "wType": "FlexContainer"
}