{
  "background_color": "3a3a4d00",
  "bg_type": "one",
  "border_color": "ffffff00",
  "border_radius": 100,
  "border_style": "custom",
  "border_type": 0,
  "border_width": 1,
  "isDefaultSkin": false,
  "kuid": "s8bd0574c47547a2bee3ba8e28dbe8dc",
  "wType": "FlexContainer"
}