{
  "background_color": "072c48b2",
  "bg_type": "one",
  "border_color": "000000ff",
  "border_style": "plain",
  "border_type": 0,
  "border_width": 0,
  "isDefaultSkin": false,
  "kuid": "s4746195fe3a42b7b49da5f10019b8ec",
  "wType": "FlexContainer"
}