{
  "background_color": "ffffffff",
  "bg_type": "one",
  "border_color": "ffffffff",
  "border_style": "rc",
  "border_type": 0,
  "border_width": 1,
  "isDefaultSkin": false,
  "kuid": "s47d3ccc5fb24feaa12ccd30dfda48b8",
  "wType": "FlexContainer"
}