{
  "background_color": "add998ff",
  "bg_type": "one",
  "border_color": "add998ff",
  "border_radius": 0,
  "border_style": "custom",
  "border_type": 0,
  "border_width": 1,
  "font_color": "424242ff",
  "font_name": "Cairo-Regular",
  "font_size": 214,
  "font_style": "normal",
  "font_weight": "normal",
  "isDefaultSkin": false,
  "kuid": "s92afec5effb4070ac5921bfbb0ccf81",
  "wType": "Label"
}