{
  "background_color": "072c48ff",
  "bg_type": "one",
  "border_color": "072c48ff",
  "border_style": "plain",
  "border_type": 0,
  "border_width": 0,
  "isDefaultSkin": false,
  "kuid": "se29ec3a7c0343c1b6e81fb272e8fb36",
  "wType": "FlexContainer"
}