{
  "background_color": "ad8852ff",
  "bg_type": "one",
  "border_color": "000000ff",
  "border_radius": 0,
  "border_style": "custom",
  "border_type": 0,
  "border_width": 0,
  "font_color": "000000ff",
  "font_name": "Arial",
  "font_size": 100,
  "font_style": "normal",
  "font_weight": "normal",
  "isDefaultSkin": false,
  "kuid": "s1ad1a75f6dd41faa5ccf5e794ba0d4d",
  "wType": "Group"
}