{
  "background_color": "052c49ff",
  "bg_type": "one",
  "border_color": "000000ff",
  "border_style": "plain",
  "border_type": 0,
  "border_width": 0,
  "isDefaultSkin": false,
  "kuid": "s4e495b998884aba885f32869508c315",
  "wType": "FlexScrollContainer"
}