{
  "background_color": "00000000",
  "bg_type": "one",
  "border_color": "000000ff",
  "border_style": "plain",
  "border_type": 0,
  "border_width": 0,
  "font_color": "000000ff",
  "font_name": "Cairo-Regular",
  "font_size": 156,
  "font_style": "normal",
  "font_weight": "normal",
  "isDefaultSkin": false,
  "kuid": "s642da557f5c446086bca19392e1920d",
  "wType": "Image"
}