{
  "android": {},
  "background_color": "ffffff00",
  "bg_type": "one",
  "border_color": "000000ff",
  "border_style": "plain",
  "border_type": 0,
  "border_width": 0,
  "iphone": {},
  "isDefaultSkin": false,
  "kuid": "sc61aeca5e604477a09d1ab314ab6b13",
  "wType": "FlexScrollContainer"
}