{
  "background_color": "dcdcdcff",
  "bg_type": "one",
  "border_color": "ffffffff",
  "border_radius": 100,
  "border_style": "custom",
  "border_type": 0,
  "border_width": 2,
  "isDefaultSkin": false,
  "kuid": "sd047af07af644b2b8a99ef2e99c99b6",
  "wType": "FlexContainer"
}