{
  "background_color": "ffffffff",
  "bg_type": "one",
  "border_color": "ccccccff",
  "border_style": "plain",
  "border_type": 0,
  "border_width": 1,
  "font_color": "000000ff",
  "font_name": "Cairo-Regular",
  "font_size": 100,
  "font_style": "normal",
  "font_weight": "normal",
  "iphone": {
    "font_name": "Lato-Regular"
  },
  "isDefaultSkin": false,
  "kuid": "scb7cb0626c74bff951f40c395d8ef05",
  "wType": "ListBox"
}