{
  "background_color": "ffffff00",
  "bg_type": "one",
  "border_color": "00000000",
  "border_style": "rc",
  "border_type": 0,
  "border_width": 1,
  "isDefaultSkin": false,
  "kuid": "s3fc0be0fe40496a84872e5319fd51e8",
  "wType": "FlexContainer"
}