{
  "background_color": "00000000",
  "bg_type": "one",
  "border_color": "ffffff66",
  "border_style": "rc",
  "border_type": 0,
  "border_width": 1,
  "isDefaultSkin": false,
  "kuid": "sfdf8b9c351e41e3b61bfbd38cce3875",
  "wType": "FlexContainer"
}