{
  "background_color": "00000000",
  "bg_type": "one",
  "border_color": "000000ff",
  "border_style": "plain",
  "border_type": 0,
  "border_width": 0,
  "isDefaultSkin": true,
  "kuid": "s066e1f55806426ca40936afa9e01f49",
  "wType": "HBox"
}