{
  "background_color": "ffffff23",
  "bg_type": "one",
  "border_color": "ffffffff",
  "border_style": "plain",
  "border_type": 0,
  "border_width": 0,
  "font_color": "ffffffff",
  "font_name": "System",
  "font_size": 100,
  "font_style": "normal",
  "font_weight": "normal",
  "isDefaultSkin": true,
  "kuid": "s7b0ff3632e543af9c085194e32752ed",
  "wType": "Button"
}