{
  "type" : "svcdriven",
  "custom" : false,
  "junction" : false,
  "customizable" : false,
  "verbs" : {
    "getBranchList" : "getBranchListMapping",
    "get" : "getMapping",
    "update" : "updateMapping",
    "create" : "createMapping",
    "deleteBenificiary" : "deleteBenificiaryMapping"
  },
  "entityProperties" : {
    "BatchMode" : "buffer",
    "designTimeBackendMeta" : {
    },
    "backendMeta" : {
      "serviceVersion" : "1.0",
      "operationName" : "getExternalAccounts",
      "serviceName" : "RetailBankingBEServices"
    }
  }
}