{
    "@class": "com.kony.gen.viz.model.component.KVizLabel",
    "DNDConfig": null,
    "__markedForDelete__": true,
    "__parentReadjusting__": false,
    "_height_": {
        "type": "ref",
        "value": "preferred"
    },
    "_left_": {
        "type": "string",
        "value": "0%"
    },
    "_margin_": [
        1,
        1,
        1,
        1
    ],
    "_padding_": [
        0,
        0,
        0,
        0
    ],
    "_skin_": "s253f976772f45fc8d428f86645f1fb3",
    "_text_": "Enable Quick Transactions",
    "_top_": {
        "type": "string",
        "value": "0dp"
    },
    "_width_": {
        "type": "ref",
        "value": "preferred"
    },
    "_wrapping_": 2,
    "android": {
        "textStyle": {
            "letterSpacing": 0,
            "strikeThrough": false
        }
    },
    "canUpdateUI": true,
    "containerweight": 100,
    "contentalignment": 4,
    "id": "CopyLabel0d262912d12cf4f",
    "info": null,
    "ipad": {
        "psp": {
            "wrapping": 2
        }
    },
    "iphone": {
        "psp": {
            "wrapping": 2
        }
    },
    "isvisible": true,
    "kuid": "jea4771e05a6466ba2e991ccad2b4d09",
    "name": "kony.ui.Label",
    "parent": "CopyflxAltAuthPIN0i58c1e23dacd40",
    "pf": "frmAuthorizationAlternatives",
    "texti18n": "i18n.quickAccessSetting.enableQuickTransactions",
    "tooltip": "",
    "wType": "Label",
    "zindex": 1
}