{
  "operationConfig" : {
    "name" : "getPFMBudgetSnapshot7655",
    "type" : "MappedToBackend",
    "cachable" : false,
    "smsEnabled" : false,
    "security" : "authorized_app_user",
    "responseEncoding" : "UTF-8",
    "httpMethod" : "GET",
    "decodeResponseBody" : false,
    "oMapping" : "<?xml version=\"1.0\" encoding=\"UTF-8\" standalone=\"yes\"?><mapper xmlns=\"http://www.kony.com/ns/mapper\">  <map inputpath=\"response_in\" outputpath=\"response_out\">    <map inputpath=\"PFMBudgetGraph\" outputpath=\"PFMBudgetGraph\">      <set-param inputpath=\"allocatedAmount\" outputpath=\"allocatedAmount\"/>      <set-param inputpath=\"budgetId\" outputpath=\"budgetId\"/>      <set-param inputpath=\"categoryName\" outputpath=\"categoryName\"/>      <set-param inputpath=\"amountSpent\" outputpath=\"amountSpent\"/>      <set-param inputpath=\"categoryId\" outputpath=\"categoryId\"/>    </map>    <set-param inputpath=\"errmsg\" outputpath=\"errmsg\"/>  </map></mapper>",
    "applyCommonMapping" : true,
    "backendMeta" : {
      "serviceVersion" : "1.0",
      "operationName" : "getPFMBudgetSnapshot",
      "serviceName" : "RetailBankingBEServices"
    },
    "relationshipHierarchyMapping" : {
      "children" : [ ],
      "name" : "PFMBudgetGraph",
      "selected" : true
    },
    "requestXmlMappingOverride" : false,
    "responseXmlMappingOverride" : false
  }
}