{
    "@class": "com.kony.gen.viz.model.component.KVizLabel",
    "DNDConfig": null,
    "__parentReadjusting__": false,
    "_height_": {
        "type": "ref",
        "value": "preferred"
    },
    "_margin_": [
        1,
        1,
        1,
        1
    ],
    "_padding_": [
        0,
        0,
        0,
        0
    ],
    "_right_": {
        "type": "number",
        "value": "20"
    },
    "_skin_": "se9053004d2c45c9923efa0b2dbef993",
    "_text_": "Label",
    "_top_": {
        "type": "string",
        "value": "31dp"
    },
    "_width_": {
        "type": "ref",
        "value": "preferred"
    },
    "_wrapping_": 2,
    "android": {
        "textStyle": {
            "letterSpacing": 0,
            "strikeThrough": false
        }
    },
    "canUpdateUI": true,
    "containerId": true,
    "containerweight": 100,
    "contentalignment": 4,
    "id": "lblTransId",
    "info": null,
    "ipad": {
        "psp": {
            "wrapping": 2
        }
    },
    "iphone": {
        "psp": {
            "wrapping": 2
        }
    },
    "iscustomlayout": false,
    "isvisible": false,
    "kuid": "g5d87a5bb4e748a09a878ccddfcad9b6",
    "name": "kony.ui.Label",
    "parent": "flxTrans",
    "pf": "tmpSegAccountsTran",
    "retainflexpositionproperties": true,
    "textstyle": {},
    "tooltip": "",
    "wType": "Label",
    "zindex": 1
}