{
    "@class": "com.kony.gen.viz.model.component.KVizSlider",
    "DNDConfig": null,
    "__parentReadjusting__": false,
    "_height_": {
        "type": "string",
        "value": "45dp"
    },
    "_left_": {
        "type": "string",
        "value": "5%"
    },
    "_margin_": [
        0,
        0,
        0,
        0
    ],
    "_max_": 100,
    "_min_": 0,
    "_padding_": [
        0,
        0,
        0,
        0
    ],
    "_step_": 1,
    "_thickness_": 15,
    "_top_": {
        "type": "string",
        "value": "-3%"
    },
    "_width_": {
        "type": "string",
        "value": "90%"
    },
    "android": {
        "thumbImage": "slider_android.png"
    },
    "canUpdateUI": true,
    "containerweight": 100,
    "desktopweb": {
        "psp": {
            "orientation": "horizontal",
            "viewType": "default"
        }
    },
    "id": "sliderATMLimit",
    "ide_onSlide": "AS_Slider_ba6b7476148346be8b0e3ddb48374e76",
    "info": null,
    "ipad": {
        "psp": {
            "enableThumbTintColor": true,
            "thumbTintColor": "ffffff00"
        },
        "thumbImage": "slider_ios7.png"
    },
    "iphone": {
        "psp": {
            "enableThumbTintColor": true,
            "thumbTintColor": "ffffff00"
        },
        "thumbImage": "slider_ios7.png"
    },
    "isvisible": true,
    "kuid": "cc8781a9ea1847669390fe6aeba195de",
    "leftskin": "sb5053df320243708a62c35a4b2c9d25",
    "name": "kony.ui.Slider",
    "osPlatform": "iphone",
    "osVersion": "iOS7",
    "parent": "flxWithdrawalPOSlimit",
    "pf": "frmATMPOSLimit",
    "rightskin": "sb864ac4f4014189ba605bf234ed22ee",
    "selectedvalue": 40,
    "tabrcandroid": {
        "thumbImage": "slider_android.png"
    },
    "thumbimage": "slider.png",
    "wType": "Slider",
    "widgetalignment": 5,
    "zindex": 1
}