{
  "operationConfig" : {
    "name" : "getUserSecurityQuestions6228",
    "type" : "MappedToBackend",
    "cachable" : false,
    "smsEnabled" : false,
    "security" : "public",
    "responseEncoding" : "UTF-8",
    "httpMethod" : "GET",
    "decodeResponseBody" : false,
    "iMapping" : "<?xml version=\"1.0\" encoding=\"UTF-8\" standalone=\"yes\"?><mapper xmlns=\"http://www.kony.com/ns/mapper\">    <map inputpath=\"request_in\" outputpath=\"request_out\">        <set-param inputpath=\"userName\" outputpath=\"userName\"/>    </map></mapper>",
    "oMapping" : "<?xml version=\"1.0\" encoding=\"UTF-8\" standalone=\"yes\"?><mapper xmlns=\"http://www.kony.com/ns/mapper\">    <map inputpath=\"response_in\" outputpath=\"response_out\">        <map inputpath=\"UserSecurityQuestions\" outputpath=\"UserSecurityQuestions\">            <set-param inputpath=\"question\" outputpath=\"question\"/>            <set-param inputpath=\"question_id\" outputpath=\"question_id\"/>        </map>        <set-param inputpath=\"success\" outputpath=\"success\"/>        <set-param inputpath=\"errmsg\" outputpath=\"errmsg\"/>    </map></mapper>",
    "applyCommonMapping" : false,
    "backendMeta" : {
      "serviceVersion" : "1.0",
      "operationName" : "getUserSecurityQuestions",
      "serviceName" : "RetailBankingBEServices"
    },
    "relationshipHierarchyMapping" : {
      "children" : [ ],
      "name" : "UserSecurityQuestions",
      "selected" : true
    },
    "requestXmlMappingOverride" : false,
    "responseXmlMappingOverride" : false
  }
}