{
    "@class": "com.kony.gen.viz.model.component.KVizLabel",
    "DNDConfig": null,
    "__parentReadjusting__": false,
    "_height_": {
        "type": "ref",
        "value": "preferred"
    },
    "_margin_": [
        1,
        1,
        1,
        1
    ],
    "_padding_": [
        0,
        0,
        0,
        0
    ],
    "_right_": {
        "type": "string",
        "value": "10%"
    },
    "_skin_": "safb3b968c414d63adc237b24cd23f24",
    "_text_": "",
    "_top_": {
        "type": "string",
        "value": "39dp"
    },
    "_width_": {
        "type": "ref",
        "value": "preferred"
    },
    "_wrapping_": 2,
    "canUpdateUI": true,
    "containerId": true,
    "containerweight": 100,
    "contentalignment": 6,
    "enabled": false,
    "id": "distanceLabel",
    "info": null,
    "ipad": {
        "psp": {
            "wrapping": 2
        }
    },
    "iphone": {
        "psp": {
            "wrapping": 2
        }
    },
    "isvisible": true,
    "kuid": "d44b341a5269482ca853b0e745afc719",
    "name": "kony.ui.Label",
    "parent": "flxListViewKA",
    "pf": "segListViewKA",
    "tooltip": "",
    "wType": "Label",
    "zindex": 1
}