{
    "@class": "com.kony.gen.viz.model.component.KVizButton",
    "DNDConfig": null,
    "__parentReadjusting__": false,
    "_height_": {
        "type": "string",
        "value": "100%"
    },
    "_left_": {
        "type": "string",
        "value": "33.50%"
    },
    "_margin_": [
        6,
        6,
        6,
        6
    ],
    "_padding_": [
        0,
        0,
        0,
        0
    ],
    "_skin_": "s5253604489842bd8355e2612bbbf6f9",
    "_text_": "",
    "_top_": {
        "type": "string",
        "value": "0dp"
    },
    "_width_": {
        "type": "string",
        "value": "33%"
    },
    "canUpdateUI": true,
    "containerweight": 100,
    "contentalignment": 5,
    "displaytext": true,
    "focusskin": "s5253604489842bd8355e2612bbbf6f9",
    "id": "btnContacts",
    "ide_onClick": "AS_Button_ha6bc39e6b094af48c63cc551324dfcb",
    "info": null,
    "iphone": {
        "psp": {
            "showProgressIndicator": false
        }
    },
    "isvisible": true,
    "kuid": "ac8edd2a7d8e4d92826edab13e3e199f",
    "name": "kony.ui.Button",
    "paddinginpixel": false,
    "parent": "searchInformation",
    "pf": "frmInformationKA",
    "showprogressindicator": false,
    "texti18n": "i18n.info.ContactUs",
    "wType": "Button",
    "zindex": 3
}