{
    "@class": "com.kony.gen.viz.model.container.KVizSegment2",
    "DNDConfig": null,
    "__parentReadjusting__": false,
    "_bounces_": false,
    "_data_": [
        {
            "imgicontick": {
                "@class": "com.viz.ide.model.segment.ImageSegmentData",
                "src": ""
            },
            "lblNameKA": {
                "@class": "com.viz.ide.model.segment.SimpleTextSegmentData",
                "text": ""
            }
        }
    ],
    "_height_": {
        "type": "ref",
        "value": "preferred"
    },
    "_indicator_": "none",
    "_margin_": [
        0,
        0,
        0,
        0
    ],
    "_orientation_": 2,
    "_padding_": [
        0,
        0,
        0,
        0
    ],
    "_top_": {
        "type": "string",
        "value": "0dp"
    },
    "_width_": {
        "type": "string",
        "value": "100%"
    },
    "autogrowmode": 1,
    "canUpdateUI": true,
    "centerx": {
        "type": "string",
        "value": "50.00%"
    },
    "containerweight": 100,
    "counter": "00",
    "disabledSkins": {},
    "focusedindex": null,
    "focuseditem": null,
    "generatedtemplate": null,
    "groupcells": false,
    "hasSections": false,
    "id": "contactSegmentList",
    "ide_onRowClick": "AS_Segment_if528ed9752d494293d0da1b4aad1b41",
    "info": null,
    "ipad": {
        "psp": {
            "indicator": "rowselect"
        }
    },
    "iphone": {
        "psp": {
            "bounces": false,
            "indicator": "none",
            "showProgressIndicator": false
        }
    },
    "isvisible": false,
    "kuid": "fd2cff1fa0b84b70827058f9cacb3aaa",
    "masterdata": {},
    "name": "kony.ui.SegmentedUI2",
    "needpageindicator": true,
    "onrowclick": "AS_Segment_aae2b1aa35dc464082b4c2955a66212f",
    "pageoffdotimage": "pageoffdot.png",
    "pageondotimage": "pageondot.png",
    "paginationconfig": {
        "position": "bottom",
        "vdistance": 1
    },
    "parent": "flxContactUsSivaram",
    "pf": "frmInformationKA",
    "retainselection": false,
    "rowTemplateId": "78150384d6b94e4dac622dd95eadbc0f",
    "rowcounter": 0,
    "rowfocusskin": "s5fa38be22fb4f22b7c642b08276ab82",
    "rowskin": "sd2ca277651a46c0ba82f3226859f5a6",
    "rowtemplate": "CopyFlexContainer0b2b1c26ffbf74f",
    "screenlevelwidget": false,
    "seccounter": 0,
    "sectionHeaderTemplateId": null,
    "sectionheaderskin": "s67621b8a82d49f285da06b4f5a0c993",
    "selectedRows": null,
    "selectedState": false,
    "selectedindex": null,
    "selectedindices": null,
    "selecteditems": null,
    "selectedsectionindex": 0,
    "selectionbehavior": "default",
    "separatorcolor": "64646400",
    "separatorrequired": false,
    "separatorthickness": 1,
    "showprogressindicator": false,
    "showscrollbars": false,
    "swipeContext": {
        "currentPage": 0,
        "imageWidth": 1080,
        "widthRatio": 0
    },
    "viewtype": "tableview",
    "vizProps": {},
    "wType": "Segment",
    "widgetalignment": 5,
    "widgetdatamap": {
        "CopyFlexContainer0b2b1c26ffbf74f": "CopyFlexContainer0b2b1c26ffbf74f",
        "contactListDivider": "contactListDivider",
        "imgicontick": "imgicontick",
        "lblNameKA": "lblNameKA"
    }
}