{
    "DNDConfig": null,
    "__parentReadjusting__": false,
    "_height_": {
        "type": "string",
        "value": "90%"
    },
    "_margin_": [
        0,
        0,
        0,
        0
    ],
    "_padding_": [
        0,
        0,
        0,
        0
    ],
    "_skin_": "s5449e85b7e0472ba7d4939096f3873d",
    "_top_": {
        "type": "string",
        "value": "0%"
    },
    "_width_": {
        "type": "string",
        "value": "93%"
    },
    "allboxes": [],
    "autogrowmode": 0,
    "canUpdateUI": true,
    "centerx": {
        "type": "string",
        "value": "50%"
    },
    "children": [
        "searchField",
        "borderBottom",
        "lblChangeUserName",
        "noThanks",
        "lblUserName",
        "lblClose"
    ],
    "clipbounds": true,
    "containerweight": 100,
    "defaultunit": 3,
    "enabled": false,
    "enablescrolling": true,
    "id": "searchContainer",
    "info": null,
    "isvisible": true,
    "kuid": "h8c6d931e7e04497ba9a325ba2692b88",
    "layouttype": 2,
    "name": "kony.ui.FlexContainer",
    "orientation": 6,
    "parent": "flxSearchInfo",
    "percent": true,
    "pf": "frmInformationKA",
    "snapgridsize": "20",
    "snaptogrid": true,
    "wType": "FlexContainer",
    "widgetalignment": 1,
    "zindex": 1
}