{
    "DNDConfig": null,
    "__parentReadjusting__": false,
    "_height_": {
        "type": "string",
        "value": "25dp"
    },
    "_margin_": [
        0,
        0,
        0,
        0
    ],
    "_orientation_": 6,
    "_padding_": [
        0,
        0,
        0,
        0
    ],
    "_percent_": true,
    "_right_": {
        "type": "string",
        "value": "0%"
    },
    "_skin_": "s5384c55ad894841ae78a8cff35309bf",
    "_top_": {
        "type": "string",
        "value": "0dp"
    },
    "_width_": {
        "type": "string",
        "value": "44dp"
    },
    "allboxes": [],
    "autogrowmode": 0,
    "canUpdateUI": true,
    "centery": {
        "type": "string",
        "value": "50%"
    },
    "children": [
        "CopyflxRoundDBlueOff0a5ff28307ed44e",
        "CopyflxNaveenbhaiKiLakeer0def2e0e4e6324d"
    ],
    "clipbounds": true,
    "containerweight": 100,
    "enablescrolling": true,
    "id": "flxeStatmentSwitchOff",
    "ide_onClick": "AS_FlexContainer_e24f414930d2414da8393909a11202cc",
    "info": null,
    "isvisible": true,
    "kuid": "jf901f1d748a4cf3901ce4c205c560e9",
    "layouttype": 2,
    "name": "kony.ui.FlexContainer",
    "parent": "flxAcc2",
    "pf": "frmCardsAddNickname",
    "snapgridsize": 10,
    "snaptogrid": true,
    "wType": "FlexContainer",
    "widgetalignment": 1,
    "zindex": 1
}