{
    "@class": "com.kony.gen.viz.model.component.KVizLabel",
    "DNDConfig": null,
    "__parentReadjusting__": false,
    "_height_": {
        "type": "string",
        "value": "25dp"
    },
    "_left_": {
        "type": "string",
        "value": "5%"
    },
    "_margin_": [
        1,
        1,
        1,
        1
    ],
    "_padding_": [
        0,
        0,
        0,
        0
    ],
    "_skin_": "se033b4241724171afff711026194d8f",
    "_text_": "J0898 32433 234 34",
    "_top_": {
        "type": "string",
        "value": "26dp"
    },
    "_width_": {
        "type": "string",
        "value": "81%"
    },
    "_wrapping_": 2,
    "canUpdateUI": true,
    "containerweight": 100,
    "contentalignment": 4,
    "enabled": false,
    "id": "CopyinterestRateLabel0b24dd6f4438b4a",
    "info": null,
    "ipad": {
        "psp": {
            "wrapping": 2
        }
    },
    "iphone": {
        "psp": {
            "wrapping": 2
        }
    },
    "isvisible": true,
    "kuid": "b97adb3d6fd8426082c2e327178d4bc4",
    "name": "kony.ui.Label",
    "parent": "flxIBAN",
    "pf": "frmAccountInfoKA",
    "tooltip": "",
    "wType": "Label"
}