{
    "DNDConfig": null,
    "__parentReadjusting__": false,
    "_bottom_": {
        "type": "string",
        "value": "0%"
    },
    "_left_": {
        "type": "string",
        "value": "0dp"
    },
    "_margin_": [
        0,
        0,
        0,
        0
    ],
    "_orientation_": 6,
    "_padding_": [
        0,
        0,
        0,
        0
    ],
    "_percent_": true,
    "_skin_": "s3f548bda3524e0388552e16122dc6fa",
    "_top_": {
        "type": "string",
        "value": "37%"
    },
    "_width_": {
        "type": "string",
        "value": "100%"
    },
    "allboxes": [],
    "allowhorizontalbounce": false,
    "allowverticalbounce": true,
    "bounces": true,
    "canUpdateUI": true,
    "children": [
        "CopyflxInfoLine0d6e67691a5a640",
        "flxLoanAccNumber",
        "CopyflxInfoLine0c853c09ec1c64d",
        "flxLoanAmount",
        "CopyflxInfoLine0be0e6baa380c4d",
        "flxInterestRate",
        "CopyflxInfoLine0c0e888d26f014c",
        "flxPaymentDue",
        "CopyflxInfoLine0e10508070cbc4e",
        "flxNextPaymentDate",
        "CopyflxInfoLine0ce193160eeb346",
        "flxFlatRate",
        "CopyflxInfoLine0gab94217d3824c",
        "flxReducedInterestRate",
        "CopyflxInfoLine0cdfaf4d915374f",
        "flxRemaingBalanceLoan",
        "CopyflxInfoLine0h1ac2e91a3aa48",
        "flxStartingDateLoan"
    ],
    "clipbounds": true,
    "containerweight": 100,
    "decelerat": false,
    "dragg": false,
    "enablescrolling": true,
    "horizontalscrollindicator": true,
    "id": "flxLoanInfo",
    "info": null,
    "isvisible": true,
    "kuid": "cb7952928f4f42258af21a8ae81faf9f",
    "layouttype": 4,
    "name": "kony.ui.FlexScrollContainer",
    "pagingenabled": false,
    "parent": "accountDetailsContainer",
    "pf": "frmAccountInfoKA",
    "scrolldirection": 2,
    "snapgridsize": 10,
    "snaptogrid": true,
    "track": false,
    "verticalscrollindicator": true,
    "wType": "FlexScrollContainer",
    "widgetalignment": 1,
    "zindex": 10
}