{
    "DNDConfig": null,
    "__parentReadjusting__": false,
    "_height_": {
        "type": "string",
        "value": "100%"
    },
    "_margin_": [
        0,
        0,
        0,
        0
    ],
    "_orientation_": 6,
    "_padding_": [
        0,
        0,
        0,
        0
    ],
    "_percent_": true,
    "_right_": {
        "type": "string",
        "value": "4%"
    },
    "_skin_": "s388f0c575ef4d08ac3a5ed0a4b90085",
    "_top_": {
        "type": "string",
        "value": "20dp"
    },
    "_width_": {
        "type": "string",
        "value": "40%"
    },
    "allboxes": [],
    "autogrowmode": 0,
    "canUpdateUI": true,
    "centery": {
        "type": "string",
        "value": "51%"
    },
    "children": [
        "CopylblopenDate0e9624340ea2743",
        "CopylblCcPaynowIcon0j794bd32570846",
        "lblLoanpostPoneNextPayment"
    ],
    "clipbounds": true,
    "containerweight": 100,
    "enablescrolling": true,
    "id": "flxLoanPostPoneNextPayment",
    "ide_onClick": "AS_FlexContainer_b1329283a171497e9c7614143aa791eb",
    "info": null,
    "isvisible": true,
    "kuid": "cd1daf6e7f1b4182b214adc5ad31b8e8",
    "layouttype": 2,
    "name": "kony.ui.FlexContainer",
    "parent": "CopyflxRight0e6cbaf47c87c4c",
    "pf": "frmAccountInfoKA",
    "snapgridsize": 10,
    "snaptogrid": true,
    "wType": "FlexContainer",
    "widgetalignment": 1,
    "zindex": 3
}