{
    "DNDConfig": null,
    "__parentReadjusting__": false,
    "_bottom_": {
        "type": "string",
        "value": "0dp"
    },
    "_left_": {
        "type": "string",
        "value": "0dp"
    },
    "_margin_": [
        0,
        0,
        0,
        0
    ],
    "_orientation_": 6,
    "_padding_": [
        0,
        0,
        0,
        0
    ],
    "_percent_": true,
    "_skin_": "s388f0c575ef4d08ac3a5ed0a4b90085",
    "_top_": {
        "type": "string",
        "value": "195dp"
    },
    "_width_": {
        "type": "string",
        "value": "100%"
    },
    "allboxes": [],
    "autogrowmode": 0,
    "canUpdateUI": true,
    "children": [
        "flxInfo1",
        "CopyFlexContainer0c70ac18acc484d",
        "CopyFlexContainer03936eaf9d8bc46",
        "CopyFlexContainer04eaae0c4373d4b",
        "CopyFlexContainer06c7adcdd8ed04c",
        "flxLoans5"
    ],
    "clipbounds": true,
    "containerweight": 100,
    "enablescrolling": true,
    "id": "flxLowerInfo",
    "info": null,
    "isvisible": false,
    "kuid": "e72a77ed5076422ea3d95231829aa7e9",
    "layouttype": 4,
    "name": "kony.ui.FlexContainer",
    "parent": "accountDetailsContainer",
    "pf": "frmAccountInfoKA",
    "snapgridsize": 10,
    "snaptogrid": true,
    "wType": "FlexContainer",
    "widgetalignment": 1,
    "zindex": 1
}