{
    "@class": "com.kony.gen.viz.model.container.KVizScrollFlexForm",
    "DNDConfig": null,
    "_footers_": [],
    "_margin_": [
        0,
        0,
        0,
        0
    ],
    "_padding_": [
        0,
        0,
        0,
        0
    ],
    "_skin_": "s0f4054a3ed2400c87a8090c5ffcd75f",
    "_title_": null,
    "addWidgetsdone": false,
    "allboxes": [],
    "android": {
        "ide_onDeviceBack": "AS_Form_063db3893d454aacb3114b25c19027d1",
        "inTransitionConfig": {
            "formAnimation": 0
        },
        "needAppMenu": false,
        "outTransitionConfig": {
            "formAnimation": 0
        },
        "psp": {
            "onDeviceMenu": "AS_Form_1c4e9f72d0484b089b07b98e6723867d"
        }
    },
    "bounces": false,
    "canUpdateUI": true,
    "children": [
        "mainContent",
        "flxAccountInfoNavOptKA",
        "flxPageIndicator",
        "flxFooter"
    ],
    "configurestatusbarstyle": true,
    "containerweight": 100,
    "currentLocale": "en",
    "desktopweb": {
        "needAppMenu": false
    },
    "device": "iPhoneXS",
    "displayorientation": 1,
    "enabled": false,
    "enabledforidletimeout": true,
    "enablescrolling": true,
    "footer": "frmAccountInfoKA_footer",
    "id": "frmAccountInfoKA",
    "ide_init": "AS_Form_hf0544f811ac401cb073b17ab1469d46",
    "ide_preShow": "AS_Form_5eedd91880c2459ba4fcdb82178fec87",
    "info": null,
    "initdone": false,
    "inputaccessoryviewtype": 4,
    "invokedProperty": "footers",
    "ipad": {
        "psp": {
            "inputAccessoryViewType": 4
        }
    },
    "iphone": {
        "inTransitionConfig": {
            "transitionDirection": "none",
            "transitionEffect": "none"
        },
        "needAppMenu": false,
        "outTransitionConfig": {
            "transitionDirection": "none",
            "transitionEffect": "none"
        },
        "psp": {
            "configureStatusBarStyle": true,
            "inputAccessoryViewType": 4,
            "statusBarHidden": false,
            "statusBarStyle": "STATUS_BAR_STYLE_LIGHT_CONTENT",
            "titleBarAttributes": {
                "barStyle": 0,
                "hidesBackButton": true,
                "kuid": "g15970b6b08e4356ac8cbbc279cd69b9",
                "leftBarButtonItems": [
                    {
                        "kuid": "d2aaebd815834033a71fda58596ceed1",
                        "leftButtonText": "Back",
                        "leftTitle": "Back",
                        "prevFormTitle": false,
                        "titleBarLeftSideView": "button",
                        "type": 4
                    }
                ],
                "leftItemsSupplementBackButton": true,
                "prompt": "",
                "renderTitleText": true,
                "rightBarButtonItems": [
                    {
                        "enabled": true,
                        "info": {
                            "title": "Edit"
                        },
                        "kuid": "h4cc590dc7294770a7587320b803aafd",
                        "style": 0,
                        "tintColor": "33333300",
                        "type": 1
                    }
                ],
                "tintColor": "33333300",
                "translucent": true
            }
        },
        "titleBar": false
    },
    "isvisible": true,
    "kuid": "b2f984d11c5244e6ae5f81fe393d837e",
    "layouttype": 2,
    "name": "kony.ui.Form2",
    "needappmenu": true,
    "orientation": 1,
    "paddinginpixel": false,
    "percent": true,
    "platform": "iphone",
    "preshow": "AS_Form_5eedd91880c2459ba4fcdb82178fec87",
    "prevDevice": "GalaxyS5",
    "prevPlatform": "android",
    "retainscrollposition": false,
    "shellCSS": "iOS_iPhoneXS",
    "snapgridsize": 10,
    "snaptogrid": true,
    "spa": {
        "inTransitionConfig": {
            "formTransition": "none"
        },
        "outTransitionConfig": {
            "formTransition": "none"
        }
    },
    "spaan": {
        "needAppMenu": false
    },
    "spabb": {
        "needAppMenu": false
    },
    "spaip": {
        "needAppMenu": false
    },
    "spawinphone8": {
        "needAppMenu": false
    },
    "statusbarstyle": "STATUS_BAR_STYLE_LIGHT_CONTENT",
    "titleBarSkin": "sf9d12b1e1d546169560d8b1b80caf35",
    "titlebar": false,
    "type": 3,
    "wType": "Form",
    "winphone8": {
        "inTransitionConfig": {
            "inTransition": "none",
            "transitionMode": "none",
            "transitionSpeed": 0
        },
        "needAppMenu": false,
        "outTransitionConfig": {
            "outTransition": "none",
            "transitionMode": "none",
            "transitionSpeed": 0
        }
    }
}