{
    "@class": "com.kony.gen.viz.model.component.KVizButton",
    "DNDConfig": null,
    "__parentReadjusting__": false,
    "_height_": {
        "type": "string",
        "value": "100%"
    },
    "_left_": {
        "type": "string",
        "value": "0dp"
    },
    "_margin_": [
        6,
        6,
        6,
        6
    ],
    "_padding_": [
        0,
        0,
        0,
        0
    ],
    "_skin_": "s803fe20b33c49ceb0ed9f9ee3a71425",
    "_text_": "",
    "_top_": {
        "type": "string",
        "value": "0dp"
    },
    "_width_": {
        "type": "string",
        "value": "100%"
    },
    "canUpdateUI": true,
    "containerweight": 100,
    "contentalignment": 5,
    "displaytext": true,
    "focusskin": "sba70ea8fcb8404997068fcec01740c2",
    "id": "Button0de7cd327cd5942",
    "info": null,
    "isvisible": true,
    "kuid": "b5a60f57cd0c4ee2ba9ac5dfe04a7e92",
    "name": "kony.ui.Button",
    "onclick": "AS_Button_403e9f59368b4474a6d48ed926bbdbc5",
    "parent": "searchCurrentLocationWrapper",
    "pf": "frmDirectionsKA",
    "wType": "Button",
    "zindex": 1
}