{
    "@class": "com.kony.gen.viz.model.component.KVizImage2",
    "DNDConfig": null,
    "__parentReadjusting__": false,
    "_base64_": null,
    "_height_": {
        "type": "string",
        "value": "25dp"
    },
    "_left_": {
        "type": "string",
        "value": "5%"
    },
    "_margin_": [
        0,
        0,
        0,
        0
    ],
    "_padding_": [
        0,
        0,
        0,
        0
    ],
    "_skin_": "s319dbfc5808408bbf0cda0a09d985ce",
    "_src_": "locator_icon_outline_blue.png",
    "_width_": {
        "type": "string",
        "value": "25dp"
    },
    "canUpdateUI": true,
    "centery": {
        "type": "string",
        "value": "50%"
    },
    "containerweight": 100,
    "context": {
        "channel": "mobile",
        "formID": "frmDirectionsKA",
        "ispercent": true,
        "platform": "android",
        "templateType": "forms",
        "topLevelBox": null
    },
    "enabled": false,
    "id": "Image03409386204724e",
    "imagescalemode": 1,
    "info": null,
    "invokedProperty": "src",
    "ispercent": true,
    "isvisible": true,
    "kuid": "824a8eefacfb49a6b7aa5df0cbc31d67",
    "name": "kony.ui.Image2",
    "parent": "searchCurrentLocationWrapper",
    "pf": "frmDirectionsKA",
    "srcType": 1,
    "wType": "Image",
    "widgetalignment": 5,
    "zindex": 1
}