{
    "@class": "com.kony.gen.viz.model.component.KVizTextBox2",
    "DNDConfig": null,
    "__markedForDelete__": true,
    "__parentReadjusting__": false,
    "_bottom_": {
        "type": "string",
        "value": "0%"
    },
    "_height_": {
        "type": "string",
        "value": "60%"
    },
    "_left_": {
        "type": "string",
        "value": "2%"
    },
    "_margin_": [
        0,
        0,
        0,
        0
    ],
    "_padding_": [
        0,
        0,
        0,
        0
    ],
    "_placeholder_": "",
    "_skin_": "sa42c9202bb341369447f425b4bf7e30",
    "_text_": "",
    "_width_": {
        "type": "string",
        "value": "95%"
    },
    "android": {
        "ide_onBeginEditing": "AS_TextField_a3ad0b8557574fa9b94d3f9638824c90",
        "ide_onEndEditing": "AS_TextField_h1734a6ca5e245b3b3275a10b135f4f2"
    },
    "autocapitalize": "none",
    "autocomplete": false,
    "autocorrect": false,
    "autofilter": false,
    "canUpdateUI": true,
    "containerheight": "",
    "containerheightmode": 1,
    "containerweight": 100,
    "contentalignment": 4,
    "focusskin": "sa42c9202bb341369447f425b4bf7e30",
    "id": "passwordTextField",
    "ide_onDone": "AS_TextField_d830873bcba34ae5a68388d7ef9a98e9",
    "ide_onTextChange": "AS_TextField_ad3ac5441c5b45668afa7d277e4f7415",
    "ide_onTouchEnd": "AS_TextField_j3223466667d4767a05c94e8307e7f3b",
    "ide_onTouchStart": "AS_TextField_a97a99d890794fdbae84264ec2f33229",
    "info": null,
    "iphone": {
        "ide_onBeginEditing": "AS_TextField_d1e87e13d5484728973ce493b734c3e9",
        "ide_onEndEditing": "AS_TextField_jd161ebeebbf4aee894d033116710aa5",
        "psp": {
            "showClearButton": false,
            "showCloseButton": false,
            "showProgressIndicator": false
        }
    },
    "isvisible": true,
    "keyboardtype": "A",
    "kuid": "a04067e26e4f4c18a7589dbb2c4d4e93",
    "maxtextlength": 20,
    "mode": "A",
    "name": "kony.ui.TextBox2",
    "paddinginpixel": false,
    "parent": "passwordContainer",
    "pf": "frmLanguageChange",
    "securetextentry": true,
    "textinputmode": "A",
    "viewtype": "default",
    "wType": "TextField",
    "zindex": 20
}