{
    "@class": "com.kony.gen.viz.model.component.KVizTextBox2",
    "DNDConfig": null,
    "__parentReadjusting__": false,
    "_bottom_": {
        "type": "string",
        "value": "0%"
    },
    "_height_": {
        "type": "string",
        "value": "60%"
    },
    "_left_": {
        "type": "string",
        "value": "2%"
    },
    "_margin_": [
        0,
        0,
        0,
        0
    ],
    "_padding_": [
        0,
        0,
        0,
        0
    ],
    "_placeholder_": "",
    "_skin_": "s029998596d3421892d0917ea7492e1d",
    "_text_": "",
    "_width_": {
        "type": "string",
        "value": "95%"
    },
    "android": {
        "ide_onBeginEditing": "AS_TextField_dd3dec3321d64e5994b78f5fe77925d6",
        "ide_onEndEditing": "AS_TextField_e1c3e34a26a14b7dbc6bb761c83cb6cf",
        "onBeginEditing": "AS_TextField_0ec8acaeaaa8431fab61144b4f8d1810",
        "psp": {
            "keyboardActionLabel": 4
        }
    },
    "autocapitalize": "none",
    "autocomplete": false,
    "autocorrect": false,
    "autofilter": false,
    "canUpdateUI": true,
    "closebuttontext": "Done",
    "containerheight": "",
    "containerheightmode": 1,
    "containerweight": 100,
    "contentalignment": 4,
    "enabled": false,
    "focusskin": "s029998596d3421892d0917ea7492e1d",
    "id": "tbxusernameTextField",
    "ide_onDone": "AS_TextField_h968e35fdbe645158069a76df967ad26",
    "ide_onTextChange": "AS_TextField_b95beac9d45a4544b30c20055dcdd796",
    "ide_onTouchEnd": "AS_TextField_gde2330ca7cd4c42b5eb5dda0d1bc028",
    "ide_onTouchStart": "AS_TextField_aa9aca97808947a396553184c773c344",
    "info": null,
    "iphone": {
        "ide_onBeginEditing": "AS_TextField_d2216a865ff4434d879a39095b6080c3",
        "ide_onEndEditing": "AS_TextField_e4be5b1149714d6f988cbab786ec3316",
        "onBeginEditing": "AS_TextField_32ddb481785c4a579adf600bb4a4d307",
        "psp": {
            "keyboardActionLabel": 4,
            "pasteboardType": 1,
            "showClearButton": false,
            "showCloseButton": false,
            "showProgressIndicator": false
        }
    },
    "isvisible": true,
    "keyboardactionlabel": 1,
    "keyboardtype": "A",
    "kuid": "c4e4aff541e0424eaeaac44ef60d42a5",
    "maxtextlength": 20,
    "mode": "A",
    "name": "kony.ui.TextBox2",
    "ondone": "AS_TextField_ddebbadfde0d4ca9b4bdec27efc8708e",
    "parent": "usernameContainer",
    "pasteboardtype": 1,
    "pf": "frmLanguageChange",
    "placeholderskin": "sfa36c5ffd8f4b39894ae352f59c3406",
    "securetextentry": false,
    "showclearbutton": false,
    "showclosebutton": false,
    "showoprogressindicator": false,
    "textinputmode": "A",
    "viewtype": "default",
    "wType": "TextField",
    "zindex": 20
}