{
    "DNDConfig": null,
    "_height_": {
        "type": "string",
        "value": "10%"
    },
    "_margin_": [
        0,
        0,
        0,
        0
    ],
    "_orientation_": 6,
    "_padding_": [
        0,
        0,
        0,
        0
    ],
    "_percent_": true,
    "_skin_": "s388f0c575ef4d08ac3a5ed0a4b90085",
    "allboxes": [],
    "autogrowmode": 0,
    "canUpdateUI": true,
    "children": [
        "lblJPTransfer",
        "lblJomopayType"
    ],
    "clipbounds": true,
    "containerId": true,
    "containerweight": 100,
    "enablescrolling": true,
    "id": "flxJPPopup",
    "info": null,
    "isTemplate": true,
    "isvisible": true,
    "kuid": "d76f9b2daf90401abb83e72484c63e9a",
    "layouttype": 2,
    "name": "kony.ui.FlexContainer",
    "parent": "tempJomopayPopup",
    "pf": "tempJomopayPopup",
    "snapgridsize": 10,
    "snaptogrid": true,
    "wType": "FlexContainer",
    "widgetalignment": 1
}