{
    "@class": "com.kony.gen.viz.model.component.KVizButton",
    "DNDConfig": null,
    "__parentReadjusting__": false,
    "_height_": {
        "type": "string",
        "value": "45dp"
    },
    "_margin_": [
        6,
        6,
        6,
        6
    ],
    "_padding_": [
        0,
        0,
        0,
        0
    ],
    "_skin_": "s369ab04a83040bc808b21001c014f1a",
    "_text_": "K",
    "_width_": {
        "type": "string",
        "value": "100%"
    },
    "canUpdateUI": true,
    "centerx": {
        "type": "string",
        "value": "50%"
    },
    "centery": {
        "type": "string",
        "value": "40%"
    },
    "containerweight": 100,
    "contentalignment": 5,
    "disabledSkins": {},
    "displaytext": true,
    "focusskin": "sd291eaf83084ea781b9988b6f1fc66d",
    "id": "btnMore",
    "ide_onClick": "AS_Button_gf0e4bb5d73f4e219a7e3db07a6ed96a",
    "info": null,
    "isvisible": true,
    "kuid": "j74f22e900c140758ba91571bac7ba8e",
    "name": "kony.ui.Button",
    "parent": "FlxMore",
    "pf": "frmPayBillHome",
    "wType": "Button",
    "zindex": 1
}