{
    "@class": "com.kony.gen.viz.model.component.KVizButton",
    "DNDConfig": null,
    "__parentReadjusting__": false,
    "_height_": {
        "type": "string",
        "value": "45dp"
    },
    "_margin_": [
        6,
        6,
        6,
        6
    ],
    "_padding_": [
        0,
        0,
        0,
        0
    ],
    "_skin_": "s52b4bc4f8fb49de94a4a9b157b66ec1",
    "_text_": "G",
    "_width_": {
        "type": "string",
        "value": "100%"
    },
    "canUpdateUI": true,
    "centerx": {
        "type": "string",
        "value": "50%"
    },
    "centery": {
        "type": "string",
        "value": "40%"
    },
    "containerweight": 100,
    "contentalignment": 5,
    "disabledSkins": {},
    "displaytext": true,
    "focusskin": "s33c99a7c3544ee0a5b2a081277f75cc",
    "id": "btnTransfers",
    "ide_onClick": "AS_Button_e4fe9cfb4eb34372b506f92a49a597a0",
    "info": null,
    "isvisible": true,
    "kuid": "d845ec35600145a4a428c63e7077efde",
    "name": "kony.ui.Button",
    "parent": "FlxTranfers",
    "pf": "frmPayBillHome",
    "wType": "Button",
    "zindex": 1
}