{
    "@class": "com.kony.gen.viz.model.component.KVizLabel",
    "DNDConfig": null,
    "__parentReadjusting__": false,
    "_height_": {
        "type": "ref",
        "value": "preferred"
    },
    "_left_": {
        "type": "string",
        "value": "110%"
    },
    "_margin_": [
        1,
        1,
        1,
        1
    ],
    "_padding_": [
        0,
        0,
        0,
        0
    ],
    "_skin_": "sb3dc974fe53444aa9582eddce81793d",
    "_text_": "abel",
    "_top_": {
        "type": "string",
        "value": "110%"
    },
    "_width_": {
        "type": "string",
        "value": "1px"
    },
    "_wrapping_": 2,
    "android": {
        "textStyle": {
            "letterSpacing": 0,
            "strikeThrough": false
        }
    },
    "canUpdateUI": true,
    "containerweight": 100,
    "contentalignment": 4,
    "id": "lblAccountNumber",
    "info": null,
    "ipad": {
        "psp": {
            "wrapping": 2
        }
    },
    "iphone": {
        "psp": {
            "wrapping": 2
        }
    },
    "isvisible": false,
    "kuid": "e8839f3ef9544d8face2f6c02125d0d2",
    "name": "kony.ui.Label",
    "parent": "frmOrderChequeBookConfirm",
    "pf": "frmOrderChequeBookConfirm",
    "textstyle": {},
    "tooltip": "",
    "wType": "Label",
    "zindex": 1
}