{
    "@class": "com.kony.gen.viz.model.component.KVizButton",
    "DNDConfig": null,
    "__parentReadjusting__": false,
    "_height_": {
        "type": "string",
        "value": "100%"
    },
    "_left_": {
        "type": "string",
        "value": "18%"
    },
    "_margin_": [
        6,
        6,
        6,
        6
    ],
    "_padding_": [
        0,
        0,
        0,
        0
    ],
    "_skin_": "s41fb5693a024ca6af3b2c8c71179333",
    "_text_": "BOJ",
    "_top_": {
        "type": "string",
        "value": "0dp"
    },
    "_width_": {
        "type": "string",
        "value": "18%"
    },
    "canUpdateUI": true,
    "centery": {
        "type": "string",
        "value": "50%"
    },
    "containerweight": 100,
    "contentalignment": 5,
    "displaytext": true,
    "focusskin": "s0eacd0585e64c81a58d225fcf6cd7c5",
    "id": "btnBOJ",
    "ide_onClick": "AS_Button_h12c7d60d8a54de5a53e2fa0abb40fa7",
    "info": null,
    "iscustomlayout": true,
    "isvisible": true,
    "kuid": "f4dd0b25debb47139dde2f8203b40f5b",
    "name": "kony.ui.Button",
    "paddinginpixel": false,
    "parent": "flxContent",
    "pf": "frmShowAllBeneficiary",
    "retainflexpositionproperties": false,
    "texti18n": "i18n.Bene.BOJ",
    "wType": "Button",
    "zindex": 2
}