{
    "DNDConfig": null,
    "_height_": {
        "type": "string",
        "value": "95dp"
    },
    "_margin_": [
        0,
        0,
        0,
        0
    ],
    "_orientation_": 6,
    "_padding_": [
        0,
        0,
        0,
        0
    ],
    "_percent_": true,
    "_skin_": "scb5e0a306aa4f1ebc927ed221428e36",
    "allboxes": [],
    "autogrowmode": 0,
    "canUpdateUI": true,
    "children": [
        "lblAccountName",
        "Symbol",
        "lblAccountNumber",
        "lblDefaultAccPayment",
        "lblAmount",
        "lblDefaultAccTransfer",
        "lblACCHideShow",
        "lblAccNickname",
        "lblAccName"
    ],
    "clipbounds": true,
    "containerId": true,
    "containerweight": 100,
    "enablescrolling": true,
    "id": "flxSegChooseAccounts",
    "info": null,
    "isTemplate": true,
    "isvisible": true,
    "kuid": "d07c588491a64492b7a541ebf7c5b8ea",
    "layouttype": 2,
    "name": "kony.ui.FlexContainer",
    "parent": "tmpChooseAccountsSettings",
    "pf": "tmpChooseAccountsSettings",
    "snapgridsize": 10,
    "snaptogrid": true,
    "wType": "FlexContainer",
    "widgetalignment": 1
}