{
    "@class": "com.kony.gen.viz.model.component.KVizLabel",
    "DNDConfig": null,
    "__parentReadjusting__": false,
    "_height_": {
        "type": "ref",
        "value": "preferred"
    },
    "_margin_": [
        1,
        1,
        1,
        1
    ],
    "_padding_": [
        0,
        0,
        0,
        0
    ],
    "_skin_": "s3f495fa17da40f590ae91fa0014cd8c",
    "_text_": "Enter Personal Details",
    "_top_": {
        "type": "string",
        "value": "53dp"
    },
    "_width_": {
        "type": "ref",
        "value": "preferred"
    },
    "_wrapping_": 2,
    "canUpdateUI": true,
    "centerx": {
        "type": "string",
        "value": "50%"
    },
    "containerweight": 100,
    "contentalignment": 5,
    "enabled": false,
    "id": "lblPickAProductKA",
    "info": null,
    "ipad": {
        "psp": {
            "wrapping": 2
        }
    },
    "iphone": {
        "psp": {
            "wrapping": 2
        }
    },
    "isvisible": true,
    "kuid": "48f8677c9c0b454ea21039293ab918ed",
    "name": "kony.ui.Label",
    "parent": "titleBarAccountInfo",
    "pf": "frmEnterPersonalDetailsKA",
    "texti18n": "i18n.settings.enterPersonalDetails",
    "tooltip": "",
    "wType": "Label"
}