{
  "operationConfig" : {
    "name" : "prGetBillDetails6444",
    "type" : "MappedToBackend",
    "cachable" : false,
    "smsEnabled" : false,
    "security" : "public",
    "responseEncoding" : "UTF-8",
    "httpMethod" : "GET",
    "decodeResponseBody" : false,
    "oMapping" : "<?xml version=\"1.0\" encoding=\"UTF-8\" standalone=\"yes\"?><mapper xmlns=\"http://www.kony.com/ns/mapper\">            <map inputpath=\"response_in\" outputpath=\"response_out\">                        <set-param inputpath=\"BillerDetails\" outputpath=\"BillerDetails\"/>                <set-param inputpath=\"BillerHistory\" outputpath=\"BillerHistory\"/>           <set-param inputpath=\"referenceId\" outputpath=\"referenceId\"/>                        <set-param inputpath=\"ErrorCode\" outputpath=\"ErrorCode\"/>            </map></mapper>",
    "applyCommonMapping" : false,
    "backendMeta" : {
      "serviceVersion" : "1.0",
      "operationName" : "prGetBillDetails",
      "serviceName" : "BOJGetBillerDetails"
    },
    "relationshipHierarchyMapping" : {
      "children" : [ ],
      "name" : "Payee",
      "selected" : true
    },
    "requestXmlMappingOverride" : true,
    "responseXmlMappingOverride" : true
  }
}