{
    "@class": "com.kony.gen.viz.model.component.KVizLabel",
    "DNDConfig": null,
    "__markedForDelete__": true,
    "__parentReadjusting__": false,
    "_height_": {
        "type": "string",
        "value": "13dp"
    },
    "_left_": 0,
    "_lines_": 1,
    "_margin_": [
        0,
        0,
        0,
        0
    ],
    "_opacity_": 100,
    "_padding_": [
        0,
        0,
        0,
        0
    ],
    "_skin_": "s45fab67ebc740349a40d9a6aa661c13",
    "_text_": "Saving Account",
    "_top_": 0,
    "_width_": {
        "type": "ref",
        "value": "preferred"
    },
    "_wrapping_": 2,
    "android": {
        "textStyle": {
            "letterSpacing": 0,
            "strikeThrough": false
        }
    },
    "canUpdateUI": true,
    "containerId": true,
    "containerweight": 100,
    "contentalignment": 6,
    "id": "lblTopValue",
    "info": null,
    "ipad": {
        "psp": {
            "wrapping": 2
        }
    },
    "iphone": {
        "psp": {
            "wrapping": 2
        }
    },
    "isvisible": true,
    "kuid": "j9d37408e1a94a51a79bedbad80ed6c5",
    "minscale": 100,
    "name": "kony.ui.Label",
    "paddinginpixel": true,
    "parent": "grpTop",
    "pf": "tempLoansAndDeposits",
    "tooltip": "",
    "wType": "Label",
    "widgetalignment": 1
}