{
    "@class": "com.kony.gen.viz.model.component.KVizButton",
    "DNDConfig": null,
    "__parentReadjusting__": false,
    "_height_": {
        "type": "string",
        "value": "50dp"
    },
    "_margin_": [
        6,
        6,
        6,
        6
    ],
    "_padding_": [
        0,
        0,
        0,
        0
    ],
    "_render_": true,
    "_right_": {
        "type": "number",
        "value": "0"
    },
    "_skin_": "s1a96e0a6f17402ca691f55c7b41e893",
    "_text_": "Details",
    "_top_": {
        "type": "string",
        "value": "0dp"
    },
    "_width_": {
        "type": "string",
        "value": "70dp"
    },
    "android": {
        "render": true
    },
    "canUpdateUI": true,
    "containerweight": 100,
    "contentalignment": 5,
    "displaytext": true,
    "focusskin": "s55cab51ac7b40b5a2db38b7b9c5822a",
    "id": "btnCancelKA",
    "ide_onClick": "AS_Button_d16232ef24b340f5b2a1458e12cc15db",
    "info": null,
    "iphone": {
        "psp": {
            "showProgressIndicator": false
        },
        "render": true
    },
    "isvisible": true,
    "kuid": "28a4ca43bb9d484d891648770519efd2",
    "minwidth": {
        "type": "string",
        "value": "50dp"
    },
    "name": "kony.ui.Button",
    "onclick": "AS_Button_27cee51e735d415195d22616280d1624",
    "paddinginpixel": false,
    "parent": "flxTopWrapperKA",
    "pf": "frmPayeeTransactionsKA",
    "showprogressindicator": false,
    "spaan": {
        "render": true
    },
    "spabb": {
        "render": true
    },
    "spaip": {
        "render": true
    },
    "spawinphone8": {
        "render": true
    },
    "texti18n": "i18n.manage_payee.details",
    "wType": "Button",
    "winphone8": {
        "render": true
    },
    "zindex": 1
}