{
    "@class": "com.kony.gen.viz.model.component.KVizButton",
    "DNDConfig": null,
    "__parentReadjusting__": false,
    "_height_": {
        "type": "string",
        "value": "50dp"
    },
    "_margin_": [
        6,
        6,
        6,
        6
    ],
    "_padding_": [
        0,
        0,
        0,
        12
    ],
    "_skin_": "s7a8068a835c44dab75d379494b13a94",
    "_text_": "H",
    "_width_": {
        "type": "string",
        "value": "100%"
    },
    "accessibilityconfig": {
        "a11yValue": "Accounts"
    },
    "canUpdateUI": true,
    "centerx": {
        "type": "string",
        "value": "50%"
    },
    "centery": {
        "type": "string",
        "value": "50%"
    },
    "containerId": true,
    "containerweight": 100,
    "contentalignment": 5,
    "disabledSkins": {},
    "displaytext": true,
    "focusskin": "sb7504848feb4d929652d8724debe39e",
    "id": "btnAccounts",
    "ide_onClick": "AS_Button_f7ae49a6453c4a1cb1a64adfbb07648e",
    "info": null,
    "isvisible": true,
    "kuid": "he507b5bfa914ff1982a973df9e58624",
    "name": "kony.ui.Button",
    "paddinginpixel": false,
    "parent": "FlxAccounts",
    "pf": "iphoneFooter",
    "wType": "Button",
    "zindex": 1
}