{
    "AS_Button_5b3abf8b4a4a41f2a222af0519399ec6": {
        "id": "AS_Button_5b3abf8b4a4a41f2a222af0519399ec6",
        "type": "ACTION_SEQUENCE",
        "actions": [{
            "id": "NAVIGATE_TO_FORM__onClick_5e26b497b6b14dbf90cb3f480d93a281",
            "type": "NAVIGATE_TO_FORM",
            "formId": "frmMoreLandingKA",
            "formKUID": "f90cf53e47ae407c83e2e30720fff3da",
            "mappings": {},
            "mappingsOrder": [],
            "parentId": "",
            "callbackType": null,
            "enableMappingEditor": true
        }]
    }
}