{
    "AS_Button_cd6a085fcfad44f58233dc2dbfbf1adf": {
        "id": "AS_Button_cd6a085fcfad44f58233dc2dbfbf1adf",
        "type": "ACTION_SEQUENCE",
        "actions": [{
            "id": "NAVIGATE_TO_FORM__onClick_9402483387084f17b84c5b801cdd346a",
            "type": "NAVIGATE_TO_FORM",
            "formId": "frmAccountsLandingKA",
            "formKUID": "d62a2a0906c64d2281addc95893a6544",
            "mappings": {},
            "mappingsOrder": [],
            "parentId": "",
            "callbackType": null,
            "enableMappingEditor": true
        }]
    }
}