{
    "AS_Button_4f699ba45c524758b754e9aa14a908a6": {
        "id": "AS_Button_4f699ba45c524758b754e9aa14a908a6",
        "type": "ACTION_SEQUENCE",
        "actions": [{
            "id": "NAVIGATE_TO_FORM__onClick_635f08d5c5f0445890a30162a7baefac",
            "type": "NAVIGATE_TO_FORM",
            "formId": "frmNewBillKA",
            "formKUID": "94b57de480514c9f98e1f6979b71a37b",
            "mappings": {},
            "mappingsOrder": [],
            "parentId": "",
            "callbackType": null,
            "enableMappingEditor": true
        }]
    }
}