{
    "AS_Button_48d32cc903a6421b9fa60d6cab6137c3": {
        "id": "AS_Button_48d32cc903a6421b9fa60d6cab6137c3",
        "type": "ACTION_SEQUENCE",
        "actions": [{
            "id": "NAVIGATE_TO_FORM__onClick_661bfc24494d43e4a81406f7af78baa0",
            "type": "NAVIGATE_TO_FORM",
            "formId": "frmAccountsLandingKA",
            "formKUID": "d62a2a0906c64d2281addc95893a6544",
            "mappings": {},
            "mappingsOrder": [],
            "parentId": "",
            "callbackType": null,
            "enableMappingEditor": true
        }]
    }
}