{
    "AS_Button_962b235806104292b7fed42421ba5fa6": {
        "id": "AS_Button_962b235806104292b7fed42421ba5fa6",
        "type": "ACTION_SEQUENCE",
        "actions": [{
            "id": "ADD_SNIPPET_onClick_52cb367e882c458284daa69a7b149bf4",
            "type": "ADD_SNIPPET",
            "codeSnippet": "scheduledTabSelected();",
            "callbackType": null
        }]
    }
}