{
    "AS_Button_b0d3b78f03a346de986171e4ce359a51": {
        "id": "AS_Button_b0d3b78f03a346de986171e4ce359a51",
        "type": "ACTION_SEQUENCE",
        "actions": [{
            "id": "NAVIGATE_TO_FORM__onClick_16dc0ebfcefd46b3a2e3dbd15b0684ef",
            "type": "NAVIGATE_TO_FORM",
            "formId": "frmTransferPayLandingKA",
            "formKUID": "dab7a50c55b94a12b3d961ae5bd49247",
            "mappings": {},
            "mappingsOrder": [],
            "parentId": "",
            "callbackType": null,
            "enableMappingEditor": true
        }]
    }
}