{
    "AS_Button_4d96fda01c664dc496d757f738de8a57": {
        "id": "AS_Button_4d96fda01c664dc496d757f738de8a57",
        "type": "ACTION_SEQUENCE",
        "actions": [{
            "id": "NAVIGATE_TO_FORM__onClick_1a5c88bf69974536b66d025e18cccb65",
            "type": "NAVIGATE_TO_FORM",
            "formId": "frmRecentTransactionDetailsKA",
            "formKUID": "3e75bf63a2d4443486447188bb14c36b",
            "mappings": {},
            "mappingsOrder": [],
            "parentId": "",
            "callbackType": null,
            "enableMappingEditor": true
        }]
    }
}