{
    "AS_Button_2d48f2da55744e3aa24c06c7da1b1c49": {
        "id": "AS_Button_2d48f2da55744e3aa24c06c7da1b1c49",
        "type": "ACTION_SEQUENCE",
        "actions": [{
            "id": "NAVIGATE_TO_FORM__onClick_faea4ff555fc40e9ab968847668462ba",
            "type": "NAVIGATE_TO_FORM",
            "formId": "frmAccountsLandingKA",
            "formKUID": "d62a2a0906c64d2281addc95893a6544",
            "mappings": {},
            "mappingsOrder": [],
            "parentId": "",
            "callbackType": null,
            "enableMappingEditor": true
        }]
    }
}