{
    "AS_Button_a5245738863a4a418204e835a2691211": {
        "id": "AS_Button_a5245738863a4a418204e835a2691211",
        "type": "ACTION_SEQUENCE",
        "actions": [{
            "id": "NAVIGATE_TO_FORM__onClick_75b5f42e4c04436ea2d9ce948254c9ee",
            "type": "NAVIGATE_TO_FORM",
            "formId": "frmAccountsLandingKA",
            "formKUID": "d62a2a0906c64d2281addc95893a6544",
            "mappings": {},
            "mappingsOrder": [],
            "parentId": "",
            "callbackType": null,
            "enableMappingEditor": true
        }]
    }
}