{
    "AS_Button_09919506432e4bd0b5d17574e1fe2cb2": {
        "id": "AS_Button_09919506432e4bd0b5d17574e1fe2cb2",
        "type": "ACTION_SEQUENCE",
        "actions": [{
            "id": "SHOW_ALERT_onClick_8d2d4289b15146cb9329270156ea59cb",
            "type": "SHOW_ALERT",
            "alertType": "constants.ALERT_TYPE_CONFIRMATION",
            "alertTitle": "Confirm Sign Out",
            "yesLabel": "Sign Out",
            "noLabel": "Cancel",
            "alertMessage": "yes",
            "messageType": "constant",
            "callbackType": null,
            "alertTitlei18n": null,
            "yesLabeli18n": null,
            "noLabeli18n": null
        }, {
            "id": "NAVIGATE_TO_FORM__onClick_6aa997ac1d4b4a37b5abc0cefea8ed64",
            "type": "NAVIGATE_TO_FORM",
            "formId": "frmLoginKA",
            "formKUID": "7b1aa8fceb6b4070833e9eab879b0e5e",
            "mappings": {},
            "mappingsOrder": [],
            "parentId": "SHOW_ALERT_onClick_8d2d4289b15146cb9329270156ea59cb",
            "callbackType": "True",
            "enableMappingEditor": true
        }]
    }
}