{
    "AS_Button_bcef6ff32c294b9c96a67ebe07e0fe19": {
        "id": "AS_Button_bcef6ff32c294b9c96a67ebe07e0fe19",
        "type": "ACTION_SEQUENCE",
        "actions": [{
            "id": "NAVIGATE_TO_FORM___5c1f25777fb74d419ffc9e70d0fa6722",
            "type": "NAVIGATE_TO_FORM",
            "formId": "frmUnauthFeatureEnablingKA",
            "formKUID": "6267e3b5eb614ea581b492d24e980f30",
            "mappings": {},
            "mappingsOrder": [],
            "parentId": "",
            "callbackType": null,
            "enableMappingEditor": true
        }]
    }
}