{
    "AS_Button_27e6dc3ff6fc47d1b9f850ff8a581aa6": {
        "id": "AS_Button_27e6dc3ff6fc47d1b9f850ff8a581aa6",
        "type": "ACTION_SEQUENCE",
        "actions": [{
            "id": "ADD_SNIPPET_onClick_cf1bf4552c41422d9809658891f34729",
            "type": "ADD_SNIPPET",
            "codeSnippet": "newTransferFromPick(1);",
            "callbackType": null
        }]
    }
}