{
    "AS_Button_a45746e53237455e8fcc2fbd64c75601": {
        "id": "AS_Button_a45746e53237455e8fcc2fbd64c75601",
        "type": "ACTION_SEQUENCE",
        "actions": [{
            "id": "NAVIGATE_TO_FORM__onClick_705756d24fa841568756b158842ce093",
            "type": "NAVIGATE_TO_FORM",
            "formId": "frmAccountsLandingKA",
            "formKUID": "d62a2a0906c64d2281addc95893a6544",
            "mappings": {},
            "mappingsOrder": [],
            "parentId": "",
            "callbackType": null,
            "enableMappingEditor": true
        }]
    }
}