{
    "AS_Button_23369b86276a46ddb28b606f412db09c": {
        "id": "AS_Button_23369b86276a46ddb28b606f412db09c",
        "type": "ACTION_SEQUENCE",
        "params": [{
            "datatype": "collection",
            "name": "eventobject"
        }],
        "actions": [{
            "id": "ADD_SNIPPET__f1b214475989445e803cdf0e32940f77",
            "type": "ADD_SNIPPET",
            "codeSnippet": "hidePayPersonScreen2();",
            "parentId": null,
            "callbackType": null
        }]
    }
}