{
    "AS_Button_386ec0fe1cd5453984ffc61479911f1e": {
        "id": "AS_Button_386ec0fe1cd5453984ffc61479911f1e",
        "type": "ACTION_SEQUENCE",
        "actions": [{
            "id": "NAVIGATE_TO_FORM__onClick_dbe36753f0cf4f9d87967acc07259f19",
            "type": "NAVIGATE_TO_FORM",
            "formId": "frmTransferPayLandingKA",
            "formKUID": "dab7a50c55b94a12b3d961ae5bd49247",
            "mappings": {},
            "mappingsOrder": [],
            "parentId": "",
            "callbackType": null,
            "enableMappingEditor": true
        }]
    }
}