{
    "AS_Button_6e02a60d9612494c9303a8ae94033d7b": {
        "id": "AS_Button_6e02a60d9612494c9303a8ae94033d7b",
        "type": "ACTION_SEQUENCE",
        "actions": [{
            "id": "NAVIGATE_TO_FORM__onClick_a23a5d5f1c214a3eaa52a0dd9d1215e6",
            "type": "NAVIGATE_TO_FORM",
            "formId": "frmMoreLandingKA",
            "formKUID": "f90cf53e47ae407c83e2e30720fff3da",
            "mappings": {},
            "mappingsOrder": [],
            "parentId": "",
            "callbackType": null,
            "enableMappingEditor": true
        }]
    }
}