{
    "AS_Button_6f7bc9211b34416b9a98574fb6607365": {
        "id": "AS_Button_6f7bc9211b34416b9a98574fb6607365",
        "type": "ACTION_SEQUENCE",
        "actions": [{
            "id": "NAVIGATE_TO_FORM__onClick_7878dad50f2e4fb5ad6a6115bf974a1f",
            "type": "NAVIGATE_TO_FORM",
            "formId": "frmUnauthInformationKA",
            "formKUID": "8ca0339cab9a45bf93258e727c1f8406",
            "mappings": {},
            "mappingsOrder": [],
            "parentId": "",
            "callbackType": null,
            "enableMappingEditor": true
        }]
    }
}