{
    "AS_Form_f89d843cac8d4ce1ba4e98e0df44aad2": {
        "id": "AS_Form_f89d843cac8d4ce1ba4e98e0df44aad2",
        "type": "ACTION_SEQUENCE",
        "actions": [{
            "id": "ADD_SNIPPET__654fa25eeec94a3797661ee8e08f1fb0",
            "type": "ADD_SNIPPET",
            "codeSnippet": "accountDetailPreShow();",
            "parentId": null,
            "callbackType": null
        }]
    }
}