{
    "AS_Form_20ad885405434b808e4ab48eee04cb28": {
        "id": "AS_Form_20ad885405434b808e4ab48eee04cb28",
        "type": "ACTION_SEQUENCE",
        "actions": [{
            "id": "ADD_SNIPPET_preShow_6ad26bda9b9342eb9b915c409e610f92",
            "type": "ADD_SNIPPET",
            "codeSnippet": "payBillPreShow();",
            "callbackType": null
        }]
    }
}