{
    "AS_Form_9390a6ebe23d486aab067df2179d9f3b": {
        "id": "AS_Form_9390a6ebe23d486aab067df2179d9f3b",
        "type": "ACTION_SEQUENCE",
        "actions": [{
            "id": "ADD_SNIPPET__2d8aa579f5444d5cae507308feb5c7bb",
            "type": "ADD_SNIPPET",
            "codeSnippet": "loadBackButton();",
            "parentId": null,
            "callbackType": null
        }]
    }
}