{
    "AS_Form_38af87e037164d10bb8b28ba20bea8a8": {
        "id": "AS_Form_38af87e037164d10bb8b28ba20bea8a8",
        "type": "ACTION_SEQUENCE",
        "actions": [{
            "id": "ADD_SNIPPET__8512a699239446b4b4f03eca001c71dd",
            "type": "ADD_SNIPPET",
            "codeSnippet": "accountsLandingPostShow();",
            "parentId": null,
            "callbackType": null
        }]
    }
}