{
    "AS_Form_7f64d729628d48e383b3e7bb1c1a5416": {
        "id": "AS_Form_7f64d729628d48e383b3e7bb1c1a5416",
        "type": "ACTION_SEQUENCE",
        "actions": [{
            "id": "ADD_SNIPPET__66610168ad3243a79c0e6364dceb1bc2",
            "type": "ADD_SNIPPET",
            "codeSnippet": "newTransferPreShow();",
            "parentId": null,
            "callbackType": null
        }]
    }
}