{
    "AS_FlexContainer_0236d58e8053422da6f27249f2207acd": {
        "id": "AS_FlexContainer_0236d58e8053422da6f27249f2207acd",
        "type": "ACTION_SEQUENCE",
        "params": [{
            "datatype": "collection",
            "name": "eventobject"
        }, {
            "datatype": "string",
            "name": "x"
        }, {
            "datatype": "string",
            "name": "y"
        }],
        "actions": [{
            "id": "ADD_SNIPPET__07db5b1e492b4c71a831ec8a3716bac4",
            "type": "ADD_SNIPPET",
            "codeSnippet": "closeAndroidNav();",
            "parentId": null,
            "callbackType": null
        }]
    }
}