{
    "AS_Form_7be60a74e6a446b6a821218d383643b9": {
        "id": "AS_Form_7be60a74e6a446b6a821218d383643b9",
        "type": "ACTION_SEQUENCE",
        "params": [{
            "datatype": "collection",
            "name": "eventobject"
        }],
        "actions": [{
            "id": "ADD_SNIPPET__96309d11e8fe4950bcfa64662ecd63c0",
            "type": "ADD_SNIPPET",
            "codeSnippet": "activeAndroidNav();",
            "parentId": null,
            "callbackType": null
        }]
    }
}