{
    "AS_FlexScrollContainer_837346d4e45b44d5b3441bf5b79267f9": {
        "id": "AS_FlexScrollContainer_837346d4e45b44d5b3441bf5b79267f9",
        "type": "ACTION_SEQUENCE",
        "actions": [{
            "id": "ADD_SNIPPET_onScrollEnd_89d0351ba3634a67b079f5095af5e933",
            "type": "ADD_SNIPPET",
            "codeSnippet": "innerDoneScrolling();",
            "callbackType": null
        }]
    }
}