{
    "AS_Segment_75c7a6f6d9684307974e6feee495e49a": {
        "id": "AS_Segment_75c7a6f6d9684307974e6feee495e49a",
        "type": "ACTION_SEQUENCE",
        "params": [{
            "datatype": "collection",
            "name": "eventobject"
        }, {
            "datatype": "number",
            "name": "sectionNumber"
        }, {
            "datatype": "number",
            "name": "rowNumber"
        }],
        "actions": [{
            "id": "SHOW_ALERT_onRowClick_4eb49088dc514da8825f040f21057c9a",
            "type": "SHOW_ALERT",
            "alertType": "constants.ALERT_TYPE_CONFIRMATION",
            "alertTitle": "Call",
            "yesLabel": "Call",
            "noLabel": "Cancel",
            "alertMessage": " 284-123-1234",
            "messageType": "constant",
            "callbackType": null,
            "alertTitlei18n": null,
            "yesLabeli18n": null,
            "noLabeli18n": null
        }]
    }
}