{
    "AS_Switch_ad8f626052394656bd27ad5d63f085a2": {
        "id": "AS_Switch_ad8f626052394656bd27ad5d63f085a2",
        "type": "ACTION_SEQUENCE",
        "params": [{
            "datatype": "collection",
            "name": "eventobject"
        }, {
            "datatype": "string",
            "name": "x"
        }, {
            "datatype": "string",
            "name": "y"
        }],
        "actions": [{
            "id": "ADD_SNIPPET__cf57fc9ca52648faa1c5bb5d1d5d0662",
            "type": "ADD_SNIPPET",
            "codeSnippet": "touchIdSwitchOnTouchEnd();",
            "parentId": null,
            "callbackType": null
        }]
    }
}