{
    "AS_Segment_daf3303bac134351ab71c479553ea34d": {
        "id": "AS_Segment_daf3303bac134351ab71c479553ea34d",
        "type": "ACTION_SEQUENCE",
        "actions": [{
            "id": "SHOW_ALERT_onRowClick_07b348a757c64a9fbf7a1c225a962cc5",
            "type": "SHOW_ALERT",
            "alertType": "constants.ALERT_TYPE_CONFIRMATION",
            "alertTitle": "Call",
            "yesLabel": "Call",
            "noLabel": "Cancel",
            "alertMessage": " 284-123-1234",
            "messageType": "constant",
            "callbackType": null,
            "alertTitlei18n": null,
            "yesLabeli18n": null,
            "noLabeli18n": null
        }]
    }
}