{
    "AS_TextField_521006bc43bb469d9a715663c364ce11": {
        "id": "AS_TextField_521006bc43bb469d9a715663c364ce11",
        "type": "ACTION_SEQUENCE",
        "params": [{
            "datatype": "collection",
            "name": "eventobject"
        }, {
            "datatype": "string",
            "name": "changedtext"
        }],
        "actions": [{
            "id": "ADD_SNIPPET_onEndEditing_616c505ae9634d6ab64c1d8b64260e26",
            "type": "ADD_SNIPPET",
            "codeSnippet": "selectAmountCard(frmNewTransferKA);",
            "callbackType": null
        }]
    }
}