{
    "AS_TextField_759db6dab39c423197e765c70438b41b": {
        "id": "AS_TextField_759db6dab39c423197e765c70438b41b",
        "type": "ACTION_SEQUENCE",
        "params": [{
            "datatype": "collection",
            "name": "eventobject"
        }, {
            "datatype": "string",
            "name": "changedtext"
        }],
        "actions": [{
            "id": "ADD_SNIPPET_onBeginEditing_1403f75b54994253a5ad40611f61c833",
            "type": "ADD_SNIPPET",
            "codeSnippet": "loginKeyboardActive();",
            "callbackType": null
        }]
    }
}