{
    "AS_TextField_efed977064ff4508aaef5cff9391f2f6": {
        "id": "AS_TextField_efed977064ff4508aaef5cff9391f2f6",
        "type": "ACTION_SEQUENCE",
        "actions": [{
            "id": "ADD_SNIPPET__4b806125bac64761947d1ac1b829ec37",
            "type": "ADD_SNIPPET",
            "codeSnippet": "loginKeyboardActive();",
            "parentId": null,
            "callbackType": null
        }]
    }
}