{
    "@class": "com.kony.gen.viz.model.component.KVizButton",
    "DNDConfig": null,
    "__parentReadjusting__": false,
    "_height_": {
        "type": "string",
        "value": "50dp"
    },
    "_margin_": [
        6,
        6,
        6,
        6
    ],
    "_padding_": [
        0,
        0,
        0,
        14
    ],
    "_skin_": "s7a8068a835c44dab75d379494b13a94",
    "_text_": "i",
    "_width_": {
        "type": "string",
        "value": "100%"
    },
    "canUpdateUI": true,
    "centerx": {
        "type": "string",
        "value": "50%"
    },
    "centery": {
        "type": "string",
        "value": "50%"
    },
    "containerweight": 100,
    "contentalignment": 5,
    "disabledSkins": {},
    "displaytext": true,
    "focusskin": "sb7504848feb4d929652d8724debe39e",
    "id": "btnPayment",
    "info": null,
    "iphone": {
        "psp": {
            "showProgressIndicator": false
        }
    },
    "iscustomlayout": true,
    "isvisible": true,
    "kuid": "b69e37cd17264ff9ac0f116ef0f89d13",
    "name": "kony.ui.Button",
    "paddinginpixel": false,
    "parent": "FlxPayment",
    "pf": "frmPaymentDashboard",
    "retainflexpositionproperties": true,
    "wType": "Button",
    "zindex": 1
}