{
    "@class": "com.kony.gen.viz.model.component.KVizLabel",
    "DNDConfig": null,
    "__parentReadjusting__": false,
    "_height_": {
        "type": "ref",
        "value": "preferred"
    },
    "_margin_": [
        1,
        1,
        1,
        1
    ],
    "_padding_": [
        0,
        0,
        0,
        0
    ],
    "_skin_": "sa4100b61cd141c4b7c6f82115bc37b9",
    "_text_": "Instructions",
    "_width_": {
        "type": "string",
        "value": "100%"
    },
    "_wrapping_": 2,
    "android": {
        "textStyle": {
            "letterSpacing": 0,
            "strikeThrough": false
        }
    },
    "canUpdateUI": true,
    "centerx": {
        "type": "string",
        "value": "50%"
    },
    "containerweight": 100,
    "contentalignment": 8,
    "id": "lblStandingI2",
    "info": null,
    "ipad": {
        "psp": {
            "wrapping": 2
        }
    },
    "iphone": {
        "psp": {
            "wrapping": 2
        }
    },
    "isvisible": true,
    "kuid": "efeb3b238e20453aa33000f6c1f1b809",
    "name": "kony.ui.Label",
    "parent": "flxLeft2",
    "pf": "frmPaymentDashboard",
    "texti18n": "i18n.PaymentDash.Instructions",
    "textstyle": {},
    "tooltip": "",
    "wType": "Label",
    "zindex": 1
}