{
    "@class": "com.kony.gen.viz.model.component.KVizButton",
    "DNDConfig": null,
    "__parentReadjusting__": false,
    "_height_": {
        "type": "string",
        "value": "100%"
    },
    "_left_": {
        "type": "string",
        "value": "1%"
    },
    "_margin_": [
        6,
        6,
        6,
        6
    ],
    "_padding_": [
        6,
        0,
        6,
        0
    ],
    "_skin_": "s0f488b2579d4b13b20ae12b51e6d9ca",
    "_text_": "",
    "_top_": {
        "type": "string",
        "value": "0dp"
    },
    "_width_": {
        "type": "string",
        "value": "32%"
    },
    "canUpdateUI": true,
    "containerweight": 100,
    "contentalignment": 5,
    "displaytext": true,
    "focusskin": "s0f488b2579d4b13b20ae12b51e6d9ca",
    "id": "btnBranchKA",
    "ide_onClick": "AS_Button_62ada913c28c4564be79058f9b834dbe",
    "info": null,
    "iphone": {
        "psp": {
            "showProgressIndicator": false
        }
    },
    "isvisible": true,
    "kuid": "00d9bf962d2141df99955627bec4c2bd",
    "name": "kony.ui.Button",
    "paddinginpixel": false,
    "parent": "searchAccountFilters",
    "pf": "frmLocatorKA",
    "showprogressindicator": false,
    "texti18n": "i18n.locateus.branch",
    "wType": "Button",
    "zindex": 3
}