{
    "@class": "com.kony.gen.viz.model.component.KVizButton",
    "DNDConfig": null,
    "__parentReadjusting__": false,
    "_height_": {
        "type": "string",
        "value": "100%"
    },
    "_left_": {
        "type": "string",
        "value": "0%"
    },
    "_margin_": [
        6,
        6,
        6,
        6
    ],
    "_padding_": [
        6,
        0,
        6,
        0
    ],
    "_skin_": "s5253604489842bd8355e2612bbbf6f9",
    "_text_": "",
    "_top_": {
        "type": "string",
        "value": "0dp"
    },
    "_width_": {
        "type": "string",
        "value": "32%"
    },
    "canUpdateUI": true,
    "containerweight": 100,
    "contentalignment": 5,
    "displaytext": true,
    "focusskin": "s0f488b2579d4b13b20ae12b51e6d9ca",
    "id": "btnBothKA",
    "ide_onClick": "AS_Button_dcc31819d9d44ee6af9c16ca3f0cc8b0",
    "info": null,
    "isvisible": true,
    "kuid": "9911557fc9214ca386e0250478e2aab7",
    "name": "kony.ui.Button",
    "paddinginpixel": false,
    "parent": "searchAccountFilters",
    "pf": "frmLocatorKA",
    "texti18n": "i18n.Bene.All",
    "wType": "Button",
    "zindex": 2
}