{
    "@class": "com.kony.gen.viz.model.component.KVizButton",
    "DNDConfig": null,
    "__parentReadjusting__": false,
    "_height_": {
        "type": "string",
        "value": "100%"
    },
    "_left_": {
        "type": "string",
        "value": "0%"
    },
    "_margin_": [
        6,
        6,
        6,
        6
    ],
    "_padding_": [
        0,
        0,
        0,
        0
    ],
    "_skin_": "s0f488b2579d4b13b20ae12b51e6d9ca",
    "_text_": "Map",
    "_width_": {
        "type": "string",
        "value": "55%"
    },
    "canUpdateUI": true,
    "centery": {
        "type": "string",
        "value": "50%"
    },
    "containerweight": 100,
    "contentalignment": 5,
    "disabledSkins": {},
    "displaytext": true,
    "focusskin": "s0f488b2579d4b13b20ae12b51e6d9ca",
    "id": "btnMapKA",
    "ide_onClick": "AS_Button_f8f5f87b783b455caa73172bd1d69462",
    "info": null,
    "iphone": {
        "psp": {
            "showProgressIndicator": false
        }
    },
    "isvisible": true,
    "kuid": "8909799dbe65480184de2fa45f6fe574",
    "name": "kony.ui.Button",
    "paddinginpixel": false,
    "parent": "MapListControllerWrapper",
    "pf": "frmLocatorKA",
    "showprogressindicator": false,
    "texti18n": "i18n.Map.Map",
    "wType": "Button",
    "zindex": 2
}