{
    "DNDConfig": null,
    "__parentReadjusting__": false,
    "_height_": {
        "type": "string",
        "value": "50%"
    },
    "_left_": {
        "type": "string",
        "value": "0%"
    },
    "_margin_": [
        0,
        0,
        0,
        0
    ],
    "_orientation_": 6,
    "_padding_": [
        0,
        0,
        0,
        0
    ],
    "_percent_": true,
    "_skin_": "s388f0c575ef4d08ac3a5ed0a4b90085",
    "_top_": {
        "type": "string",
        "value": "100%"
    },
    "_width_": {
        "type": "string",
        "value": "100%"
    },
    "allboxes": [],
    "autogrowmode": 0,
    "canUpdateUI": true,
    "children": [
        "lblTransactionType",
        "lblDescription",
        "lblFromAccountNumber",
        "lblSourceBranchCode",
        "lblfromAccountCurrency",
        "lblJomopayType",
        "lblTransferFlag"
    ],
    "clipbounds": true,
    "containerweight": 100,
    "enablescrolling": true,
    "id": "flxHiddenContents",
    "info": null,
    "isvisible": false,
    "kuid": "eebc4e4779014bb5be79d1a006ff5daa",
    "layouttype": 4,
    "name": "kony.ui.FlexContainer",
    "parent": "frmJoMoPayConfirmation",
    "pf": "frmJoMoPayConfirmation",
    "snapgridsize": 10,
    "snaptogrid": true,
    "wType": "FlexContainer",
    "widgetalignment": 1,
    "zindex": 5
}