{
    "@class": "com.kony.gen.viz.model.component.KVizTextBox2",
    "DNDConfig": null,
    "__parentReadjusting__": false,
    "_height_": {
        "type": "number",
        "value": "38"
    },
    "_left_": {
        "type": "string",
        "value": "0dp"
    },
    "_margin_": [
        0,
        0,
        0,
        0
    ],
    "_padding_": [
        0,
        0,
        0,
        0
    ],
    "_placeholder_": "Enter password here",
    "_right_": {
        "type": "number",
        "value": "0"
    },
    "_skin_": "sfeb20d5233a455582c84c14f5ec1de2",
    "_text_": "",
    "_top_": {
        "type": "string",
        "value": "0dp"
    },
    "_width_": {
        "type": "string",
        "value": "80%"
    },
    "android": {},
    "autocapitalize": "none",
    "autocomplete": false,
    "autocorrect": false,
    "autofilter": false,
    "canUpdateUI": true,
    "containerheight": "",
    "containerheightmode": 1,
    "containerweight": 100,
    "contentalignment": 4,
    "enabled": false,
    "focusskin": "s16addfe9da944a3add187c9cd34aa56",
    "id": "answerFieldPassword",
    "ide_onTextChange": "AS_TextField_b8853eb45aee40528409bd43cdefddd7",
    "info": null,
    "iphone": {
        "psp": {
            "keyboardActionLabel": 4,
            "showClearButton": false
        }
    },
    "isvisible": true,
    "keyboardactionlabel": 4,
    "keyboardstyle": "A",
    "keyboardtype": "A",
    "kuid": "debca40b2ea3422da92861136954409a",
    "mode": "A",
    "name": "kony.ui.TextBox2",
    "parent": "flxEnterPassword",
    "pf": "frmCreateCredentials",
    "placeholderi18n": "i18n.NUO.Enterpasswordhere",
    "placeholderskin": "sfa36c5ffd8f4b39894ae352f59c3406",
    "securetextentry": true,
    "showclearbutton": false,
    "textinputmode": "A",
    "viewtype": "default",
    "wType": "TextField"
}