{
    "@class": "com.kony.gen.viz.model.component.KVizButton",
    "DNDConfig": null,
    "__parentReadjusting__": false,
    "_height_": {
        "type": "string",
        "value": "98%"
    },
    "_left_": {
        "type": "string",
        "value": "0%"
    },
    "_margin_": [
        6,
        6,
        6,
        6
    ],
    "_padding_": [
        0,
        0,
        0,
        0
    ],
    "_skin_": "s5253604489842bd8355e2612bbbf6f9",
    "_text_": "",
    "_top_": {
        "type": "string",
        "value": "1%"
    },
    "_width_": {
        "type": "string",
        "value": "33%"
    },
    "canUpdateUI": true,
    "containerweight": 100,
    "contentalignment": 5,
    "displaytext": true,
    "focusskin": "s0f488b2579d4b13b20ae12b51e6d9ca",
    "id": "btnDaily",
    "ide_onClick": "AS_Button_a10c970a784842da835dc1f056b63cdf",
    "info": null,
    "isvisible": true,
    "kuid": "b80f5381bb6542d49bde2a0e9ce555e0",
    "name": "kony.ui.Button",
    "paddinginpixel": false,
    "parent": "flxdays",
    "pf": "frmEnableInternetTransactionKA",
    "texti18n": "i18n.transfers.Daily",
    "wType": "Button",
    "zindex": 2
}