{
    "@class": "com.kony.gen.viz.model.component.KVizButton",
    "DNDConfig": null,
    "__parentReadjusting__": false,
    "_height_": {
        "type": "string",
        "value": "100%"
    },
    "_left_": {
        "type": "string",
        "value": "33.33%"
    },
    "_margin_": [
        6,
        6,
        6,
        6
    ],
    "_padding_": [
        0,
        1,
        0,
        0
    ],
    "_skin_": "s40a6a9a8b544c4eafeeddb11dd24bbe",
    "_text_": "CHARGES",
    "_top_": {
        "type": "string",
        "value": "0dp"
    },
    "_width_": {
        "type": "string",
        "value": "33.33%"
    },
    "canUpdateUI": true,
    "containerweight": 100,
    "contentalignment": 5,
    "displaytext": true,
    "focusskin": "s80191b6ac7b456395dfcf46858959f6",
    "id": "btnChargesKA",
    "ide_onClick": "AS_Button_dc37fde1644340758707bec52a8032b3",
    "info": null,
    "iphone": {
        "psp": {
            "showProgressIndicator": false
        }
    },
    "isvisible": true,
    "kuid": "ae8212fd857e4d59a43dc5e1b84b11b5",
    "name": "kony.ui.Button",
    "onclick": "AS_Button_5cf352ceb8094acf83e90f4325190ed3",
    "paddinginpixel": false,
    "parent": "tabsWrapper",
    "pf": "frmCheckingJoint",
    "showprogressindicator": false,
    "texti18n": "i18n.opening_account.btnCharges",
    "wType": "Button"
}