{
    "DNDConfig": null,
    "__parentReadjusting__": false,
    "_height_": {
        "type": "string",
        "value": "90%"
    },
    "_left_": {
        "type": "string",
        "value": "0dp"
    },
    "_margin_": [
        0,
        0,
        0,
        0
    ],
    "_orientation_": 6,
    "_padding_": [
        0,
        0,
        0,
        0
    ],
    "_percent_": true,
    "_skin_": "s388f0c575ef4d08ac3a5ed0a4b90085",
    "_top_": {
        "type": "string",
        "value": "0dp"
    },
    "_width_": {
        "type": "string",
        "value": "100%"
    },
    "allboxes": [],
    "autogrowmode": 0,
    "canUpdateUI": true,
    "children": [
        "lblTrxRefo",
        "lblRefo",
        "AliasNameo",
        "lblAliaso",
        "lblAmto",
        "transactionDateo",
        "lblTrxDateo",
        "transactionAmounto",
        "lblIBAnDescO",
        "lblIBANo",
        "lblFAcco",
        "lblFromAccount"
    ],
    "clipbounds": true,
    "containerId": true,
    "containerweight": 100,
    "enablescrolling": true,
    "id": "flxOutgoing",
    "info": null,
    "iscustomlayout": false,
    "isvisible": false,
    "kuid": "cb40eab5113c445391ef281d91190eb1",
    "layouttype": 2,
    "name": "kony.ui.FlexContainer",
    "parent": "flxPaymentHistoryIncoming",
    "pf": "tmpSegIPSPaymentHistory",
    "retaincontentalignment": false,
    "retainflexpositionproperties": false,
    "retainflowhorizontalalignment": false,
    "snapgridsize": 10,
    "snaptogrid": true,
    "wType": "FlexContainer",
    "widgetalignment": 1,
    "zindex": 1
}