{
    "@class": "com.kony.gen.viz.model.component.KVizButton",
    "DNDConfig": null,
    "__markedForDelete__": true,
    "__parentReadjusting__": false,
    "_height_": {
        "type": "string",
        "value": "98%"
    },
    "_left_": {
        "type": "string",
        "value": "0"
    },
    "_margin_": [
        6,
        6,
        6,
        6
    ],
    "_padding_": [
        0,
        0,
        0,
        0
    ],
    "_skin_": "s41fb5693a024ca6af3b2c8c71179333",
    "_text_": "Completed",
    "_width_": {
        "type": "string",
        "value": "34%"
    },
    "canUpdateUI": true,
    "centery": {
        "type": "string",
        "value": "50%"
    },
    "containerweight": 100,
    "contentalignment": 5,
    "displaytext": true,
    "focusskin": "s0eacd0585e64c81a58d225fcf6cd7c5",
    "id": "btnCompleted",
    "ide_onClick": "AS_Button_h7010eddba354dbf886d2f74208a5c1a",
    "info": null,
    "isvisible": true,
    "kuid": "fea60be429e14cd8970b5079f5c9b6fa",
    "name": "kony.ui.Button",
    "paddinginpixel": false,
    "parent": "flxContent",
    "pf": "frmrequestStatus",
    "texti18n": "i18n.managepayee.btnCompleted",
    "wType": "Button",
    "zindex": 2
}