{
    "@class": "com.kony.gen.viz.model.component.KVizButton",
    "DNDConfig": null,
    "__parentReadjusting__": false,
    "_height_": {
        "type": "string",
        "value": "100%"
    },
    "_left_": {
        "type": "string",
        "value": "0"
    },
    "_margin_": [
        6,
        6,
        6,
        6
    ],
    "_padding_": [
        0,
        0,
        0,
        0
    ],
    "_skin_": "s11bf16b2f204f8584ad51e44887c74d",
    "_text_": "Exchange Rates",
    "_top_": {
        "type": "string",
        "value": "0dp"
    },
    "_width_": {
        "type": "string",
        "value": "50%"
    },
    "canUpdateUI": true,
    "containerweight": 100,
    "contentalignment": 5,
    "displaytext": true,
    "focusskin": "s0eacd0585e64c81a58d225fcf6cd7c5",
    "id": "btnExchangeRates",
    "ide_onClick": "AS_Button_c47b55d940254da4b8397657d787ee7d",
    "info": null,
    "isvisible": true,
    "kuid": "b4ba133c1b25496e80584ddb75305425",
    "name": "kony.ui.Button",
    "paddinginpixel": false,
    "parent": "flxContent",
    "pf": "frmFxRate",
    "texti18n": "i18n.fxRate",
    "wType": "Button",
    "zindex": 2
}