{
    "AS_Button_jb4660a0422d498492aa6ecd6b1da03a": {
        "id": "AS_Button_jb4660a0422d498492aa6ecd6b1da03a",
        "type": "ACTION_SEQUENCE",
        "name": "actionOnBtnPick",
        "params": [{
            "datatype": "collection",
            "name": "eventobject"
        }],
        "contextObj": {
            "name": "frmNewUserAddressMapKA",
            "type": "forms",
            "platform": "",
            "KUID": "a2253cabb2f14a39a14731c9ca70cb2c"
        },
        "language": "js",
        "actions": [{
            "id": "ADD_SNIPPET__d065f61af78643c5aed552ddc3d3979b",
            "type": "ADD_SNIPPET",
            "codeSnippet": "var VC = applicationManager.getFrmNewUserAddressMapKAViewController();\nVC.navigateTofrmManualAddress();\n",
            "parentId": null,
            "callbackType": null
        }]
    }
}