{
    "AS_Button_d19dc394b53042c59828e9d8ae154d9d": {
        "id": "AS_Button_d19dc394b53042c59828e9d8ae154d9d",
        "type": "ACTION_SEQUENCE",
        "name": "ActionOnDocSkip",
        "params": [{
            "datatype": "collection",
            "name": "eventobject"
        }],
        "contextObj": {
            "type": "forms",
            "platform": "",
            "KUID": "d242d2d8afb149ed92b8c43908766e71"
        },
        "language": "js",
        "actions": [{
            "id": "ADD_SNIPPET__dc43c3c7403044faab709f607ca790b2",
            "type": "ADD_SNIPPET",
            "codeSnippet": "kony.print(\"Deleted\");",
            "parentId": null,
            "callbackType": null
        }]
    }
}