{
    "AS_Button_d61984d35b724f1f8cf194a150ddbb53": {
        "id": "AS_Button_d61984d35b724f1f8cf194a150ddbb53",
        "type": "ACTION_SEQUENCE",
        "name": "actionNUOVerificationResendOTP",
        "params": [{
            "datatype": "collection",
            "name": "eventobject"
        }],
        "contextObj": {
            "name": "frmNewUserOnboardVerificationKA",
            "type": "forms",
            "platform": "",
            "KUID": "ie7b921fac134bd8a8afb16afc085409"
        },
        "language": "js",
        "actions": [{
            "id": "ADD_SNIPPET__c9aab0bed61345a28ae5a7b315489424",
            "type": "ADD_SNIPPET",
            "codeSnippet": "var vc= applicationManager.getFrmNUOVerificationKAViewController();\nvc.onClickResendOTP();",
            "parentId": null,
            "callbackType": null
        }]
    }
}