{
    "AS_Button_e6e20fdde75246b88d73c4d6cfd11abf": {
        "id": "AS_Button_e6e20fdde75246b88d73c4d6cfd11abf",
        "type": "ACTION_SEQUENCE",
        "name": "actionBackforPersonalInfoName",
        "params": [{
            "datatype": "collection",
            "name": "eventobject"
        }],
        "contextObj": {
            "type": "forms",
            "platform": "",
            "KUID": "a731b583d1a64636b14ee729d1c40cfb"
        },
        "language": "js",
        "actions": [{
            "id": "ADD_SNIPPET__e833c74cc02f4352a234e582a392846d",
            "type": "ADD_SNIPPET",
            "codeSnippet": "kony.print(\"deleted\");",
            "parentId": null,
            "callbackType": null
        }]
    }
}