{
    "AS_Button_c263b57f9fb3479a955fbddbac988f97": {
        "id": "AS_Button_c263b57f9fb3479a955fbddbac988f97",
        "type": "ACTION_SEQUENCE",
        "name": "actionOnSpendingSelectedKA",
        "params": [{
            "datatype": "collection",
            "name": "eventobject"
        }],
        "contextObj": {
            "name": "frmMyMoneyListKA",
            "type": "forms",
            "platform": "",
            "KUID": "4c6f3d4dd57b4bc3a51ee85d32b7cd14"
        },
        "language": "js",
        "actions": [{
            "id": "ADD_SNIPPET__5f7eed5a51634ba1a2978bc21eee6ef7",
            "type": "ADD_SNIPPET",
            "codeSnippet": "onSpendingSelected();\nif (kony.retailBanking.globalData.globals.PFM_ACCOUNTS_PRESENT && !kony.retailBanking.columnChartGenereted) {\n        frmMyMoneyListKA.flxSpendingOverviewKAinner.isVisible =  true;\n        frmMyMoneyListKA.LabelNoRecordsSpendingKA.isVisible = false;\n        ColumnChart = column_createChartWidget();\n        frmMyMoneyListKA.flxSpendingOverviewKAinner.add(ColumnChart);\n\t\tkony.retailBanking.columnChartGenereted = true;\n        \n }\nif(kony.retailBanking.globalData.globals.PFM_ACCOUNTS_PRESENT){\n  frmMyMoneyListKA.flxSpendingOverviewKAinner.isVisible =  true;\n  frmMyMoneyListKA.LabelNoRecordsSpendingKA.isVisible = false;\n}else{\n    frmMyMoneyListKA.flxSpendingOverviewKAinner.isVisible =  false;\n    frmMyMoneyListKA.LabelNoRecordsSpendingKA.isVisible = true;\n }",
            "parentId": null,
            "callbackType": null
        }]
    }
}