{
    "AS_TextField_ddeeec874a674c4d979432ca271eb6b8": {
        "id": "AS_TextField_ddeeec874a674c4d979432ca271eb6b8",
        "type": "ACTION_SEQUENCE",
        "name": "actionOnTextChangeSpouseFirstName",
        "params": [{
            "datatype": "collection",
            "name": "eventobject"
        }, {
            "datatype": "string",
            "name": "changedtext"
        }],
        "contextObj": {
            "type": "forms",
            "platform": "",
            "KUID": "f4e7e3da0c4e438a9a933922ca89141c"
        },
        "language": "js",
        "actions": [{
            "id": "ADD_SNIPPET__f94e7c3450c04a29beda5b875c69faa3",
            "type": "ADD_SNIPPET",
            "codeSnippet": "kony.print(\"Deleted\");",
            "parentId": null,
            "callbackType": null
        }]
    }
}