{
    "AS_Button_bdfea5697a1746c6aa1743aa3961cea6": {
        "id": "AS_Button_bdfea5697a1746c6aa1743aa3961cea6",
        "type": "ACTION_SEQUENCE",
        "name": "actionNUOSignUpEmailCancel",
        "params": [{
            "datatype": "collection",
            "name": "eventobject"
        }],
        "contextObj": {
            "type": "forms",
            "platform": null,
            "KUID": "i2216dbab50146c68fa5b602e7af210e"
        },
        "language": "js",
        "actions": [{
            "id": "ADD_SNIPPET_ide_onClick_fc73d3ae4b414c978825972c1d8ae2c7",
            "type": "ADD_SNIPPET",
            "codeSnippet": "kony.print(\"Deleted\");\n",
            "callbackType": null
        }]
    }
}