{
    "AS_Button_e7d19a95a28e4c96816e919d750b8402": {
        "id": "AS_Button_e7d19a95a28e4c96816e919d750b8402",
        "type": "ACTION_SEQUENCE",
        "name": "actionOnCancelInMap",
        "params": [{
            "datatype": "collection",
            "name": "eventobject"
        }],
        "contextObj": {
            "type": "forms",
            "platform": "",
            "KUID": "a2253cabb2f14a39a14731c9ca70cb2c"
        },
        "language": "js",
        "actions": [{
            "id": "ADD_SNIPPET__g0cd4e0b5e38469e85639d0f0e5ed7dc",
            "type": "ADD_SNIPPET",
            "codeSnippet": "kony.print(\"Deleted\");",
            "parentId": null,
            "callbackType": null
        }]
    }
}