{
    "AS_Image_c57541c64bd543998e01ebf4edd4b343": {
        "id": "AS_Image_c57541c64bd543998e01ebf4edd4b343",
        "type": "ACTION_SEQUENCE",
        "name": "ActiontoNavigatebackfromDocuments",
        "params": [{
            "datatype": "collection",
            "name": "eventobject"
        }, {
            "datatype": "string",
            "name": "x"
        }, {
            "datatype": "string",
            "name": "y"
        }],
        "contextObj": {
            "type": "forms",
            "platform": "",
            "KUID": "d242d2d8afb149ed92b8c43908766e71"
        },
        "language": "js",
        "actions": [{
            "id": "ADD_SNIPPET__fb481470d38040369991e9751089d227",
            "type": "ADD_SNIPPET",
            "codeSnippet": "kony.application.getPreviousForm().show();",
            "parentId": null,
            "callbackType": null
        }]
    }
}