{
    "AS_Segment_bc7930acce554190affe7d1afce42349": {
        "id": "AS_Segment_bc7930acce554190affe7d1afce42349",
        "type": "ACTION_SEQUENCE",
        "name": "actionOnGenderSeg",
        "params": [{
            "datatype": "collection",
            "name": "eventobject"
        }, {
            "datatype": "number",
            "name": "sectionNumber"
        }, {
            "datatype": "number",
            "name": "rowNumber"
        }],
        "language": "js",
        "actions": [{
            "id": "ADD_SNIPPET_ide_onRowClick_a7697ba95d2149c6b25def7a39d51941",
            "type": "ADD_SNIPPET",
            "codeSnippet": "kony.print(\"Deleted\");",
            "callbackType": null
        }]
    }
}