{
    "AS_Image_i3c506d07079493eb867ba81b11bd4b6": {
        "id": "AS_Image_i3c506d07079493eb867ba81b11bd4b6",
        "type": "ACTION_SEQUENCE",
        "name": "ActiontoUplaodDocumentforEmploymentProof",
        "params": [{
            "datatype": "collection",
            "name": "eventobject"
        }, {
            "datatype": "string",
            "name": "x"
        }, {
            "datatype": "string",
            "name": "y"
        }],
        "contextObj": {
            "type": "forms",
            "platform": "",
            "KUID": "d242d2d8afb149ed92b8c43908766e71"
        },
        "language": "js",
        "actions": [{
            "id": "ADD_SNIPPET__a1d06280144a4dd19dde4a4d145a2404",
            "type": "ADD_SNIPPET",
            "codeSnippet": "kony.print(\"Deleted\");",
            "parentId": null,
            "callbackType": null
        }]
    }
}