{
    "AS_Button_2d26ef7e9f0e43a19a1062d4232241cd": {
        "id": "AS_Button_2d26ef7e9f0e43a19a1062d4232241cd",
        "type": "ACTION_SEQUENCE",
        "name": "ActionManageCardsPinChange",
        "params": [{
            "datatype": "collection",
            "name": "eventobject"
        }],
        "contextObj": {
            "name": "frmManageCardsKA",
            "type": "forms",
            "platform": "",
            "KUID": "75db60b6b4944b7faf9c556f4dbcaf8d"
        },
        "language": "js",
        "actions": [{
            "id": "ADD_SNIPPET__6ba08ee1dae549639f392fb5625aa0c9",
            "type": "ADD_SNIPPET",
            "codeSnippet": "cardManagementOperations(\"changePin\");",
            "parentId": null,
            "callbackType": null
        }]
    }
}