{
    "AS_FlexContainer_fba54a2799bd4dd29921ba3ca12db86a": {
        "id": "AS_FlexContainer_fba54a2799bd4dd29921ba3ca12db86a",
        "type": "ACTION_SEQUENCE",
        "name": "actiononTouchEndEyeicon",
        "params": [{
            "datatype": "collection",
            "name": "eventobject"
        }, {
            "datatype": "string",
            "name": "x"
        }, {
            "datatype": "string",
            "name": "y"
        }],
        "contextObj": {
            "name": "frmCreateCredentials",
            "type": "forms",
            "platform": "",
            "KUID": "ec144124e44d4336b9c86f2ab49591df"
        },
        "language": "js",
        "actions": [{
            "id": "ADD_SNIPPET__f6caf3ad486440c297cdf1cdb436b1e9",
            "type": "ADD_SNIPPET",
            "codeSnippet": "frmCreateCredentials.answerFieldPassword.secureTextEntry=true;",
            "parentId": null,
            "callbackType": null
        }]
    }
}