{
    "AS_Button_c1d22aa48a604ccca0a7af32ed10dbbd": {
        "id": "AS_Button_c1d22aa48a604ccca0a7af32ed10dbbd",
        "type": "ACTION_SEQUENCE",
        "name": "actionOnNUOPersonalInfoDOBContinue",
        "params": [{
            "datatype": "collection",
            "name": "eventobject"
        }],
        "contextObj": {
            "type": "forms",
            "platform": "",
            "KUID": "g01e44fc626946168f2084ad3d64d5ff"
        },
        "language": "js",
        "actions": [{
            "id": "ADD_SNIPPET__ded4ec4d4fc64d19a13a96ea3ce6fbfe",
            "type": "ADD_SNIPPET",
            "codeSnippet": "kony.print(\"Deleted\");",
            "parentId": null,
            "callbackType": null
        }]
    }
}