{
    "AS_Label_df431890dcf1494294aa4260cfb71b8d": {
        "id": "AS_Label_df431890dcf1494294aa4260cfb71b8d",
        "type": "ACTION_SEQUENCE",
        "name": "ActionAccNumShareIcon",
        "params": [{
            "datatype": "collection",
            "name": "eventobject"
        }, {
            "datatype": "string",
            "name": "x"
        }, {
            "datatype": "string",
            "name": "y"
        }],
        "contextObj": {
            "name": "frmAccountInfoKA",
            "type": "forms",
            "platform": "",
            "KUID": "b2f984d11c5244e6ae5f81fe393d837e"
        },
        "language": "js",
        "actions": [{
            "id": "ADD_SNIPPET__abda7efd3ed34f06b38491cb500d0666",
            "type": "ADD_SNIPPET",
            "codeSnippet": "var accNumValue = frmAccountInfoKA.CopyaccountNumberLabel036c71ac511b84d.text;\nif (accNumValue !== null && accNumValue !== \"\") {\n        //accNumValue = \"ACC: \" + accNumValue;\n               accNumValue = SHARELINKURL + \"?iban=&accno=\" + accNumValue;\n        bitShortenService(accNumValue);\n\n    }",
            "parentId": null,
            "callbackType": null
        }]
    }
}