{
    "AS_Button_2952e76a7f4f47dfa35dcf9d871e7089": {
        "id": "AS_Button_2952e76a7f4f47dfa35dcf9d871e7089",
        "type": "ACTION_SEQUENCE",
        "name": "ActionManageCardsCancle",
        "params": [{
            "datatype": "collection",
            "name": "eventobject"
        }],
        "contextObj": {
            "name": "frmManageCardsKA",
            "type": "forms",
            "platform": "",
            "KUID": "75db60b6b4944b7faf9c556f4dbcaf8d"
        },
        "language": "js",
        "actions": [{
            "id": "ADD_SNIPPET__d6f01847a0c7454692bf7aaa020ac804",
            "type": "ADD_SNIPPET",
            "codeSnippet": "cardManagementOperations(\"cancel\");",
            "parentId": null,
            "callbackType": null
        }]
    }
}