{
    "AS_Form_d315c6f94427443b9a95a8d6accc227f": {
        "id": "AS_Form_d315c6f94427443b9a95a8d6accc227f",
        "type": "ACTION_SEQUENCE",
        "name": "actionOnPostLoginAdPostshow",
        "params": [{
            "datatype": "collection",
            "name": "eventobject"
        }],
        "contextObj": {
            "name": "frmPostLoginAdvertisementKA",
            "type": "forms",
            "platform": "",
            "KUID": "a71da10c725748d8a1298eb522d627b9"
        },
        "language": "js",
        "actions": [{
            "id": "ADD_SNIPPET__d61b0c346b554f5cac83a6e4a25e8613",
            "type": "ADD_SNIPPET",
            "codeSnippet": "var postLoginVC = applicationManager.getpostLoginAdsViewController();\npostLoginVC.frmPostloginAdvertisementPostshow();\n",
            "parentId": null,
            "callbackType": null
        }]
    }
}