{
    "AS_Form_cd189df943fc4f2d9c2e6db44bcc9000": {
        "id": "AS_Form_cd189df943fc4f2d9c2e6db44bcc9000",
        "type": "ACTION_SEQUENCE",
        "name": "actionSignUpPhonePostShow",
        "params": [{
            "datatype": "collection",
            "name": "eventobject"
        }],
        "contextObj": {
            "type": "forms",
            "platform": "",
            "KUID": "df10c73727f6431c97b66d9fe3bb8549"
        },
        "language": "js",
        "actions": [{
            "id": "ADD_SNIPPET__gf65f7758a854a719986cd0e1d613c7b",
            "type": "ADD_SNIPPET",
            "codeSnippet": "kony.print(\"Deleted\");",
            "parentId": null,
            "callbackType": null
        }]
    }
}