{
    "AS_FlexContainer_fcde96bc37d64ea38e9e56b156f0edc7": {
        "id": "AS_FlexContainer_fcde96bc37d64ea38e9e56b156f0edc7",
        "type": "ACTION_SEQUENCE",
        "name": "actionOnMap",
        "params": [{
            "datatype": "collection",
            "name": "eventobject"
        }],
        "contextObj": {
            "type": "forms",
            "platform": "",
            "KUID": "a2253cabb2f14a39a14731c9ca70cb2c"
        },
        "language": "js",
        "actions": [{
            "id": "ADD_SNIPPET__e9a3fec07d8345ffb233c929bc64843b",
            "type": "ADD_SNIPPET",
            "codeSnippet": "kony.print(\"Deleted\");",
            "parentId": null,
            "callbackType": null
        }]
    }
}