{
    "AS_FlexContainer_i11171fdd0be44dcb1d6a1edf6b76ffc": {
        "id": "AS_FlexContainer_i11171fdd0be44dcb1d6a1edf6b76ffc",
        "type": "ACTION_SEQUENCE",
        "name": "actiononTouchStartEyeicon",
        "params": [{
            "datatype": "collection",
            "name": "eventobject"
        }, {
            "datatype": "string",
            "name": "x"
        }, {
            "datatype": "string",
            "name": "y"
        }],
        "contextObj": {
            "name": "frmCreateCredentials",
            "type": "forms",
            "platform": "",
            "KUID": "ec144124e44d4336b9c86f2ab49591df"
        },
        "language": "js",
        "actions": [{
            "id": "ADD_SNIPPET__f64a7b6f6e724887ad36d1c558c494b0",
            "type": "ADD_SNIPPET",
            "codeSnippet": "frmCreateCredentials.answerFieldPassword.secureTextEntry=false;",
            "parentId": null,
            "callbackType": null
        }]
    }
}