{
    "AS_Image_b4c1e67df6da4a83b3bf78949e3e8642": {
        "id": "AS_Image_b4c1e67df6da4a83b3bf78949e3e8642",
        "type": "ACTION_SEQUENCE",
        "name": "actionOnDownloadCompletePreLoginAdImg",
        "params": [{
            "datatype": "collection",
            "name": "eventobject"
        }, {
            "datatype": "string",
            "name": "imagesrc"
        }, {
            "datatype": "boolean",
            "name": "issuccess"
        }],
        "contextObj": {
            "name": "frmLoginKA",
            "type": "forms",
            "platform": "",
            "KUID": "7b1aa8fceb6b4070833e9eab879b0e5e"
        },
        "language": "js",
        "actions": [{
            "id": "ADD_SNIPPET__f3f39da3b8dd4e46a3559a55169fa578",
            "type": "ADD_SNIPPET",
            "codeSnippet": "if(issuccess)\n{\n //frmLoginKA.imgBannerPlaceholderKA.setVisibility(false);\n //frmLoginKA.imgBannerKA.setVisibility(true);  \n //frmLoginKA.bannerAd.skin = \"sknBannerflx\";\n //frmLoginKA.bannerAd.setEnabled(true);\n //frmLoginKA.bannerAd.forceLayout();\n KNYMetricsService.sendCustomMetrics(\"frmLoginKA\", {\"adID\":\"preLoginAdBanner\"});\n}\nelse\n{\n  //frmLoginKA.imgBannerPlaceholderKA.src = \"banner_ad_failed_placeholder.png\";\n}",
            "parentId": null,
            "callbackType": null
        }]
    }
}