{
    "AS_Form_i8af637d2efe4084b39f9a86fd5ec2eb": {
        "id": "AS_Form_i8af637d2efe4084b39f9a86fd5ec2eb",
        "type": "ACTION_SEQUENCE",
        "name": "actionOnDOBInit",
        "params": [{
            "datatype": "collection",
            "name": "eventobject"
        }],
        "contextObj": {
            "type": "forms",
            "platform": "",
            "KUID": "g01e44fc626946168f2084ad3d64d5ff"
        },
        "language": "js",
        "actions": [{
            "id": "ADD_SNIPPET__a71f0fb2c6204eb6a3481434782fabd0",
            "type": "ADD_SNIPPET",
            "codeSnippet": "kony.print(\"Deleted\");",
            "parentId": null,
            "callbackType": null
        }]
    }
}