{
    "AS_Button_d8ae087aa2f44a94aff6ace43c413a04": {
        "id": "AS_Button_d8ae087aa2f44a94aff6ace43c413a04",
        "type": "ACTION_SEQUENCE",
        "name": "actionOnClickOfFeatureKA",
        "params": [{
            "datatype": "collection",
            "name": "eventobject"
        }],
        "contextObj": {
            "name": "frmCheckingJoint",
            "type": "forms",
            "platform": "",
            "KUID": "b0246be9d9aa4f7a97eafdd44842ffb2"
        },
        "language": "js",
        "actions": [{
            "id": "ADD_SNIPPET__g4f04ce1377e454d8ca5e502aef6e551",
            "type": "ADD_SNIPPET",
            "codeSnippet": "frmCheckingJoint.btnFeaturesKA.skin = \"skntabSelected\";\nfrmCheckingJoint.btnChargesKA.skin = \"sknbtnbgf9f9f9B1pxe2e2e2\";\nfrmCheckingJoint.btnInfoKA.skin = \"sknbtnbgf9f9f9B1pxe2e2e2\";\nfrmCheckingJoint.tabDeselectedIndicator2KA.setVisibility(false);\nfrmCheckingJoint.tabDeselectedIndicator1KA.setVisibility(false);\nfrmCheckingJoint.tabSelectedIndicator.setVisibility(true);\nfrmCheckingJoint.RichTextInfoMain.setVisibility(true);\nfrmCheckingJoint.RichTextInfo1.setVisibility(false);\nfrmCheckingJoint.RichTextInfo2.setVisibility(false);",
            "parentId": null,
            "callbackType": null
        }]
    }
}