{
    "AS_TextField_h5997fcf60f44f3582eb5fdd9a591b58": {
        "id": "AS_TextField_h5997fcf60f44f3582eb5fdd9a591b58",
        "type": "ACTION_SEQUENCE",
        "name": "addnickname_ontouchend",
        "params": [{
            "datatype": "collection",
            "name": "eventobject"
        }, {
            "datatype": "string",
            "name": "x"
        }, {
            "datatype": "string",
            "name": "y"
        }],
        "contextObj": {
            "name": "frmJoMoPay",
            "type": "forms",
            "platform": "",
            "KUID": "d41a38dfc97d4e0a8f3b1db96d6a1ca0"
        },
        "language": "js",
        "actions": [{
            "id": "ADD_SNIPPET__b010622269004d8b90df3f8f6663a83c",
            "type": "ADD_SNIPPET",
            "codeSnippet": "animateLabel(\"UP\",\"lblAddNickName\",frmEditAccountSettings.txtAddNickName.text);",
            "parentId": null,
            "callbackType": null
        }]
    }
}