{
    "AS_TextField_ad7459f1814543e1bdaf62b5ac660924": {
        "id": "AS_TextField_ad7459f1814543e1bdaf62b5ac660924",
        "type": "ACTION_SEQUENCE",
        "name": "afwansearchfunctionold",
        "params": [{
            "datatype": "collection",
            "name": "eventobject"
        }, {
            "datatype": "string",
            "name": "changedtext"
        }],
        "contextObj": {
            "name": "frmJoMoPayLanding",
            "type": "forms",
            "platform": "",
            "KUID": "d298f6fe5af04a4dbf76c2b5625a9f8c"
        },
        "language": "js",
        "actions": [{
            "id": "ADD_SNIPPET__cb1be60ce1024f479d4c9612f86b13c9",
            "type": "ADD_SNIPPET",
            "codeSnippet": "if(frmJoMoPayLanding.txtSearch.text==\"\"||frmJoMoPayLanding.txtSearch.text==null)\n  {\n   flag=1;\n    kony.boj.JomopayLanding(flag,frmJoMoPayLanding.txtSearch.text);\n  }\nelse\n  {\nflag=2;\nkony.boj.JomopayLanding(flag,frmJoMoPayLanding.txtSearch.text);\n  }",
            "parentId": null,
            "callbackType": null
        }]
    }
}