{
    "AS_Button_88331045d7b84e8a8ddb2d8413e3967f": {
        "id": "AS_Button_88331045d7b84e8a8ddb2d8413e3967f",
        "type": "ACTION_SEQUENCE",
        "name": "androidBackButtonClick",
        "params": [{
            "datatype": "collection",
            "name": "eventobject"
        }],
        "language": "js",
        "actions": [{
            "id": "ADD_SNIPPET__e3d85b575b36437c8e8cb43cb1ef9db6",
            "type": "ADD_SNIPPET",
            "codeSnippet": "if(frmUserSettingsMyProfileKA.lblEditProfile.text == \"Save\"){\n\tfrmUserSettingsMyProfileKA.flxProfileEdit.isVisible = false;\n\tfrmUserSettingsMyProfileKA.mainContent.isVisible = true;\n    frmUserSettingsMyProfileKA.lblEditProfile.text = \"Edit\";\n}else{\n\tfrmSettingsKA.show();\n}",
            "parentId": null,
            "callbackType": null
        }]
    }
}