{
    "AS_TextField_d748b1bee4474d59b1a1ad30befe143c": {
        "id": "AS_TextField_d748b1bee4474d59b1a1ad30befe143c",
        "type": "ACTION_SEQUENCE",
        "name": "animateRegisterPasswordLabelUp",
        "params": [{
            "datatype": "collection",
            "name": "eventobject"
        }, {
            "datatype": "string",
            "name": "x"
        }, {
            "datatype": "string",
            "name": "y"
        }],
        "contextObj": {
            "name": "frmCongratulations",
            "type": "forms",
            "platform": "",
            "KUID": "h0d76ad922194a6b81763ba19df1183c"
        },
        "language": "js",
        "actions": [{
            "id": "ADD_SNIPPET__e01092acce464db8a1c0d3f900159fe7",
            "type": "ADD_SNIPPET",
            "codeSnippet": "animateLabel(\"UP\", \"lblPassword\", frmEnrolluserLandingKA.tbxPasswordKA.text);\nfrmEnrolluserLandingKA.flxUnderlinePassword.skin = \"sknFlxBlueLine\";",
            "parentId": null,
            "callbackType": null
        }]
    }
}