{
    "AS_TextField_e15c7c7bd578455698e45647494ae953": {
        "id": "AS_TextField_e15c7c7bd578455698e45647494ae953",
        "type": "ACTION_SEQUENCE",
        "name": "animateRegisterUsernameLabelDown",
        "params": [{
            "datatype": "collection",
            "name": "eventobject"
        }, {
            "datatype": "string",
            "name": "changedtext"
        }],
        "language": "js",
        "actions": [{
            "id": "ADD_SNIPPET_ide_onDone_aa58d5763d5d47cf95753e96373f142b",
            "type": "ADD_SNIPPET",
            "codeSnippet": "animateLabel(\"DOWN\", \"lblUsername\", frmEnrolluserLandingKA.tbxUsernameKA.text);\nanimateLabel(\"UP\", \"lblPassword\", frmEnrolluserLandingKA.tbxPasswordKA.text);\nfrmEnrolluserLandingKA.flxUsernameValidation.isVisible = false;\nif(gblFromModule !== \"RegisterUser\" && gblFromModule !== \"ChangePassword\" && gblFromModule !== \"ChangeUsername\"){\n    ShowLoadingScreen();\n  callSave();\n}",
            "callbackType": null
        }]
    }
}