{
    "AS_Button_2cf7afdc21c34c55874f318c28cd84c4": {
        "id": "AS_Button_2cf7afdc21c34c55874f318c28cd84c4",
        "type": "ACTION_SEQUENCE",
        "params": [{
            "datatype": "collection",
            "name": "eventobject"
        }],
        "language": "js",
        "actions": [{
            "id": "ADD_SNIPPET__81655e2598c44c4888f07caee86aaad7",
            "type": "ADD_SNIPPET",
            "codeSnippet": "navigateToSearchOptions();",
            "parentId": null,
            "callbackType": null
        }]
    }
}