{
    "AS_Button_9e50cd3af77b4db4a9da24ef4a7c782a": {
        "id": "AS_Button_9e50cd3af77b4db4a9da24ef4a7c782a",
        "type": "ACTION_SEQUENCE",
        "params": [{
            "datatype": "collection",
            "name": "eventobject"
        }],
        "language": "js",
        "actions": [{
            "id": "ADD_SNIPPET__ab3e935b52324b30bb091e6cecbe16fa",
            "type": "ADD_SNIPPET",
            "codeSnippet": "updateFlags(\"accountPreviewEnabledFlag\",false);\nshowFormOrderList();",
            "parentId": null,
            "callbackType": null
        }]
    }
}