{
    "AS_Button_fd728146bf1047818ea237fa00187c67": {
        "id": "AS_Button_fd728146bf1047818ea237fa00187c67",
        "type": "ACTION_SEQUENCE",
        "name": "AS_Button_onClickConfirmOpenDeposite",
        "params": [{
            "datatype": "collection",
            "name": "eventobject"
        }],
        "contextObj": {
            "type": "forms",
            "platform": "",
            "KUID": "fec6fddbcf8543f2b30114c87e1a7e99"
        },
        "language": "js",
        "actions": [{
            "id": "ADD_SNIPPET__i88152cd561a46eba34bd26701c1838d",
            "type": "ADD_SNIPPET",
            "codeSnippet": "serv_createDeposite();",
            "parentId": null,
            "callbackType": null
        }]
    }
}