{
    "AS_Button_ebc84f2a29e0468bae5a79580ca5f6e6": {
        "id": "AS_Button_ebc84f2a29e0468bae5a79580ca5f6e6",
        "type": "ACTION_SEQUENCE",
        "name": "AS_Button_OnClickSelectAccountEPSScreen",
        "params": [{
            "datatype": "collection",
            "name": "eventobject"
        }],
        "language": "js",
        "actions": [{
            "id": "ADD_SNIPPET_ide_onClick_e07f696f00b346699cbc11e81af87b9f",
            "type": "ADD_SNIPPET",
            "codeSnippet": "SetupAccountsFrom(\"CLIQ\");\n//Mai\nvalidateLblNext();\n\n\n",
            "callbackType": null
        }]
    }
}