{
    "AS_Button_c5ad31cef3c74b7fb0242e9ef8d6a744": {
        "id": "AS_Button_c5ad31cef3c74b7fb0242e9ef8d6a744",
        "type": "ACTION_SEQUENCE",
        "params": [{
            "datatype": "collection",
            "name": "eventobject"
        }],
        "contextObj": {
            "name": "frmConfirmTransferKA",
            "type": "forms",
            "platform": "",
            "KUID": "79e9f0ae27394db6b3b371dc6ca4520b"
        },
        "language": "js",
        "actions": [{
            "id": "ADD_SNIPPET__7f3ba92b47564f0c9df32c20c65c0cd2",
            "type": "ADD_SNIPPET",
            "codeSnippet": "onConfirmFormEditButtonClick();\n//getTransferPayLandingForm(\"frmNewTransferKA\");\n//frmNewTransferKA.transferPayTitleLabel.text=\"Edit Transfer\";\n//var INSTANCE = kony.sdk.mvvm.KonyApplicationContext.getAppInstance();\n//var listController = INSTANCE.getFormController(\"frmNewTransferKA\");\n//var navObject = new kony.sdk.mvvm.NavigationObject();\n//navObject.setCustomInfo(\"showState\",\"EditLanding\");\n//navObject.setRequestOptions(\"segInternalFromAccountsKA\",{\"headers\":{\"session_token\":kony.retailBanking.globalData.session_token}});\n//listController.performAction(\"navigateTo\",[\"frmNewTransferKA\",navObject]); ",
            "parentId": null,
            "callbackType": null
        }]
    }
}