{
    "AS_Button_e2519f0646ed43f9ab7d80ea0b2ed1d7": {
        "id": "AS_Button_e2519f0646ed43f9ab7d80ea0b2ed1d7",
        "type": "ACTION_SEQUENCE",
        "params": [{
            "datatype": "collection",
            "name": "eventobject"
        }],
        "contextObj": {
            "name": "frmAccountDetailKA",
            "type": "forms",
            "platform": "",
            "KUID": "5ed703cad63c441882fc4a36f5ea0c28"
        },
        "language": "js",
        "actions": [{
            "id": "ADD_SNIPPET__e4075ac05d7641c3ba7798a805a04f1d",
            "type": "ADD_SNIPPET",
            "codeSnippet": "kony.print(\"asdasd\");",
            "parentId": null,
            "callbackType": null
        }]
    }
}