{
    "AS_Button_a413a573416e41da964af1b4d54bb0a5": {
        "id": "AS_Button_a413a573416e41da964af1b4d54bb0a5",
        "type": "ACTION_SEQUENCE",
        "name": "AS_Button_SaveAccountsReOrder",
        "params": [{
            "datatype": "collection",
            "name": "eventobject"
        }],
        "contextObj": {
            "name": "frmAccountsReorderKA",
            "type": "forms",
            "platform": null,
            "KUID": "faf034034ee04f5ba0dd968734633b01"
        },
        "language": "js",
        "actions": [{
            "id": "ADD_SNIPPET__je1eaad66586468bb29bef6827d411d6",
            "type": "ADD_SNIPPET",
            "codeSnippet": "//frmSettingsKA.show();\nif(frmAccountsReorderKA.lblSettingsTitle.text === geti18nkey(\"i18n.appsettings.reordercardlist\")){\ncallSetCardPreferences();\n}else{\n  callSetQucikAccessList();\n}",
            "parentId": null,
            "callbackType": null
        }]
    }
}