{
    "AS_Button_gc886c653a2f4a7683933a4382638634": {
        "id": "AS_Button_gc886c653a2f4a7683933a4382638634",
        "type": "ACTION_SEQUENCE",
        "params": [{
            "datatype": "collection",
            "name": "eventobject"
        }],
        "language": "js",
        "actions": [{
            "id": "ADD_SNIPPET_ide_onClick_c4dcbfa479da4c4eb9e8dc8c2491b33e",
            "type": "ADD_SNIPPET",
            "codeSnippet": "switchToFAQDetailsTab();",
            "callbackType": null
        }]
    }
}