{
    "AS_Button_dd8d8cf821b440f89dd6093da277b869": {
        "id": "AS_Button_dd8d8cf821b440f89dd6093da277b869",
        "type": "ACTION_SEQUENCE",
        "params": [{
            "datatype": "collection",
            "name": "eventobject"
        }],
        "contextObj": {
            "name": "frmAccountDetailKA",
            "type": "forms",
            "platform": "",
            "KUID": "5ed703cad63c441882fc4a36f5ea0c28"
        },
        "language": "js",
        "actions": [{
            "id": "ADD_SNIPPET__edd935ba89c2401687e1f40b26a07e1f",
            "type": "ADD_SNIPPET",
            "codeSnippet": "kony.print(\"asdasda\");",
            "parentId": null,
            "callbackType": null
        }]
    }
}