{
    "AS_Button_f69da649ffe04c7f8255796fde62af00": {
        "id": "AS_Button_f69da649ffe04c7f8255796fde62af00",
        "type": "ACTION_SEQUENCE",
        "params": [{
            "datatype": "collection",
            "name": "eventobject"
        }],
        "language": "js",
        "actions": [{
            "id": "ADD_SNIPPET_ide_onClick_cab4ed6a2dec4e7da803f21c67bef282",
            "type": "ADD_SNIPPET",
            "codeSnippet": "       var INSTANCE = kony.sdk.mvvm.KonyApplicationContext.getAppInstance();\n        var listController = INSTANCE.getFormController(\"frmAddNewPayeeKA\");\n        var navigationObject = new kony.sdk.mvvm.NavigationObject();\n        var datamodelflxAddressKA = new kony.sdk.mvvm.DataModel();\n        navigationObject.setDataModel(null,kony.sdk.mvvm.OperationType.ADD, \"form\");\n        navigationObject.setRequestOptions(\"form\",{\"headers\":{\"session_token\":kony.retailBanking.globalData.session_token}}); \n        listController.performAction(\"navigateTo\",[\"frmAddNewPayeeKA\",navigationObject]);\n",
            "callbackType": null
        }]
    }
}