{
    "AS_Button_g7aedd1204e349f7a17ffeb085c300c5": {
        "id": "AS_Button_g7aedd1204e349f7a17ffeb085c300c5",
        "type": "ACTION_SEQUENCE",
        "params": [{
            "datatype": "collection",
            "name": "eventobject"
        }],
        "contextObj": {
            "name": "frmNewBillDetails",
            "type": "forms",
            "platform": null,
            "KUID": "c2132c3b91ec4677ab952b729de9fc0e"
        },
        "language": "js",
        "actions": [{
            "id": "ADD_SNIPPET_ide_onClick_f315b96d368e4eee84f59f782d3d403f",
            "type": "ADD_SNIPPET",
            "codeSnippet": "frmNewBillKA.tolblAccountNumberKA.text = \"\";\nsetContainerState(frmNewBillKA,\"to\",\"ANIMATION_EXPAND\", toCardHeightPayBill);\n",
            "callbackType": null
        }]
    }
}