{
    "AS_Button_b18a77bfb2c44f409ec21d31793ca069": {
        "id": "AS_Button_b18a77bfb2c44f409ec21d31793ca069",
        "type": "ACTION_SEQUENCE",
        "params": [{
            "datatype": "collection",
            "name": "eventobject"
        }],
        "language": "js",
        "actions": [{
            "id": "NAVIGATE_TO_FORM___5000541713db40348586a426ca1564bd",
            "type": "NAVIGATE_TO_FORM",
            "formId": "frmMoreLandingKA",
            "formKUID": "f90cf53e47ae407c83e2e30720fff3da",
            "mappings": {},
            "mappingsOrder": [],
            "parentId": "",
            "callbackType": null,
            "enableMappingEditor": true,
            "package": "",
            "navigationObj": "{\n    \"_meta_\": {\n        \"eventName\": \"onClick\",\n        \"widgetId\": \"androidBackButton\"\n    }\n}",
            "isCustomInput": false
        }]
    }
}