{
    "AS_Button_dd28955662174f9cae3b939bad00b977": {
        "id": "AS_Button_dd28955662174f9cae3b939bad00b977",
        "type": "ACTION_SEQUENCE",
        "params": [{
            "datatype": "collection",
            "name": "eventobject"
        }],
        "contextObj": {
            "type": "forms",
            "platform": "",
            "KUID": "c61ad12e0ab14a518f43b91ce1670e1d"
        },
        "language": "js",
        "actions": [{
            "id": "ADD_SNIPPET__d2126b9642074feaae4fb161080b7e37",
            "type": "ADD_SNIPPET",
            "codeSnippet": "kony.print(\"deleted\");",
            "parentId": null,
            "callbackType": null
        }]
    }
}