{
    "AS_Button_c3d48ff48f3c4f0f8b4169a559e99e04": {
        "id": "AS_Button_c3d48ff48f3c4f0f8b4169a559e99e04",
        "type": "ACTION_SEQUENCE",
        "params": [{
            "datatype": "collection",
            "name": "eventobject"
        }],
        "language": "js",
        "actions": [{
            "id": "ADD_SNIPPET_ide_onClick_a1db2371366f40c98ac8a648b7852945",
            "type": "ADD_SNIPPET",
            "codeSnippet": "funInterestPayable(\"Monthly\");",
            "callbackType": null
        }]
    }
}