{
    "AS_Button_f40b64a0c1504e868723924df6910de1": {
        "id": "AS_Button_f40b64a0c1504e868723924df6910de1",
        "type": "ACTION_SEQUENCE",
        "params": [{
            "datatype": "collection",
            "name": "eventobject"
        }],
        "contextObj": {
            "type": "forms",
            "platform": null,
            "KUID": "da381a7fd8274d79a3082364ccdc2409"
        },
        "language": "js",
        "actions": [{
            "id": "ADD_SNIPPET_ide_onClick_c5663b825a3e496c9188ed21256ce38c",
            "type": "ADD_SNIPPET",
            "codeSnippet": "alert(\"Card is deactivated\");",
            "callbackType": null
        }, {
            "id": "NAVIGATE_TO_FORM__ide_onClick_ccf07409718d4565983efb40fd7d3ac7",
            "type": "NAVIGATE_TO_FORM",
            "formId": "frmManageCardsKA",
            "formKUID": "75db60b6b4944b7faf9c556f4dbcaf8d",
            "mappings": {},
            "mappingsOrder": [],
            "parentId": "",
            "callbackType": null,
            "enableMappingEditor": true,
            "package": "",
            "navigationObj": "{\n    \"_meta_\": {\n        \"eventName\": \"\",\n        \"widgetId\": \"\"\n    }\n}",
            "isCustomInput": false
        }]
    }
}