{
    "AS_Button_de71918370534d6d8e35f6734aa1cb1f": {
        "id": "AS_Button_de71918370534d6d8e35f6734aa1cb1f",
        "type": "ACTION_SEQUENCE",
        "name": "AS_Button_onClickFifteenAmount",
        "params": [{
            "datatype": "collection",
            "name": "eventobject"
        }],
        "contextObj": {
            "name": "frmCardlessTransaction",
            "type": "forms",
            "platform": "",
            "KUID": "b7e7974060664c0093c575d8bba1e829"
        },
        "language": "js",
        "actions": [{
            "id": "ADD_SNIPPET__h83cf6787eae41678ba4f089f7e69253",
            "type": "ADD_SNIPPET",
            "codeSnippet": "getAmountFunction(\"fifteen\");",
            "parentId": null,
            "callbackType": null
        }]
    }
}