{
    "AS_Button_82c784ecc1a747fa8b2a5134e680f482": {
        "id": "AS_Button_82c784ecc1a747fa8b2a5134e680f482",
        "type": "ACTION_SEQUENCE",
        "params": [{
            "datatype": "collection",
            "name": "eventobject"
        }],
        "language": "js",
        "actions": [{
            "id": "NAVIGATE_TO_FORM__onClick_9e525cb3059e461db9aedae87a95f224",
            "type": "NAVIGATE_TO_FORM",
            "formKUID": "3ef26f9acd5b475cb1fdad0f87db5781",
            "mappings": {},
            "mappingsOrder": [],
            "parentId": "",
            "callbackType": null,
            "enableMappingEditor": true,
            "navigationObj": "{\n    \"_meta_\": {\n        \"eventName\": \"\",\n        \"widgetId\": \"\"\n    }\n}",
            "isCustomInput": false
        }]
    }
}