{
    "AS_Button_f3ccdc83ba3348538172008c901d48aa": {
        "id": "AS_Button_f3ccdc83ba3348538172008c901d48aa",
        "type": "ACTION_SEQUENCE",
        "name": "AS_Button_onclick_jomopayBeneficiary",
        "params": [{
            "datatype": "collection",
            "name": "eventobject"
        }],
        "language": "js",
        "actions": [{
            "id": "ADD_SNIPPET_ide_onClick_a0f93ecf4b6d446ba7931a1d4a5eb08f",
            "type": "ADD_SNIPPET",
            "codeSnippet": "frmJoMoPayLanding.btnBene.skin = \"slButtonWhiteTab\";\nfrmJoMoPayLanding.btnTrans.skin = \"slButtonWhiteTabDisabled\";\nshowJomopayTransBene();",
            "callbackType": null
        }]
    }
}