{
    "AS_Button_d9abc1e180684e2bab54700f33c8bbd7": {
        "id": "AS_Button_d9abc1e180684e2bab54700f33c8bbd7",
        "type": "ACTION_SEQUENCE",
        "params": [{
            "datatype": "collection",
            "name": "eventobject"
        }],
        "contextObj": {
            "name": "frmTermsAndConditionsKA",
            "type": "forms",
            "platform": "",
            "KUID": "100aadb985c846ec80ffda1f762bb7e8"
        },
        "language": "js",
        "actions": [{
            "id": "ADD_SNIPPET__34c9a3537f6c46e194b0f090e8924819",
            "type": "ADD_SNIPPET",
            "codeSnippet": "/*gblfrmName = \"\";\nshowFormOrderList();*/ //poojitha\nkony.print(\"Hope someone will write something amazing here so app won't crash\");",
            "parentId": null,
            "callbackType": null
        }]
    }
}