{
    "AS_Button_ad09901692de45bba0e8ddbcb786b99c": {
        "id": "AS_Button_ad09901692de45bba0e8ddbcb786b99c",
        "type": "ACTION_SEQUENCE",
        "params": [{
            "datatype": "collection",
            "name": "eventobject"
        }],
        "contextObj": {
            "name": "frmAccountDetailKA",
            "type": "forms",
            "platform": "",
            "KUID": "5ed703cad63c441882fc4a36f5ea0c28"
        },
        "language": "js",
        "actions": [{
            "id": "ADD_SNIPPET__g8555f7de30140728e39895137062352",
            "type": "ADD_SNIPPET",
            "codeSnippet": "kony.print(\"asdasd\");",
            "parentId": null,
            "callbackType": null
        }]
    }
}