{
    "AS_Button_c498a626f381434cbf1fb3da2fa15db1": {
        "id": "AS_Button_c498a626f381434cbf1fb3da2fa15db1",
        "type": "ACTION_SEQUENCE",
        "params": [{
            "datatype": "collection",
            "name": "eventobject"
        }],
        "language": "js",
        "actions": [{
            "id": "ADD_SNIPPET_ide_onClick_d236049943494ba7b2e82cff31e849ea",
            "type": "ADD_SNIPPET",
            "codeSnippet": "frmInformationKA.flxFAQ.setVisibility(true);\nfrmInformationKA.flxFAQSearch.setVisibility(false);\nfrmInformationKA.searchField.text=\"\";\nswitchToNewsDetailsTab();\ncloseAll();\nfromForm = \"\";",
            "callbackType": null
        }]
    }
}