{
    "AS_Button_f03ceb935fc6495285cc2c11dfb9ced3": {
        "id": "AS_Button_f03ceb935fc6495285cc2c11dfb9ced3",
        "type": "ACTION_SEQUENCE",
        "params": [{
            "datatype": "collection",
            "name": "eventobject"
        }],
        "language": "js",
        "actions": [{
            "id": "ADD_SNIPPET_ide_onClick_d0690e36b4564cacb5fe4cd0f938e8cc",
            "type": "ADD_SNIPPET",
            "codeSnippet": "frmInformationKA.show();",
            "callbackType": null
        }]
    }
}