{
    "AS_Button_f4e2edffcb224b01ba9a256647cd6e77": {
        "id": "AS_Button_f4e2edffcb224b01ba9a256647cd6e77",
        "type": "ACTION_SEQUENCE",
        "params": [{
            "datatype": "collection",
            "name": "eventobject"
        }],
        "contextObj": {
            "name": "frmPinEntrySuccess",
            "type": "forms",
            "platform": null,
            "KUID": "g8f36f27dc5f4576a92fbbc11abfc6bd"
        },
        "language": "js",
        "actions": [{
            "id": "ADD_SNIPPET__d7202ab36a014367a4ecf94399da4df0",
            "type": "ADD_SNIPPET",
            "codeSnippet": "kony.print(\"Deleted\");",
            "parentId": null,
            "callbackType": null
        }]
    }
}