{
    "AS_Button_gfb912927a374c50bb5cbf27c17ab23e": {
        "id": "AS_Button_gfb912927a374c50bb5cbf27c17ab23e",
        "type": "ACTION_SEQUENCE",
        "name": "AS_Button_QuickPreviewSettingsToSettings",
        "params": [{
            "datatype": "collection",
            "name": "eventobject"
        }],
        "contextObj": {
            "name": "frmAuthorizationAlternatives",
            "type": "forms",
            "platform": "",
            "KUID": "d410b4cb8325465eb5a9cb0f8e472aec"
        },
        "language": "js",
        "actions": [{
            "id": "ADD_SNIPPET__g6680196e0c04d90b3bd985a4b14250b",
            "type": "ADD_SNIPPET",
            "codeSnippet": "frmSettingsKA.show();",
            "parentId": null,
            "callbackType": null
        }]
    }
}