{
    "AS_Button_835c3f2362ef4449b24f24e27dcf4f1f": {
        "id": "AS_Button_835c3f2362ef4449b24f24e27dcf4f1f",
        "type": "ACTION_SEQUENCE",
        "params": [{
            "datatype": "collection",
            "name": "eventobject"
        }],
        "language": "js",
        "actions": [{
            "id": "NAVIGATE_TO_FORM___a46aa97216c147a58a59737bada4984f",
            "type": "NAVIGATE_TO_FORM",
            "formId": "frmMoreLandingKA",
            "formKUID": "f90cf53e47ae407c83e2e30720fff3da",
            "mappings": {},
            "mappingsOrder": [],
            "parentId": "",
            "callbackType": null,
            "enableMappingEditor": true,
            "package": "",
            "navigationObj": "{\n    \"_meta_\": {\n        \"eventName\": \"onClick\",\n        \"widgetId\": \"backButton\"\n    }\n}",
            "isCustomInput": false
        }]
    }
}