{
    "AS_Button_e2bb0239e24e4a23bf39beee8f4a223b": {
        "id": "AS_Button_e2bb0239e24e4a23bf39beee8f4a223b",
        "type": "ACTION_SEQUENCE",
        "params": [{
            "datatype": "collection",
            "name": "eventobject"
        }],
        "contextObj": {
            "type": "forms",
            "platform": "",
            "KUID": "a7af44ce35e44a7ea6c9516ec3bff4eb"
        },
        "language": "js",
        "actions": [{
            "id": "ADD_SNIPPET__e0b4da68cb7b44cf8a10dcadda639828",
            "type": "ADD_SNIPPET",
            "codeSnippet": "SetupAccountsFrom(\"IPS\");",
            "parentId": null,
            "callbackType": null
        }]
    }
}