{
    "AS_Button_i09db81f43b045b4a12f24c68756b53a": {
        "id": "AS_Button_i09db81f43b045b4a12f24c68756b53a",
        "type": "ACTION_SEQUENCE",
        "params": [{
            "datatype": "collection",
            "name": "eventobject"
        }],
        "contextObj": {
            "name": "frmEPS",
            "type": "forms",
            "platform": "",
            "KUID": "c49bbb3175be499d86d933cee301b3c4"
        },
        "language": "js",
        "actions": []
    }
}