{
    "AS_Button_dcfa7ebc23db432baf9371b8b0c769c8": {
        "id": "AS_Button_dcfa7ebc23db432baf9371b8b0c769c8",
        "type": "ACTION_SEQUENCE",
        "params": [{
            "datatype": "collection",
            "name": "eventobject"
        }],
        "language": "js",
        "actions": [{
            "id": "ADD_SNIPPET_ide_onClick_d8fd0e51306a445facda924e7def4ff0",
            "type": "ADD_SNIPPET",
            "codeSnippet": "kony.boj.JomoPaytransferType(inputObj1,flagtransfertype);\n//frmJoMoPay.flxPopupOuter.setVisibility(true);",
            "callbackType": null
        }]
    }
}