{
    "AS_Button_a05545a85af8487780ae0ef2d020a2c7": {
        "id": "AS_Button_a05545a85af8487780ae0ef2d020a2c7",
        "type": "ACTION_SEQUENCE",
        "params": [{
            "datatype": "collection",
            "name": "eventobject"
        }],
        "language": "js",
        "actions": [{
            "id": "ADD_SNIPPET_ide_onClick_ca39c152e4a54814ac03b321641a44b8",
            "type": "ADD_SNIPPET",
            "codeSnippet": "if(frmUserSettingsSIRILIMIT.txtEmail1.text!== \"\" && frmUserSettingsSIRILIMIT.txtEmail1.text !== null){\n  setSiriLimitcall(frmUserSettingsSIRILIMIT.txtEmail1.text);\n}else{\n  \n    customAlertPopup( geti18Value(\"i18n.common.alert\"),\n                     geti18Value(\"i18n.Siri.Limtiinvaliderror\"),\n                     popupCommonAlertDimiss, \"\");\n}",
            "callbackType": null
        }]
    }
}