{
    "AS_Button_ib8a065f7803452db965c573a2246b84": {
        "id": "AS_Button_ib8a065f7803452db965c573a2246b84",
        "type": "ACTION_SEQUENCE",
        "params": [{
            "datatype": "collection",
            "name": "eventobject"
        }],
        "language": "js",
        "actions": [{
            "id": "ADD_SNIPPET_ide_onClick_e01c0433e7644ab5a5ccf0dc43d2cf2a",
            "type": "ADD_SNIPPET",
            "codeSnippet": "kony.boj.addBeneVar.selectedType = \"INT\";\nkony.boj.setBeneData(\"ITB\");\nfrmShowAllBeneficiary.btnAll.skin = \"slButtonWhiteTabDisabled\";\nfrmShowAllBeneficiary.btnBOJ.skin = \"slButtonWhiteTabDisabled\";\nfrmShowAllBeneficiary.btnDomestic.skin = \"slButtonWhiteTabDisabled\";\nfrmShowAllBeneficiary.btnInternational.skin = \"slButtonWhiteTab\";",
            "callbackType": null
        }]
    }
}