{
    "AS_Button_c75558c8b42447bd8d969594b7280af5": {
        "id": "AS_Button_c75558c8b42447bd8d969594b7280af5",
        "type": "ACTION_SEQUENCE",
        "params": [{
            "datatype": "collection",
            "name": "eventobject"
        }],
        "language": "js",
        "actions": [{
            "id": "ADD_SNIPPET_ide_onClick_ce84ff9c16ad495d81f173a8af7e7ceb",
            "type": "ADD_SNIPPET",
            "codeSnippet": "//hassan\nonChangingradioBtnNewBillKA(frmPrePaidPayeeDetailsKA.btnBillsPayAccounts,frmPrePaidPayeeDetailsKA.lblBillsPayAccounts.text);",
            "callbackType": null
        }]
    }
}