{
    "AS_Button_ba8c464b75b243589f143b62870823bf": {
        "id": "AS_Button_ba8c464b75b243589f143b62870823bf",
        "type": "ACTION_SEQUENCE",
        "params": [{
            "datatype": "collection",
            "name": "eventobject"
        }],
        "contextObj": {
            "name": "frmFacialAuthEnable",
            "type": "forms",
            "platform": "",
            "KUID": "f74e8c1156354b3cb1d8b5f6c757583f"
        },
        "language": "js",
        "actions": [{
            "id": "ADD_SNIPPET__a860e14c354d41f984f3ab6b0c93e2a6",
            "type": "ADD_SNIPPET",
            "codeSnippet": "var pinPreviousForm = kony.application.getPreviousForm();\nupdateFlags(\"isFacialAuthEnabledFlag\",false);\nupdateFlags(\"isFaceEnrolled\",false);\nfrmLoginAuthSuccessKA.show();",
            "parentId": null,
            "callbackType": null
        }]
    }
}