{
    "AS_Button_c4427b68dee74ca6acda42f8bc798d89": {
        "id": "AS_Button_c4427b68dee74ca6acda42f8bc798d89",
        "type": "ACTION_SEQUENCE",
        "name": "AS_Button_navigateToPaymentDashboard",
        "params": [{
            "datatype": "collection",
            "name": "eventobject"
        }],
        "contextObj": {
            "name": "frmSettingsKA",
            "type": "forms",
            "platform": "",
            "KUID": "hb0fb66c0c224ed284a1334d78669bfa"
        },
        "language": "js",
        "actions": [{
            "id": "ADD_SNIPPET__e489ae0cbfcf4e1fb698961060990c22",
            "type": "ADD_SNIPPET",
            "codeSnippet": "backfromSettings();",
            "parentId": null,
            "callbackType": null
        }]
    }
}