{
    "AS_Button_bb6320ffbdbf4cbebbacf54edd90ad43": {
        "id": "AS_Button_bb6320ffbdbf4cbebbacf54edd90ad43",
        "type": "ACTION_SEQUENCE",
        "name": "AS_Button_onClickTener6Months",
        "params": [{
            "datatype": "collection",
            "name": "eventobject"
        }],
        "contextObj": {
            "type": "forms",
            "platform": "",
            "KUID": "fec6fddbcf8543f2b30114c87e1a7e99"
        },
        "language": "js",
        "actions": [{
            "id": "ADD_SNIPPET__fbb2c115448346a09d20c8ee856eee4f",
            "type": "ADD_SNIPPET",
            "codeSnippet": "funSelectTener(\"6Months\");",
            "parentId": null,
            "callbackType": null
        }]
    }
}