{
    "AS_Button_f9f1d3fe63714908b6c64bde070faabc": {
        "id": "AS_Button_f9f1d3fe63714908b6c64bde070faabc",
        "type": "ACTION_SEQUENCE",
        "params": [{
            "datatype": "collection",
            "name": "eventobject"
        }],
        "language": "js",
        "actions": [{
            "id": "ADD_SNIPPET_ide_onClick_a35471c67f5a4a1c965b7d2c197391d9",
            "type": "ADD_SNIPPET",
            "codeSnippet": "if(frmNewSubAccountConfirm.lblCheck1.text === \"p\"){\n  callConfirmCreateNewSubAccount();\n}else{\n      customAlertPopup(geti18Value(\"i18n.maps.Info\"), geti18Value(\"i18n.common.pleaseSelectCheckBox\"),popupCommonAlertDimiss, \"\");\n}\n\n",
            "callbackType": null
        }]
    }
}