{
    "AS_Button_3c136696e8e74a3ebfae050310848b72": {
        "id": "AS_Button_3c136696e8e74a3ebfae050310848b72",
        "type": "ACTION_SEQUENCE",
        "params": [{
            "datatype": "collection",
            "name": "eventobject"
        }],
        "contextObj": {
            "name": "frmAccountInfoKA",
            "type": "forms",
            "platform": "",
            "KUID": "b2f984d11c5244e6ae5f81fe393d837e"
        },
        "language": "js",
        "actions": [{
            "id": "ADD_SNIPPET__65cbb905175c4763ae3f1dd582948c89",
            "type": "ADD_SNIPPET",
            "codeSnippet": "newCheckreOrderPreShowAccountinfo();",
            "parentId": null,
            "callbackType": null
        }]
    }
}