{
    "AS_Button_d7df9535329b487cb788907e2862f0a5": {
        "id": "AS_Button_d7df9535329b487cb788907e2862f0a5",
        "type": "ACTION_SEQUENCE",
        "params": [{
            "datatype": "collection",
            "name": "eventobject"
        }],
        "contextObj": {
            "KUID": "a7af44ce35e44a7ea6c9516ec3bff4eb",
            "platform": "",
            "type": "forms"
        },
        "language": "js",
        "actions": [{
            "id": "ADD_SNIPPET__b4be010ce00d495b85cf17a4a2029301",
            "type": "ADD_SNIPPET",
            "codeSnippet": "frmEPS.btntext.skin = sknOrangeBGRNDBOJ;\nfrmEPS.btnMobile.skin = slButtonBlueFocus;\nfrmEPS.btnEmail.skin = slButtonBlueFocus;\n",
            "parentId": null,
            "callbackType": null
        }]
    }
}