{
    "AS_Button_090d7c7471fa4ff0ad2c02b5d40eb99c": {
        "id": "AS_Button_090d7c7471fa4ff0ad2c02b5d40eb99c",
        "type": "ACTION_SEQUENCE",
        "params": [{
            "datatype": "collection",
            "name": "eventobject"
        }],
        "language": "js",
        "actions": [{
            "id": "ADD_SNIPPET__98756b0d6d9a41be836167579204832f",
            "type": "ADD_SNIPPET",
            "codeSnippet": "resetSearchObject();\nunselectAll();\nhideAccountDetails();\ngetSearchPage();",
            "parentId": null,
            "callbackType": null
        }]
    }
}