{
    "AS_Button_3cd2ceae92dd46449625e4827ebd893c": {
        "id": "AS_Button_3cd2ceae92dd46449625e4827ebd893c",
        "type": "ACTION_SEQUENCE",
        "params": [{
            "datatype": "collection",
            "name": "eventobject"
        }],
        "contextObj": {
            "name": "frmConfirmationPersonalDetailsKA",
            "type": "forms",
            "platform": "",
            "KUID": "4b0055df8e1a4c279580cc24347babe5"
        },
        "language": "js",
        "actions": [{
            "id": "ADD_SNIPPET__602d0e5bc8584098a81f377cd243c0a1",
            "type": "ADD_SNIPPET",
            "codeSnippet": "frmUserSettingsMyProfileKA.show();",
            "parentId": null,
            "callbackType": null
        }]
    }
}