{
    "AS_Button_d5275fc9a85e4466be88ee2c397aaabc": {
        "id": "AS_Button_d5275fc9a85e4466be88ee2c397aaabc",
        "type": "ACTION_SEQUENCE",
        "params": [{
            "datatype": "collection",
            "name": "eventobject"
        }],
        "contextObj": {
            "name": "frmConfirmNPPRegistration",
            "type": "forms",
            "platform": "",
            "KUID": "e6a1d365d76b48e1bf53a6a1a73bbeb0"
        },
        "language": "js",
        "actions": [{
            "id": "ADD_SNIPPET__c75555d995814f2382b92b67c48136f6",
            "type": "ADD_SNIPPET",
            "codeSnippet": "var vc=applicationManager.getfrmConfirmNPPRegistrationViewController();\nvc.onClickOfConfirm();",
            "parentId": null,
            "callbackType": null
        }]
    }
}