{
    "AS_Button_f5e58f13e32f453bb0151720e8585acf": {
        "id": "AS_Button_f5e58f13e32f453bb0151720e8585acf",
        "type": "ACTION_SEQUENCE",
        "params": [{
            "datatype": "collection",
            "name": "eventobject"
        }],
        "language": "js",
        "actions": [{
            "id": "ADD_SNIPPET_ide_onClick_j649b193cb744f06b508dbb13a4bc916",
            "type": "ADD_SNIPPET",
            "codeSnippet": "funSelectTener(\"3Months\");",
            "callbackType": null
        }]
    }
}