{
    "AS_Button_f0c3e1f7fcaf47cda75a43c1e693d7f0": {
        "id": "AS_Button_f0c3e1f7fcaf47cda75a43c1e693d7f0",
        "type": "ACTION_SEQUENCE",
        "params": [{
            "datatype": "collection",
            "name": "eventobject"
        }],
        "language": "js",
        "actions": [{
            "id": "ADD_SNIPPET_ide_onClick_a82a666781d54b73879898acc190c8c4",
            "type": "ADD_SNIPPET",
            "codeSnippet": "// kony.sdk.mvvm.KonyApplicationContext.showLoadingScreen(\"\");\nfrmEPS.flxDetailsAliasScroll.setVisibility(false);\nfrmEPS.flxDetailsMobileScroll.setVisibility(false);\nfrmEPS.flxDetailsIBAN.setVisibility(true);\nif(frmEPS.btnIBAN.skin === slButtonBlueFocus){\n  frmEPS.btnIBAN.skin = sknOrangeBGRNDBOJ;\n  frmEPS.btnAlias.skin = slButtonBlueFocus;\n  frmEPS.btnMob.skin = slButtonBlueFocus;\n}else{\n  frmEPS.btnAlias.skin = slButtonBlueFocus;\n  frmEPS.btnIBAN.skin = sknOrangeBGRNDBOJ;\n  \n}\n // reset the other flows \n// Reset Alias Details //\n  frmEPS.txtAliasName.text = \"\";\n  frmEPS.txtAmountAlias.text = \"\";\n  frmEPS.lblIBANAliastxt.text = \"\";\n  frmEPS.lbAliasAddresstxt.text = \"\";\n  frmEPS.lblAliasBanktxt.txt = \"\";\n  frmEPS.flxAmountAlias.setVisibility(false);\n  frmEPS.flxIBANAliass.setVisibility(false);\n  frmEPS.flxAliasAddress.setVisibility(false);\n  frmEPS.flxAliasBank.setVisibility(false);\n // Reset Alias Details //\n // Reset Mob Details //\n  frmEPS.txtAliasNameMob.text = \"\";\n  frmEPS.txtAmountMob.text = \"\";\n  frmEPS.lblIBANMobtxt.text = \"\";\n  frmEPS.lblAddressMobtxt.text = \"\";\n  frmEPS.lblBankMobAliastxt.text = \"\";\n  frmEPS.flxAmountMob.setVisibility(false);\n  frmEPS.flxIbanDetailsMob.setVisibility(false);\n  frmEPS.flxAddressMob.setVisibility(false);\n  frmEPS.flxBankMob.setVisibility(false);\n // Reset Mob Details //",
            "callbackType": null
        }]
    }
}