{
    "AS_Button_c7d7ff9e1ff44622846a9d990f88c37a": {
        "id": "AS_Button_c7d7ff9e1ff44622846a9d990f88c37a",
        "type": "ACTION_SEQUENCE",
        "params": [{
            "datatype": "collection",
            "name": "eventobject"
        }],
        "contextObj": {
            "type": "forms",
            "platform": "",
            "KUID": "6e316e59d2e44fbdaf370e02174f1690"
        },
        "language": "js",
        "actions": [{
            "id": "ADD_SNIPPET__4bf8fe54fe7e44c2b83ef388ef3c7f3f",
            "type": "ADD_SNIPPET",
            "codeSnippet": "var INSTANCE = kony.sdk.mvvm.KonyApplicationContext.getAppInstance();\n  var listController = INSTANCE.getFormController(\"frmAddPayeeSuccessBillPayKA\");\n  listController.performAction(\"saveData\");",
            "parentId": null,
            "callbackType": null
        }]
    }
}