{
    "AS_Button_j2a9139b75c04ccab872a570a97ab7f3": {
        "id": "AS_Button_j2a9139b75c04ccab872a570a97ab7f3",
        "type": "ACTION_SEQUENCE",
        "name": "AS_Button_manageCardlessOnclickAll",
        "params": [{
            "datatype": "collection",
            "name": "eventobject"
        }],
        "language": "js",
        "actions": [{
            "id": "ADD_SNIPPET_ide_onClick_d0303c31fbc3439e88a659c638a92fff",
            "type": "ADD_SNIPPET",
            "codeSnippet": "frmManageCardLess.btnAll.skin = \"slButtonWhiteTab\";\nfrmManageCardLess.btnPending.skin = \"slButtonWhiteTabDisabled\";\nfrmManageCardLess.btnAccepted.skin = \"slButtonWhiteTabDisabled\";\nfrmManageCardLess.btnCancel.skin = \"slButtonWhiteTabDisabled\";\nkony.sdk.mvvm.KonyApplicationContext.showLoadingScreen(\"\");\nshow_Cardless_List(\"all\");\n/*selectedIndex_BULK_PAYMENT = [];\nvalidate_BULK_BILL_SELECTION();\nshow_BILLER_LIST(\"all\");*/",
            "callbackType": null
        }]
    }
}