{
    "AS_Button_a5932edd088d43c28bb4a8f060a8e245": {
        "id": "AS_Button_a5932edd088d43c28bb4a8f060a8e245",
        "type": "ACTION_SEQUENCE",
        "params": [{
            "datatype": "collection",
            "name": "eventobject"
        }],
        "language": "js",
        "actions": [{
            "id": "ADD_SNIPPET_ide_onClick_i0e89377269b455c89ed455ccbf08141",
            "type": "ADD_SNIPPET",
            "codeSnippet": "frmMore.show();",
            "callbackType": null
        }]
    }
}