{
    "AS_Button_a4ad7fad82de4654aefd6fcefd33edce": {
        "id": "AS_Button_a4ad7fad82de4654aefd6fcefd33edce",
        "type": "ACTION_SEQUENCE",
        "params": [{
            "datatype": "collection",
            "name": "eventobject"
        }],
        "language": "js",
        "actions": [{
            "id": "ADD_SNIPPET_ide_onClick_d643a68f06054ec4abd282b9a3d33d5b",
            "type": "ADD_SNIPPET",
            "codeSnippet": "frmMore.show();",
            "callbackType": null
        }]
    }
}