{
    "AS_Button_dd2b486072bb4dcaa537c47ac243955c": {
        "id": "AS_Button_dd2b486072bb4dcaa537c47ac243955c",
        "type": "ACTION_SEQUENCE",
        "params": [{
            "datatype": "collection",
            "name": "eventobject"
        }],
        "language": "js",
        "actions": [{
            "id": "ADD_SNIPPET_ide_onClick_j207701581c24629aa41e69fa6d09163",
            "type": "ADD_SNIPPET",
            "codeSnippet": "var INSTANCE = kony.sdk.mvvm.KonyApplicationContext.getAppInstance();\nvar listController = INSTANCE.getFormController(\"frmAddExternalAccountKA\");\nvar navObject = new kony.sdk.mvvm.NavigationObject();\nvar datamodelflxAddressKA = new kony.sdk.mvvm.DataModel();\nnavObject.setDataModel(null,kony.sdk.mvvm.OperationType.ADD, \"form\");\nnavObject.setRequestOptions(\"form\",{\"headers\":{}});\nlistController.performAction(\"navigateTo\",[\"frmAddExternalAccountKA\",navObject]);",
            "callbackType": null
        }]
    }
}