{
    "AS_Button_d4239042f42d4fe9abeef41c5cca779d": {
        "id": "AS_Button_d4239042f42d4fe9abeef41c5cca779d",
        "type": "ACTION_SEQUENCE",
        "params": [{
            "datatype": "collection",
            "name": "eventobject"
        }],
        "contextObj": {
            "name": "frmLoginKA",
            "type": "forms",
            "platform": "",
            "KUID": "7b1aa8fceb6b4070833e9eab879b0e5e"
        },
        "language": "js",
        "actions": [{
            "id": "ADD_SNIPPET_ide_onClick_eda1107664ea404793d5a1a65a1b6bed",
            "type": "ADD_SNIPPET",
            "codeSnippet": "kony.application.showLoadingScreen(null,\"\", constants.LOADING_SCREEN_POSITION_ONLY_CENTER, true, true, null);\nonClickLogin();",
            "callbackType": null
        }]
    }
}