{
    "AS_Button_e56b8a52ad1940a8b397872a6f9d88a1": {
        "id": "AS_Button_e56b8a52ad1940a8b397872a6f9d88a1",
        "type": "ACTION_SEQUENCE",
        "params": [{
            "datatype": "collection",
            "name": "eventobject"
        }, {
            "datatype": "collection",
            "name": "context"
        }],
        "contextObj": {
            "name": "segMessagesBoldTmplDraftKA",
            "type": "templates",
            "platform": "",
            "KUID": "0a0d4d0f80c3458481990cc3597e4431"
        },
        "language": "js",
        "actions": [{
            "id": "ADD_SNIPPET__b86ac7a2ba8f46f29100e4e569997641",
            "type": "ADD_SNIPPET",
            "codeSnippet": "manualDelete(\"\");",
            "parentId": null,
            "callbackType": null
        }]
    }
}