{
    "AS_Button_c58042f71f4f4dd087d7f7acad5e412c": {
        "id": "AS_Button_c58042f71f4f4dd087d7f7acad5e412c",
        "type": "ACTION_SEQUENCE",
        "params": [{
            "datatype": "collection",
            "name": "eventobject"
        }],
        "language": "js",
        "actions": [{
            "id": "ADD_SNIPPET_ide_onClick_j55f7715287d48df9eb8a009c788a2e2",
            "type": "ADD_SNIPPET",
            "codeSnippet": "frmInformationKA.flxFAQ.setVisibility(true);\nfrmInformationKA.flxFAQSearch.setVisibility(false);\nfrmInformationKA.searchField.text=\"\";\nswitchToContactDetailsTab();\ncloseAll();\nfromForm = \"otp\";\nkony.print(\"appconfig ::\"+JSON.stringify(appConfig));\nvar currentAppVersion = appConfig.appVersion;\nfrmInformationKA.lblVersion.text = \"V \" + currentAppVersion;",
            "callbackType": null
        }]
    }
}