{
    "AS_Button_c53e4c172e5f4bb991b5237cfe9a6695": {
        "id": "AS_Button_c53e4c172e5f4bb991b5237cfe9a6695",
        "type": "ACTION_SEQUENCE",
        "params": [{
            "datatype": "collection",
            "name": "eventobject"
        }],
        "contextObj": {
            "name": "frmLoginKA",
            "type": "forms",
            "platform": "",
            "KUID": "7b1aa8fceb6b4070833e9eab879b0e5e"
        },
        "language": "js",
        "actions": [{
            "id": "ADD_SNIPPET__j60b5ed745b3441e8641e91cf2ee07f7",
            "type": "ADD_SNIPPET",
            "codeSnippet": "var frmauthMode = \"FaceId\";\nFaceAuth_verify(); ",
            "parentId": null,
            "callbackType": null
        }]
    }
}