{
    "AS_Button_f62e0934f60e475ba0af119569055689": {
        "id": "AS_Button_f62e0934f60e475ba0af119569055689",
        "type": "ACTION_SEQUENCE",
        "params": [{
            "datatype": "collection",
            "name": "eventobject"
        }],
        "language": "js",
        "actions": [{
            "id": "ADD_SNIPPET_ide_onClick_bb5e2953ef574033882e35b9d98ea5c0",
            "type": "ADD_SNIPPET",
            "codeSnippet": "var obj = new kony.retailbanking.AdvancedAtmFilter();\nobj.onClickOfApply();",
            "callbackType": null
        }]
    }
}