{
    "AS_Button_c8ef89c77903423e8ae639c5c7e4c1f8": {
        "id": "AS_Button_c8ef89c77903423e8ae639c5c7e4c1f8",
        "type": "ACTION_SEQUENCE",
        "name": "AS_Button_OnClickOpenDepositeFromAccount",
        "params": [{
            "datatype": "collection",
            "name": "eventobject"
        }],
        "contextObj": {
            "type": "forms",
            "platform": "",
            "KUID": "fec6fddbcf8543f2b30114c87e1a7e99"
        },
        "language": "js",
        "actions": [{
            "id": "ADD_SNIPPET__d04a4e6149a249b2acf5fa5f1c27de43",
            "type": "ADD_SNIPPET",
            "codeSnippet": "\n//frmAccountDetailsScreen.lblHead.text = \"Accounts\";\ngblTModule = \"OpenTermDeposite\";\ngetAllAccounts();\n//gotoAccountDetailsScreen(1);\n//callAccountsDeposite(1);",
            "parentId": null,
            "callbackType": null
        }]
    }
}