{
    "AS_Button_dfaf69c6b0b745e690d089cd675e5699": {
        "id": "AS_Button_dfaf69c6b0b745e690d089cd675e5699",
        "type": "ACTION_SEQUENCE",
        "name": "AS_Button_ShowStopCard",
        "params": [{
            "datatype": "collection",
            "name": "eventobject"
        }],
        "contextObj": {
            "name": "frmStopCardKA",
            "type": "forms",
            "platform": "",
            "KUID": "d1990ea752394c34b740814066dc6ac7"
        },
        "language": "js",
        "actions": [{
            "id": "ADD_SNIPPET__g84998b8ce8b40f895b3dc900d5c4dc7",
            "type": "ADD_SNIPPET",
            "codeSnippet": "frmManageCards.show();",
            "parentId": null,
            "callbackType": null
        }]
    }
}