{
    "AS_Button_f33c8ad1ff84466fa3ec729cfe448fe8": {
        "id": "AS_Button_f33c8ad1ff84466fa3ec729cfe448fe8",
        "type": "ACTION_SEQUENCE",
        "name": "AS_Button_f33c8ad1ff84466fa3ec729cfe448fe8",
        "params": [{
            "datatype": "collection",
            "name": "eventobject"
        }],
        "contextObj": {
            "name": "frmLoginAuthSuccessKA",
            "type": "forms",
            "platform": "",
            "KUID": "fdd59a96c4c04dc7a5156b603b7d52c6"
        },
        "language": "js",
        "actions": [{
            "id": "ADD_SNIPPET__d12451fc59594386a344ec0ee735090f",
            "type": "ADD_SNIPPET",
            "codeSnippet": "setDefaultLoginMethod(frmLoginAuthSuccessKA);",
            "parentId": null,
            "callbackType": null
        }]
    }
}