{
    "AS_Button_b40aadff6be5497c93f03e9f335c8a2b": {
        "id": "AS_Button_b40aadff6be5497c93f03e9f335c8a2b",
        "type": "ACTION_SEQUENCE",
        "params": [{
            "datatype": "collection",
            "name": "eventobject"
        }],
        "language": "js",
        "actions": [{
            "id": "ADD_SNIPPET_ide_onClick_a5dd07ed1f2547ce96fdc1bed5fc9b49",
            "type": "ADD_SNIPPET",
            "codeSnippet": "funInterestPayable(\"OnMaturity\");",
            "callbackType": null
        }]
    }
}