{
    "AS_Button_dec623cea8e743d5b9e9ec1871843416": {
        "id": "AS_Button_dec623cea8e743d5b9e9ec1871843416",
        "type": "ACTION_SEQUENCE",
        "name": "AS_Button_submitCardCancel",
        "params": [{
            "datatype": "collection",
            "name": "eventobject"
        }],
        "contextObj": {
            "name": "frmCancelCardKA",
            "type": "forms",
            "platform": "",
            "KUID": "h9147b91e9434f428264b7f811fa0f0c"
        },
        "language": "js",
        "actions": [{
            "id": "ADD_SNIPPET__fa11395015994fb685ad3e0b4b39085e",
            "type": "ADD_SNIPPET",
            "codeSnippet": "if(frmCancelCardKA.lblReason.text !== \"\")\n  cancelCardsFunction(CARDLIST_DETAILS.cardNumber, frmCancelCardKA.lblReasonCode.text, CARDLIST_DETAILS.cardType);\n\n// if(frmCancelCardKA.lstCardReason.selectedKey != \"lb1\"){\n\n// }else{\n//   frmManageCardsKA.flxcancelSwitchOff.setVisibility(true);  \n//   frmManageCardsKA.flxcancelSwitchOn.setVisibility(false);\n// }\n",
            "parentId": null,
            "callbackType": null
        }]
    }
}