{
    "AS_Button_db0d1d9b8bae4729aafc9a184e0b2382": {
        "id": "AS_Button_db0d1d9b8bae4729aafc9a184e0b2382",
        "type": "ACTION_SEQUENCE",
        "params": [{
            "datatype": "collection",
            "name": "eventobject"
        }],
        "contextObj": {
            "name": "frmCardsListPreferences",
            "type": "forms",
            "platform": null,
            "KUID": "gbc93386725a4f228cae50ca2122b7bb"
        },
        "language": "js",
        "actions": [{
            "id": "ADD_SNIPPET_ide_onClick_c831909430074f7eb75db4139658d37c",
            "type": "ADD_SNIPPET",
            "codeSnippet": "//frmSettingsKA.show();\nif(frmAccountsReorderKA.lblSettingsTitle.text === geti18nkey(\"i18n.appsettings.reordercardlist\")){\ncallSetCardPreferences();\n}else{\n  callSetQucikAccessList();\n}",
            "callbackType": null
        }]
    }
}