{
    "AS_Button_ec1a42e62a964eecb83b3626bf2db17c": {
        "id": "AS_Button_ec1a42e62a964eecb83b3626bf2db17c",
        "type": "ACTION_SEQUENCE",
        "params": [{
            "datatype": "collection",
            "name": "eventobject"
        }],
        "contextObj": {
            "name": "frmAddExternalAccountHome",
            "type": "forms",
            "platform": null,
            "KUID": "e0318a85d7bb45bd847986f507b88f55"
        },
        "language": "js",
        "actions": [{
            "id": "ADD_SNIPPET_ide_onClick_b84025524f344f529cb3dd42ff744b07",
            "type": "ADD_SNIPPET",
            "codeSnippet": "gotoPage(\"Login\");\nfrmNewUserOnboardVerificationKA.destroy();\nfrmRegisterUser.destroy();\nfrmCongratulations.destroy();\nfrmEnrolluserLandingKA.destroy();",
            "callbackType": null
        }]
    }
}