{
    "AS_Button_e6bb506cb95e4dca933f293c0a7378e8": {
        "id": "AS_Button_e6bb506cb95e4dca933f293c0a7378e8",
        "type": "ACTION_SEQUENCE",
        "params": [{
            "datatype": "collection",
            "name": "eventobject"
        }],
        "contextObj": {
            "type": "forms",
            "platform": "",
            "KUID": "c61ad12e0ab14a518f43b91ce1670e1d"
        },
        "language": "js",
        "actions": [{
            "id": "ADD_SNIPPET__ae9d5967733e469eb3c5f9040c022bdf",
            "type": "ADD_SNIPPET",
            "codeSnippet": "kony.print(\"deleted\");",
            "parentId": null,
            "callbackType": null
        }]
    }
}