{
    "AS_Button_e6b72a617f0344f0aba1a20e0f986e40": {
        "id": "AS_Button_e6b72a617f0344f0aba1a20e0f986e40",
        "type": "ACTION_SEQUENCE",
        "params": [{
            "datatype": "collection",
            "name": "eventobject"
        }],
        "contextObj": {
            "name": "frmEPS",
            "type": "forms",
            "platform": "",
            "KUID": "c49bbb3175be499d86d933cee301b3c4"
        },
        "language": "js",
        "actions": [{
            "id": "ADD_SNIPPET__e3d8e2285bb94947b5d16f78e81c2614",
            "type": "ADD_SNIPPET",
            "codeSnippet": "\nfrmEPS.flxDetailsAliasScroll.setVisibility(false);\nfrmEPS.flxDetailsIBAN.setVisibility(false);\nfrmEPS.flxDetailsMobileScroll.setVisibility(true);\nif(frmEPS.btnMob.skin === slButtonBlueFocus){\n  frmEPS.btnMob.skin = sknOrangeBGRNDBOJ;\n  frmEPS.btnAlias.skin = slButtonBlueFocus;\n  frmEPS.btnIBAN.skin = slButtonBlueFocus;\n}\n//reset the other flows \n// Reset Iban Details //  \n  frmEPS.txtAmountIBAN.text = \"\";\n  frmEPS.txtIBANAlias.text = \"\";\n  frmEPS.txtAddressAlias.text = \"\";\n  frmEPS.txtBankAlias.text = \"\";\n  frmEPS.tbxBankName.text = \"\";\n  frmEPS.lblBankNameStat.setVisibility(false);\n  frmEPS.tbxBankName.setVisibility(false);\n  frmEPS.lblBankName.setVisibility(true);\n // Reset Iban Details // \n // Reset Alias Details //\n  frmEPS.txtAliasName.text = \"\";\n  frmEPS.txtAmountAlias.text = \"\";\n  frmEPS.lblIBANAliastxt.text = \"\";\n  frmEPS.lbAliasAddresstxt.text = \"\";\n  frmEPS.lblAliasBanktxt.txt = \"\";\n  frmEPS.flxAmountAlias.setVisibility(false);\n  frmEPS.flxIBANAliass.setVisibility(false);\n  frmEPS.flxAliasAddress.setVisibility(false);\n  frmEPS.flxAliasBank.setVisibility(false);\n // Reset Alias Details //\n// animateLabel(\"UP\", \"lblIBANMob\",frmEPS.lblIBANMob.text);\n// animateLabel(\"UP\", \"lblAddressMob\",frmEPS.lblAddressMob.text);\n// animateLabel(\"UP\", \"lblBankMob\",frmEPS.lblBankMob.text);\n// GetAliasInfo();",
            "parentId": null,
            "callbackType": null
        }]
    }
}