{
    "AS_Button_adc138dde44c4c7d9bf3c14b87d88fbf": {
        "id": "AS_Button_adc138dde44c4c7d9bf3c14b87d88fbf",
        "type": "ACTION_SEQUENCE",
        "params": [{
            "datatype": "collection",
            "name": "eventobject"
        }],
        "language": "js",
        "actions": [{
            "id": "ADD_SNIPPET_ide_onClick_682dfc037e064cb4b4be124946dede9b",
            "type": "ADD_SNIPPET",
            "codeSnippet": "    var INSTANCE = kony.sdk.mvvm.KonyApplicationContext.getAppInstance();\n    var frmName = kony.application.getCurrentForm().id;\n    var listController = INSTANCE.getFormController(frmName);\n    listController.performAction(\"navigateToAccountsInfo\");",
            "callbackType": null
        }]
    }
}