{
    "AS_Button_d367ca8ef0304d98aebf43b26b63b15e": {
        "id": "AS_Button_d367ca8ef0304d98aebf43b26b63b15e",
        "type": "ACTION_SEQUENCE",
        "params": [{
            "datatype": "collection",
            "name": "eventobject"
        }],
        "contextObj": {
            "name": "frmAccountDetailKA",
            "type": "forms",
            "platform": "",
            "KUID": "5ed703cad63c441882fc4a36f5ea0c28"
        },
        "language": "js",
        "actions": [{
            "id": "ADD_SNIPPET__c5ea8d8a4918430eb2b8b53665546834",
            "type": "ADD_SNIPPET",
            "codeSnippet": "kony.print(\":sadasd\");",
            "parentId": null,
            "callbackType": null
        }]
    }
}