{
    "AS_TextField_a741199b463941bd897cf716e84b090c": {
        "id": "AS_TextField_a741199b463941bd897cf716e84b090c",
        "type": "ACTION_SEQUENCE",
        "name": "AS_billernumondoneA",
        "params": [{
            "datatype": "collection",
            "name": "eventobject"
        }, {
            "datatype": "string",
            "name": "changedtext"
        }],
        "contextObj": {
            "name": "frmNewBillKA",
            "type": "forms",
            "platform": "",
            "KUID": "94b57de480514c9f98e1f6979b71a37b"
        },
        "language": "js",
        "actions": [{
            "id": "ADD_SNIPPET__f5ee09a0a4f54fd7a75a99231ff04f22",
            "type": "ADD_SNIPPET",
            "codeSnippet": "animateLabel(\"DOWN\",\"lblBillerNumber\", frmNewBillKA.tbxBillerNumber.text);\nnextFromNewBillScreen();",
            "parentId": null,
            "callbackType": null
        }]
    }
}