{
    "AS_Button_d8b57206c73949a6947efa7f4b499d3b": {
        "id": "AS_Button_d8b57206c73949a6947efa7f4b499d3b",
        "type": "ACTION_SEQUENCE",
        "params": [{
            "datatype": "collection",
            "name": "eventobject"
        }],
        "contextObj": {
            "name": "frmCheckingJoint",
            "type": "forms",
            "platform": "",
            "KUID": "b0246be9d9aa4f7a97eafdd44842ffb2"
        },
        "language": "js",
        "actions": [{
            "id": "ADD_SNIPPET__ed8ade4ffe584da1a3536ab097430e2e",
            "type": "ADD_SNIPPET",
            "codeSnippet": "kony.print(\"deleted\");",
            "parentId": null,
            "callbackType": null
        }]
    }
}