{
    "AS_Button_9cdf67afa7454f078f2fdc1ba2750dd4": {
        "id": "AS_Button_9cdf67afa7454f078f2fdc1ba2750dd4",
        "type": "ACTION_SEQUENCE",
        "params": [{
            "datatype": "collection",
            "name": "eventobject"
        }],
        "language": "js",
        "actions": [{
            "id": "ADD_SNIPPET_ide_onClick_34f0dab6f30745dbb7cfadbd2f597c71",
            "type": "ADD_SNIPPET",
            "codeSnippet": "var previousForm = kony.application.getPreviousForm().id;\nif(frmRecentDepositKA.lblLine1KA.text == \"frmAccountDetailKA\"){\n  var INSTANCE = kony.sdk.mvvm.KonyApplicationContext.getAppInstance();\n  var controller = INSTANCE.getFormController(\"frmAccountDetailKA\");\n  controller.getFormModel().showView();\n}else{\n  if(previousForm==\"frmAccountDetailKA\"){\n    var INSTANCE = kony.sdk.mvvm.KonyApplicationContext.getAppInstance();\n    var controller = INSTANCE.getFormController(\"frmAccountDetailKA\");\n    controller.getFormModel().showView();\n  }else\n    if(frmRecentDepositKA.lblLine1KA.text == \"frmSearchKA\"){\n      var INSTANCE = kony.sdk.mvvm.KonyApplicationContext.getAppInstance();\n      var controller = INSTANCE.getFormController(\"frmSearchKA\");\n      controller.getFormModel().showView();\n    }else if(previousForm ==\"frmSearchKA\")\n    {\n      var INSTANCE = kony.sdk.mvvm.KonyApplicationContext.getAppInstance();\n      var controller = INSTANCE.getFormController(\"frmSearchKA\");\n      controller.getFormModel().showView();\n\n    }else if(previousForm==\"frmAccountDetailKA\"){\n      var INSTANCE = kony.sdk.mvvm.KonyApplicationContext.getAppInstance();\n      var controller = INSTANCE.getFormController(\"frmAccountDetailKA\");\n      controller.getFormModel().showView();\n    }else{\n      frmDepositPayLandingKA.show();\n    }\n}",
            "callbackType": null
        }]
    }
}