{
    "AS_Button_e39a164f25004fe3bf52934638ae37cf": {
        "id": "AS_Button_e39a164f25004fe3bf52934638ae37cf",
        "type": "ACTION_SEQUENCE",
        "params": [{
            "datatype": "collection",
            "name": "eventobject"
        }],
        "language": "js",
        "actions": [{
            "id": "ADD_SNIPPET_ide_onClick_e823429952ff4b58959a051d00754507",
            "type": "ADD_SNIPPET",
            "codeSnippet": "backTOListFormCheckReOrder();",
            "callbackType": null
        }]
    }
}