{
    "AS_Button_db628fb56f274f69b10607565c2296a9": {
        "id": "AS_Button_db628fb56f274f69b10607565c2296a9",
        "type": "ACTION_SEQUENCE",
        "name": "AS_Button_onClickInterestPayableOnMaturity",
        "params": [{
            "datatype": "collection",
            "name": "eventobject"
        }],
        "contextObj": {
            "type": "forms",
            "platform": "",
            "KUID": "fec6fddbcf8543f2b30114c87e1a7e99"
        },
        "language": "js",
        "actions": [{
            "id": "ADD_SNIPPET__a966afa480c84af5a60e2c0230622774",
            "type": "ADD_SNIPPET",
            "codeSnippet": "funInterestPayable(\"OnMaturity\");",
            "parentId": null,
            "callbackType": null
        }]
    }
}