{
    "AS_Button_j0bf6b8d56e747aab87a8d7070199533": {
        "id": "AS_Button_j0bf6b8d56e747aab87a8d7070199533",
        "type": "ACTION_SEQUENCE",
        "params": [{
            "datatype": "collection",
            "name": "eventobject"
        }],
        "contextObj": {
            "type": "forms",
            "platform": null,
            "KUID": "f1620f6e035b43a797bd646b22cf30e3"
        },
        "language": "js",
        "actions": [{
            "id": "ADD_SNIPPET_ide_onClick_f75a73786f594cfd97e29bb49c1799dd",
            "type": "ADD_SNIPPET",
            "codeSnippet": "var INSTANCE = kony.sdk.mvvm.KonyApplicationContext.getAppInstance();\nvar listController = INSTANCE.getFormController(\"frmAddExternalAccountKA\");\nvar navObject = new kony.sdk.mvvm.NavigationObject();\nvar datamodelflxAddressKA = new kony.sdk.mvvm.DataModel();\nnavObject.setDataModel(null,kony.sdk.mvvm.OperationType.ADD, \"form\");\n//navObject.setRequestOptions(\"ListCountryKA\",{\"headers\":{\"session_token\":kony.retailBanking.globalData.session_token}});\nnavObject.setRequestOptions(\"form\",{\"headers\":{\"session_token\":kony.retailBanking.globalData.session_token}});\nlistController.performAction(\"navigateTo\",[\"frmAddExternalAccountKA\",navObject]); ",
            "callbackType": null
        }]
    }
}