{
    "AS_Button_5483c0d893d4489b8885803e1eb0b75c": {
        "id": "AS_Button_5483c0d893d4489b8885803e1eb0b75c",
        "type": "ACTION_SEQUENCE",
        "params": [{
            "datatype": "collection",
            "name": "eventobject"
        }],
        "language": "js",
        "actions": [{
            "id": "ADD_SNIPPET_ide_onClick_44370d471b84462898a8d762aef785fe",
            "type": "ADD_SNIPPET",
            "codeSnippet": "kony.print(\"Deleted\");",
            "callbackType": null
        }]
    }
}