{
    "AS_Button_15645b56d83d45808665b2ccc152d871": {
        "id": "AS_Button_15645b56d83d45808665b2ccc152d871",
        "type": "ACTION_SEQUENCE",
        "params": [{
            "datatype": "collection",
            "name": "eventobject"
        }],
        "contextObj": {
            "name": "frmCardOperationsKA",
            "type": "forms",
            "platform": "",
            "KUID": "2d490dd434d4419c838fe7bad7a62acb"
        },
        "language": "js",
        "actions": [{
            "id": "ADD_SNIPPET__732f2dca906c49ad8c0ffb51273308cb",
            "type": "ADD_SNIPPET",
            "codeSnippet": "//selectedOperation = \"customerCareCall\";\n//showManageCardsAlert();\n phNum = \"284 234 1234\";\n kony.phone.dial(phNum);",
            "parentId": null,
            "callbackType": null
        }]
    }
}