{
    "AS_Button_70caf02b9b8e4885a95ec4b12612cbae": {
        "id": "AS_Button_70caf02b9b8e4885a95ec4b12612cbae",
        "type": "ACTION_SEQUENCE",
        "params": [{
            "datatype": "collection",
            "name": "eventobject"
        }],
        "contextObj": {
            "name": "frmPayeeDetailsKA",
            "type": "forms",
            "platform": "",
            "KUID": "eee6ed64af6148fd817b4b732ba55ecc"
        },
        "language": "js",
        "actions": [{
            "id": "SHOW_ALERT__8cbe9ca39de54709a45bdcf92a358d83",
            "type": "SHOW_ALERT",
            "alertType": "constants.ALERT_TYPE_CONFIRMATION",
            "alertTitle": "Delete Payee",
            "yesLabel": "Yes",
            "noLabel": "No",
            "alertMessage": "Do you want to delete the payee?",
            "messageType": "constant",
            "parentId": null,
            "callbackType": null,
            "alertTitlei18n": null,
            "yesLabeli18n": null,
            "noLabeli18n": null,
            "iconPosition": "constants.ALERT_ICON_POSITION_LEFT"
        }, {
            "id": "ADD_SNIPPET__04d0a329bea742c5871b44d103471b67",
            "type": "ADD_SNIPPET",
            "codeSnippet": "    var INSTANCE = kony.sdk.mvvm.KonyApplicationContext.getAppInstance();\n    var listController = INSTANCE.getFormController(\"frmPayeeDetailsKA\");\n    //listController.performAction(\"deleteData\");\n      ShowLoadingScreen();\n      deleteBillerCustomVerbCall();",
            "parentId": "SHOW_ALERT__8cbe9ca39de54709a45bdcf92a358d83",
            "callbackType": "True"
        }]
    }
}