{
    "AS_Button_e7f9754edb484273a7a66e136841659e": {
        "id": "AS_Button_e7f9754edb484273a7a66e136841659e",
        "type": "ACTION_SEQUENCE",
        "params": [{
            "datatype": "collection",
            "name": "eventobject"
        }],
        "language": "js",
        "actions": [{
            "id": "ADD_SNIPPET__89a40e546ae040cb9b34878f7ebc7207",
            "type": "ADD_SNIPPET",
            "codeSnippet": "//frmManageCardsKA.btnDeactivateKA.setEnabled(true);\n var INSTANCE = kony.sdk.mvvm.KonyApplicationContext.getAppInstance();\n var controller = INSTANCE.getFormController(\"frmManageCardsKA\");\n var navigationObject = new kony.sdk.mvvm.NavigationObject();\n navigationObject.setRequestOptions(\"segCardsKA\",{\"headers\":{\"session_token\":kony.retailBanking.globalData.session_token}});\n controller.performAction(\"navigateTo\",[\"frmManageCardsKA\",navigationObject]);",
            "parentId": null,
            "callbackType": null
        }]
    }
}