{
    "AS_Button_c3d1393f887b422f8a610452c2380d4c": {
        "id": "AS_Button_c3d1393f887b422f8a610452c2380d4c",
        "type": "ACTION_SEQUENCE",
        "params": [{
            "datatype": "collection",
            "name": "eventobject"
        }],
        "language": "js",
        "actions": [{
            "id": "ADD_SNIPPET_ide_onClick_f17f3485683d461a845da7f4c959f4df",
            "type": "ADD_SNIPPET",
            "codeSnippet": "serv_createDeposite();",
            "callbackType": null
        }]
    }
}