{
    "AS_Button_cf0e1074dad04062baac63862e30ea93": {
        "id": "AS_Button_cf0e1074dad04062baac63862e30ea93",
        "type": "ACTION_SEQUENCE",
        "params": [{
            "datatype": "collection",
            "name": "eventobject"
        }],
        "language": "js",
        "actions": [{
            "id": "ADD_SNIPPET_ide_onClick_e0728ee9153d457ab991ebff6d2a3353",
            "type": "ADD_SNIPPET",
            "codeSnippet": "makeInlineErrorsTransfersInvisible();\nremoveDatafrmTransfersform();\nfrmPaymentDashboard.show();;",
            "callbackType": null
        }]
    }
}