{
    "AS_Button_e5674f73291b41ad891a0c2a8a81b7f8": {
        "id": "AS_Button_e5674f73291b41ad891a0c2a8a81b7f8",
        "type": "ACTION_SEQUENCE",
        "params": [{
            "datatype": "collection",
            "name": "eventobject"
        }],
        "language": "js",
        "actions": [{
            "id": "ADD_SNIPPET_ide_onClick_fa6a83c4a97843a284e2cc5bd33bd92e",
            "type": "ADD_SNIPPET",
            "codeSnippet": "SetupAccountsFrom(\"CLIQ\");\nvalidateLblNext();",
            "callbackType": null
        }]
    }
}