{
    "AS_Button_33f179b0f5bc4af5958247bf15b75821": {
        "id": "AS_Button_33f179b0f5bc4af5958247bf15b75821",
        "type": "ACTION_SEQUENCE",
        "params": [{
            "datatype": "collection",
            "name": "eventobject"
        }],
        "language": "js",
        "actions": [{
            "id": "ADD_SNIPPET_ide_onClick_8a6913ef2240486abcf2913aeaa5be9d",
            "type": "ADD_SNIPPET",
            "codeSnippet": "//gotoparenttransaction();\n    var INSTANCE = kony.sdk.mvvm.KonyApplicationContext.getAppInstance();\n    var frmName = kony.application.getCurrentForm().id;\n    var listController = INSTANCE.getFormController(frmName);\n    listController.performAction(\"navigateToAccountsInfoEdit\");",
            "callbackType": null
        }]
    }
}