{
    "AS_Button_a6a6fabaffe143fa971901483b4757f7": {
        "id": "AS_Button_a6a6fabaffe143fa971901483b4757f7",
        "type": "ACTION_SEQUENCE",
        "params": [{
            "datatype": "collection",
            "name": "eventobject"
        }],
        "language": "js",
        "actions": [{
            "id": "NAVIGATE_TO_FORM__ide_onClick_afeb4d4cba5a46f89da9896f9e207cda",
            "type": "NAVIGATE_TO_FORM",
            "formId": "frmLoginKA",
            "formKUID": "7b1aa8fceb6b4070833e9eab879b0e5e",
            "mappings": {},
            "mappingsOrder": [],
            "parentId": "",
            "callbackType": null,
            "enableMappingEditor": true,
            "disabled": true,
            "package": "",
            "navigationObj": "{\n    \"_meta_\": {\n        \"eventName\": \"\",\n        \"widgetId\": \"\"\n    }\n}",
            "isCustomInput": false
        }, {
            "id": "ADD_SNIPPET__fee48f2bfd7c44759c579301f07f3903",
            "type": "ADD_SNIPPET",
            "codeSnippet": "kony.application.exit();",
            "parentId": null,
            "callbackType": null
        }]
    }
}