{
    "AS_Button_de75f6e6596d4395af5ceb969e265c92": {
        "id": "AS_Button_de75f6e6596d4395af5ceb969e265c92",
        "type": "ACTION_SEQUENCE",
        "params": [{
            "datatype": "collection",
            "name": "eventobject"
        }],
        "language": "js",
        "actions": [{
            "id": "ADD_SNIPPET_ide_onClick_i0ba75bb15b34def98ff5381be54d4f3",
            "type": "ADD_SNIPPET",
            "codeSnippet": "frmMore.show();",
            "callbackType": null
        }]
    }
}