{
    "AS_Button_i017c9201984492fb131ed1146791958": {
        "id": "AS_Button_i017c9201984492fb131ed1146791958",
        "type": "ACTION_SEQUENCE",
        "params": [{
            "datatype": "collection",
            "name": "eventobject"
        }],
        "contextObj": {
            "name": "frmAccountDetailKA",
            "type": "forms",
            "platform": "",
            "KUID": "5ed703cad63c441882fc4a36f5ea0c28"
        },
        "language": "js",
        "actions": [{
            "id": "ADD_SNIPPET__e2d78ccf04ee4141b4082047e931587c",
            "type": "ADD_SNIPPET",
            "codeSnippet": "kony.print(\"asdasdas\");",
            "parentId": null,
            "callbackType": null
        }]
    }
}