{
    "AS_Button_6d90a03aec154ceab29c9c550d5d0824": {
        "id": "AS_Button_6d90a03aec154ceab29c9c550d5d0824",
        "type": "ACTION_SEQUENCE",
        "params": [{
            "datatype": "collection",
            "name": "eventobject"
        }],
        "language": "js",
        "actions": [{
            "id": "ADD_SNIPPET_ide_onClick_dd608ae64a0948b0b7f91f66c9d01d99",
            "type": "ADD_SNIPPET",
            "codeSnippet": "check(5);",
            "callbackType": null
        }]
    }
}