{
    "AS_Button_0c908cccea6248b381f6cd40a345ae8e": {
        "id": "AS_Button_0c908cccea6248b381f6cd40a345ae8e",
        "type": "ACTION_SEQUENCE",
        "params": [{
            "datatype": "collection",
            "name": "eventobject"
        }],
        "contextObj": {
            "name": "frmNewBillKA",
            "type": "forms",
            "platform": "",
            "KUID": "94b57de480514c9f98e1f6979b71a37b"
        },
        "language": "js",
        "actions": [{
            "id": "ADD_SNIPPET__5be020dcc7f744fca1115dfb7a41f026",
            "type": "ADD_SNIPPET",
            "codeSnippet": "       var INSTANCE = kony.sdk.mvvm.KonyApplicationContext.getAppInstance();\n        var listController = INSTANCE.getFormController(\"frmAddNewPayeeKA\");\n        var navigationObject = new kony.sdk.mvvm.NavigationObject();\n        var datamodelflxAddressKA = new kony.sdk.mvvm.DataModel();\n        navigationObject.setDataModel(null,kony.sdk.mvvm.OperationType.ADD, \"form\");\n        navigationObject.setRequestOptions(\"form\",{\"headers\":{\"session_token\":kony.retailBanking.globalData.session_token}});\n        \n        listController.performAction(\"navigateTo\",[\"frmAddNewPayeeKA\",navigationObject]);\n",
            "parentId": null,
            "callbackType": null
        }]
    }
}