{
    "AS_Button_beed30c0f93b4b5aa3f03f8d12b353cb": {
        "id": "AS_Button_beed30c0f93b4b5aa3f03f8d12b353cb",
        "type": "ACTION_SEQUENCE",
        "name": "AS_Button_onclickofConfirmRequestStatementSubmit",
        "params": [{
            "datatype": "collection",
            "name": "eventobject"
        }],
        "language": "js",
        "actions": [{
            "id": "ADD_SNIPPET_ide_onClick_bd5dc938733a4103b54dc20b0c8591fc",
            "type": "ADD_SNIPPET",
            "codeSnippet": "callConfirmRequestStatementOrder();\n",
            "callbackType": null
        }]
    }
}