{
    "AS_Button_f5026d816c8d415ea26770578b08d5ab": {
        "id": "AS_Button_f5026d816c8d415ea26770578b08d5ab",
        "type": "ACTION_SEQUENCE",
        "name": "AS_Button_OnClickRegisterIPSHome",
        "params": [{
            "datatype": "collection",
            "name": "eventobject"
        }],
        "contextObj": {
            "name": "frmIPSHome",
            "type": "forms",
            "platform": "",
            "KUID": "a2754de03fdc4fab9e1f4aeb43b1858d"
        },
        "language": "js",
        "actions": [{
            "id": "ADD_SNIPPET__e4267f43fce94bdfa67fd8a8ed15066d",
            "type": "ADD_SNIPPET",
            "codeSnippet": "SetupRegIPSScreen();",
            "parentId": null,
            "callbackType": null
        }]
    }
}