{
    "AS_Button_0ed5f01ff78a46aca3361ae45969e15f": {
        "id": "AS_Button_0ed5f01ff78a46aca3361ae45969e15f",
        "type": "ACTION_SEQUENCE",
        "params": [{
            "datatype": "collection",
            "name": "eventobject"
        }, {
            "datatype": "collection",
            "name": "context"
        }],
        "contextObj": {
            "name": "segMessagesBoldTmplKA",
            "type": "templates",
            "platform": "",
            "KUID": "979b594f4a57462a94a1b15dfc2322d0"
        },
        "language": "js",
        "actions": [{
            "id": "ADD_SNIPPET__20de9519957b4f52bd4e5e921e95c68c",
            "type": "ADD_SNIPPET",
            "codeSnippet": "goToReply(\"\");",
            "parentId": null,
            "callbackType": null
        }]
    }
}