{
    "AS_Button_d5cfd12c23ab441babb2240e6c1cb3cf": {
        "id": "AS_Button_d5cfd12c23ab441babb2240e6c1cb3cf",
        "type": "ACTION_SEQUENCE",
        "params": [{
            "datatype": "collection",
            "name": "eventobject"
        }],
        "language": "js",
        "actions": [{
            "id": "ADD_SNIPPET_ide_onClick_h4b9d56fa46c47d88851569092727dcb",
            "type": "ADD_SNIPPET",
            "codeSnippet": "frmEPS.flxDetailsIBAN.setVisibility(false);\nfrmEPS.flxDetailsMobile.setVisibility(false);\nfrmEPS.flxDetailsAliasScroll.setVisibility(true);\nif(frmEPS.btnAlias.skin === slButtonBlueFocus){\n  frmEPS.btnAlias.skin = sknOrangeBGRNDBOJ;\n  frmEPS.btnIBAN.skin = slButtonBlueFocus;\n  frmEPS.btnMob.skin = slButtonBlueFocus;  \n}else{\n  frmEPS.btnAlias.skin = sknOrangeBGRNDBOJ;\n  frmEPS.btnIBAN.skin = slButtonBlueFocus;\n}\n// for reset other flows \n// Reset Mob Details //\n  frmEPS.txtAliasNameMob.text = \"\";\n  frmEPS.txtAmountMob.text = \"\";\n  frmEPS.lblIBANMobtxt.text = \"\";\n  frmEPS.lblAddressMobtxt.text = \"\";\n  frmEPS.lblBankMobAliastxt.text = \"\";\n  frmEPS.flxAmountMob.setVisibility(false);\n  frmEPS.flxIbanDetailsMob.setVisibility(false);\n  frmEPS.flxAddressMob.setVisibility(false);\n  frmEPS.flxBankMob.setVisibility(false);\n // Reset Mob Details //\n // Reset Iban Details //  \n  frmEPS.txtAmountIBAN.text = \"\";\n  frmEPS.txtIBANAlias.text = \"\";\n  frmEPS.txtAddressAlias.text = \"\";\n  frmEPS.txtBankAlias.text = \"\";\n  frmEPS.tbxBankName.text = \"\";\n  frmEPS.lblBankNameStat.setVisibility(false);\n  frmEPS.tbxBankName.setVisibility(false);\n  frmEPS.lblBankName.setVisibility(true);\n // Reset Iban Details // \n// GetAliasInfo();\n// frmEPS.flxAliasInfo.setVisibility(true);\n// frmEPS.flxMain.setVisibility(false);\n",
            "callbackType": null
        }]
    }
}