{
    "AS_Button_i328d7e1a14348ec96072a948078264c": {
        "id": "AS_Button_i328d7e1a14348ec96072a948078264c",
        "type": "ACTION_SEQUENCE",
        "params": [{
            "datatype": "collection",
            "name": "eventobject"
        }],
        "language": "js",
        "actions": [{
            "id": "ADD_SNIPPET_ide_onClick_f985a0ee9f8f470d8ba65f5bb2c2b2b1",
            "type": "ADD_SNIPPET",
            "codeSnippet": "showHideAccountInsights();",
            "callbackType": null
        }]
    }
}