{
    "AS_Button_f83095484c92406cb4610c411a11f290": {
        "id": "AS_Button_f83095484c92406cb4610c411a11f290",
        "type": "ACTION_SEQUENCE",
        "params": [{
            "datatype": "collection",
            "name": "eventobject"
        }],
        "contextObj": {
            "name": "frmNewBillDetails",
            "type": "forms",
            "platform": null,
            "KUID": "c2132c3b91ec4677ab952b729de9fc0e"
        },
        "language": "js",
        "actions": [{
            "id": "ADD_SNIPPET_ide_onClick_f75b9bff5b93468aacf30c6d79e455b1",
            "type": "ADD_SNIPPET",
            "codeSnippet": "//transactionSuccess(frmNewBillKA);\n//newConfirmAccountPayBill(\"frmNewBillKA\",\"frmConfirmPayBill\");\nnewConfirmBillPay(\"frmNewBillKA\",\"frmConfirmPayBill\");\n",
            "callbackType": null
        }]
    }
}