{
    "AS_Button_d019d28df64245879ace1840df23d9d2": {
        "id": "AS_Button_d019d28df64245879ace1840df23d9d2",
        "type": "ACTION_SEQUENCE",
        "name": "AS_Button_frmAccJomoPayReg",
        "params": [{
            "datatype": "collection",
            "name": "eventobject"
        }],
        "language": "js",
        "actions": [{
            "id": "ADD_SNIPPET_ide_onClick_df9ac2cff55d42a8ba01ef37184480f2",
            "type": "ADD_SNIPPET",
            "codeSnippet": "var fromAccounts = kony.retailBanking.globalData.accountsDashboardData.fromAccounts;\ngblTModule=\"jomoReg\";\naccountsScreenPreshow(fromAccounts);\nfrmAccountDetailsScreen.show();\n//frmJoMoPay.flxPopupOuter.setVisibility(true);",
            "callbackType": null
        }]
    }
}