{
    "AS_Video_id036a0eb569434e976af47e55a02f8f": {
        "id": "AS_Video_id036a0eb569434e976af47e55a02f8f",
        "type": "ACTION_SEQUENCE",
        "name": "AS_completionI",
        "params": [{
            "datatype": "collection",
            "name": "eventobject"
        }],
        "contextObj": {
            "name": "frmSplash",
            "type": "forms",
            "platform": "",
            "KUID": "db67a9fe92674e5e9f19aa5b50fa0e6f"
        },
        "language": "js",
        "actions": [{
            "id": "ADD_SNIPPET__d827de9beac946da8489b063f903478c",
            "type": "ADD_SNIPPET",
            "codeSnippet": "var langFlag = kony.store.getItem(\"langFlagSettingObj\");\nif(langFlag){\n  var langSelected = kony.store.getItem(\"langPrefObj\");\n  if(langSelected === \"en\"){\n    onClickEnglish();\n  }\n  else{\n    onClickArabic();\n  }\n  frmLanguageChange.flxMain.isVisible = false;\n  frmLanguageChange.flxLogin.isVisible = true;\n  kony.boj.maintainenceCHECK();\n}\nelse{\n  frmLanguageChange.show();\n}\n",
            "parentId": null,
            "callbackType": null
        }]
    }
}