{
    "AS_FlexContainer_f43fa5c6d0334488809f7ebfd3fc6efb": {
        "id": "AS_FlexContainer_f43fa5c6d0334488809f7ebfd3fc6efb",
        "type": "ACTION_SEQUENCE",
        "params": [{
            "datatype": "collection",
            "name": "eventobject"
        }],
        "language": "js",
        "actions": [{
            "id": "ADD_SNIPPET_ide_onClick_e06ebcc4fdcd401e876a4fcbf5ce480f",
            "type": "ADD_SNIPPET",
            "codeSnippet": "gblfrmName = \"\";\nadditionalValidationRdc(this,gotoDeposits);\n",
            "callbackType": null
        }]
    }
}