{
    "AS_FlexContainer_c2636b5bc493465aadd7377351f1c7fc": {
        "id": "AS_FlexContainer_c2636b5bc493465aadd7377351f1c7fc",
        "type": "ACTION_SEQUENCE",
        "params": [{
            "datatype": "collection",
            "name": "eventobject"
        }],
        "language": "js",
        "actions": [{
            "id": "ADD_SNIPPET_ide_onClick_bfc4ab2579bf40b3a89e42ce2db5f81c",
            "type": "ADD_SNIPPET",
            "codeSnippet": "onClickCardsMenu();",
            "callbackType": null
        }]
    }
}