{
    "AS_FlexContainer_j0682bfd34c64bdf9f0ba7420a487b90": {
        "id": "AS_FlexContainer_j0682bfd34c64bdf9f0ba7420a487b90",
        "type": "ACTION_SEQUENCE",
        "params": [{
            "datatype": "collection",
            "name": "eventobject"
        }],
        "language": "js",
        "actions": [{
            "id": "ADD_SNIPPET_ide_onClick_d6dd528330a84912ac342f71c30c3d26",
            "type": "ADD_SNIPPET",
            "codeSnippet": "// var currentForm = kony.application.getCurrentForm();\n// kony.chatbots.bot.showBotSplash(currentForm);\nfrmPaymentDashboard.show();",
            "callbackType": null
        }]
    }
}