{
    "AS_FlexContainer_f22fb1604426411da642e6086e634f50": {
        "id": "AS_FlexContainer_f22fb1604426411da642e6086e634f50",
        "type": "ACTION_SEQUENCE",
        "params": [{
            "datatype": "collection",
            "name": "eventobject"
        }],
        "language": "js",
        "actions": [{
            "id": "ADD_SNIPPET_ide_onClick_b95d9d6e48f841d6bddf945d391b4af4",
            "type": "ADD_SNIPPET",
            "codeSnippet": "startChatbotAfterLogin(custid , true);\nfrmAccountsLandingKA.flxIconMove1.left = \"43%\";\nfrmAccountsLandingKA.flxIconMove1.top = \"88%\";",
            "callbackType": null
        }]
    }
}