{
    "AS_FlexContainer_6df3dbf3701745239fccc5a6be99bc28": {
        "id": "AS_FlexContainer_6df3dbf3701745239fccc5a6be99bc28",
        "type": "ACTION_SEQUENCE",
        "params": [{
            "datatype": "collection",
            "name": "eventobject"
        }],
        "contextObj": {
            "name": "frmNewTransferKA",
            "type": "forms",
            "platform": "",
            "KUID": "2ac343500306428da0ceef91a3b44d18"
        },
        "language": "js",
        "actions": [{
            "id": "ADD_SNIPPET__6076b687670c46deb6ace2f00438e09d",
            "type": "ADD_SNIPPET",
            "codeSnippet": "frequencyOnClick(1);",
            "parentId": null,
            "callbackType": null
        }]
    }
}