{
    "AS_FlexContainer_jab4ee56fd12423ea5f8bf78b0ea8a6e": {
        "id": "AS_FlexContainer_jab4ee56fd12423ea5f8bf78b0ea8a6e",
        "type": "ACTION_SEQUENCE",
        "name": "AS_FlexContainer_transactionSwitchOn",
        "params": [{
            "datatype": "collection",
            "name": "eventobject"
        }],
        "contextObj": {
            "name": "frmAuthorizationAlternatives",
            "type": "forms",
            "platform": "",
            "KUID": "d410b4cb8325465eb5a9cb0f8e472aec"
        },
        "language": "js",
        "actions": [{
            "id": "ADD_SNIPPET__f16e19c25dd94d69a01158df4f399f15",
            "type": "ADD_SNIPPET",
            "codeSnippet": "\nfrmAuthorizationAlternatives.flxSwitchTransactionOff.isVisible = true;\nfrmAuthorizationAlternatives.flxSwitchTransactionsOn.isVisible = false;\n",
            "parentId": null
        }]
    }
}