{
    "AS_FlexContainer_ie4acd7bf4a84c7c8674fc6d6a0e5edc": {
        "id": "AS_FlexContainer_ie4acd7bf4a84c7c8674fc6d6a0e5edc",
        "type": "ACTION_SEQUENCE",
        "params": [{
            "datatype": "collection",
            "name": "eventobject"
        }],
        "language": "js",
        "actions": [{
            "id": "ADD_SNIPPET_ide_onClick_da607e4c892d4f4cb19011217ae30ef7",
            "type": "ADD_SNIPPET",
            "codeSnippet": "onNextofEstmtRegister();",
            "callbackType": null
        }]
    }
}