{
    "AS_FlexContainer_d7e669906988402b9256e880f5cb5605": {
        "id": "AS_FlexContainer_d7e669906988402b9256e880f5cb5605",
        "type": "ACTION_SEQUENCE",
        "params": [{
            "datatype": "collection",
            "name": "eventobject"
        }, {
            "datatype": "string",
            "name": "x"
        }, {
            "datatype": "string",
            "name": "y"
        }],
        "contextObj": {
            "name": "frmChatBots",
            "type": "forms",
            "platform": "",
            "KUID": "a5c82996d9864c6482f65cfffe81fda4"
        },
        "language": "js",
        "actions": [{
            "id": "ADD_SNIPPET__i73a505b68b544f6bd2784c1a0fff53b",
            "type": "ADD_SNIPPET",
            "codeSnippet": "onTouchStart1(eventobject,x,y);",
            "parentId": null,
            "callbackType": null
        }]
    }
}