{
    "AS_FlexContainer_e68c3e051223482e9fac6ceb0f03a750": {
        "id": "AS_FlexContainer_e68c3e051223482e9fac6ceb0f03a750",
        "type": "ACTION_SEQUENCE",
        "params": [{
            "datatype": "collection",
            "name": "eventobject"
        }],
        "language": "js",
        "actions": [{
            "id": "ADD_SNIPPET_ide_onClick_18ab49417c9d4c27866e3c50e6787f1f",
            "type": "ADD_SNIPPET",
            "codeSnippet": "updateSecurityAletStatus(\"payeeDetailsUpdated\");",
            "callbackType": null
        }]
    }
}