{
    "AS_FlexScrollContainer_f331ad382d6d40c885274dde245b1220": {
        "id": "AS_FlexScrollContainer_f331ad382d6d40c885274dde245b1220",
        "type": "ACTION_SEQUENCE",
        "params": [{
            "datatype": "collection",
            "name": "eventobject"
        }],
        "language": "js",
        "actions": [{
            "id": "ADD_SNIPPET_ide_onScrolling_fa5aa982efef4754ba1edef350f75ede",
            "type": "ADD_SNIPPET",
            "codeSnippet": "//outerAccountScroll();",
            "callbackType": null
        }]
    }
}