{
    "AS_Form_fec3b333b50e47afa009a30b26526838": {
        "id": "AS_Form_fec3b333b50e47afa009a30b26526838",
        "type": "ACTION_SEQUENCE",
        "name": "AS_Form_preshowConfirmBillKAA",
        "params": [{
            "datatype": "collection",
            "name": "eventobject"
        }],
        "contextObj": {
            "name": "frmConfirmPayBill",
            "type": "forms",
            "platform": "",
            "KUID": "9244958e3f364c6b9e342b6d7ea74555"
        },
        "language": "js",
        "actions": [{
            "id": "ADD_SNIPPET__b1ad2fcfe11a490fa84ecb970880bc2e",
            "type": "ADD_SNIPPET",
            "codeSnippet": "frmConfirmPayBill.flxMain.showFadingEdges = false;",
            "parentId": null,
            "callbackType": null
        }]
    }
}