{
    "AS_FlexContainer_i84be02fad534f4f9c299feb44d283d3": {
        "id": "AS_FlexContainer_i84be02fad534f4f9c299feb44d283d3",
        "type": "ACTION_SEQUENCE",
        "params": [{
            "datatype": "collection",
            "name": "eventobject"
        }],
        "language": "js",
        "actions": [{
            "id": "NAVIGATE_TO_FORM__ide_onClick_a55153946ba746638e3b2d7020be92ee",
            "type": "NAVIGATE_TO_FORM",
            "formId": "frmMoreLandingKA",
            "formKUID": "f90cf53e47ae407c83e2e30720fff3da",
            "mappings": {},
            "mappingsOrder": [],
            "parentId": "",
            "callbackType": null,
            "enableMappingEditor": true,
            "disabled": true,
            "package": "",
            "navigationObj": "{\n    \"_meta_\": {\n        \"eventName\": \"onClick\",\n        \"widgetId\": \"FlxMore\"\n    }\n}",
            "isCustomInput": false
        }, {
            "id": "ADD_SNIPPET_ide_onClick_d63f2847c4cd4ba8a04b0b50763154b8",
            "type": "ADD_SNIPPET",
            "codeSnippet": "frmJoMoPayRegistration.show();",
            "callbackType": null
        }]
    }
}