{
    "AS_FlexContainer_h2d05ab6074e4740bfad620e73e2de15": {
        "id": "AS_FlexContainer_h2d05ab6074e4740bfad620e73e2de15",
        "type": "ACTION_SEQUENCE",
        "params": [{
            "datatype": "collection",
            "name": "eventobject"
        }],
        "language": "js",
        "actions": [{
            "id": "ADD_SNIPPET_ide_onClick_g2ec6b56b8ca4d63bd7c42e607fb7e8e",
            "type": "ADD_SNIPPET",
            "codeSnippet": "frmAccountsLandingKA.flxAccntLandingNavOptKA.isVisible=false;",
            "callbackType": null
        }]
    }
}