{
    "AS_FlexContainer_aa4bd4fceed14c889dae2ad541b38557": {
        "id": "AS_FlexContainer_aa4bd4fceed14c889dae2ad541b38557",
        "type": "ACTION_SEQUENCE",
        "name": "AS_FlexContainer_CancelCardPopUp",
        "params": [{
            "datatype": "collection",
            "name": "eventobject"
        }],
        "contextObj": {
            "name": "frmManageCardsKA",
            "type": "forms",
            "platform": "",
            "KUID": "75db60b6b4944b7faf9c556f4dbcaf8d"
        },
        "language": "js",
        "actions": [{
            "id": "ADD_SNIPPET__d21c1f3172ca41ea91698ac8abb56970",
            "type": "ADD_SNIPPET",
            "codeSnippet": "//loadStopCardReasons();\nshowCancelCard();",
            "parentId": null,
            "callbackType": null
        }]
    }
}