{
    "AS_FlexContainer_f640e38b44324995ba6b20e3d2167a46": {
        "id": "AS_FlexContainer_f640e38b44324995ba6b20e3d2167a46",
        "type": "ACTION_SEQUENCE",
        "name": "AS_FlexContainer_f640e3editiconRqStmnt",
        "params": [{
            "datatype": "collection",
            "name": "eventobject"
        }],
        "contextObj": {
            "name": "frmRequestStatementAccounts",
            "type": "forms",
            "platform": "",
            "KUID": "gfecebeb3e284d22b50f99352c826586"
        },
        "language": "js",
        "actions": [{
            "id": "ADD_SNIPPET__b5245af0481a4c52bd3f87b260944a0d",
            "type": "ADD_SNIPPET",
            "codeSnippet": "gblsubacclist=\"AccNumberStatement\";\n//frmAccountType.show();\nvar fromAccounts = kony.retailBanking.globalData.accountsDashboardData.accountsData;\ngblTModule=\"AccNumberStatement\";\naccountsScreenPreshow(fromAccounts);\nfrmAccountDetailsScreen.show();",
            "parentId": null
        }]
    }
}