{
    "AS_FlexContainer_c1dc2117eb644cc7a7391be8b8ff6918": {
        "id": "AS_FlexContainer_c1dc2117eb644cc7a7391be8b8ff6918",
        "type": "ACTION_SEQUENCE",
        "params": [{
            "datatype": "collection",
            "name": "eventobject"
        }],
        "language": "js",
        "actions": [{
            "id": "ADD_SNIPPET_ide_onClick_ba11a10d42ba452aafea7db8a6266fca",
            "type": "ADD_SNIPPET",
            "codeSnippet": "frmLoginKA.show();\nfrmRegisterUser.destroy();",
            "callbackType": null
        }]
    }
}