{
    "AS_FlexScrollContainer_caf4101210fe4d0b8fe18f134ba4b10e": {
        "id": "AS_FlexScrollContainer_caf4101210fe4d0b8fe18f134ba4b10e",
        "type": "ACTION_SEQUENCE",
        "params": [{
            "datatype": "collection",
            "name": "eventobject"
        }],
        "language": "js",
        "actions": [{
            "id": "ADD_SNIPPET_ide_onScrolling_ce2b70d3231342de96e2c5c396322f22",
            "type": "ADD_SNIPPET",
            "codeSnippet": "outerAccountScroll();",
            "callbackType": null
        }]
    }
}