{
    "AS_Form_gdfe29d0dcd5424c9ac734db89e85194": {
        "id": "AS_Form_gdfe29d0dcd5424c9ac734db89e85194",
        "type": "ACTION_SEQUENCE",
        "params": [{
            "datatype": "collection",
            "name": "eventobject"
        }],
        "contextObj": {
            "name": "frmCheckingJoint",
            "type": "forms",
            "platform": "",
            "KUID": "b0246be9d9aa4f7a97eafdd44842ffb2"
        },
        "language": "js",
        "actions": [{
            "id": "ADD_SNIPPET__b79dae6b9245403696a0d5704df516f7",
            "type": "ADD_SNIPPET",
            "codeSnippet": "frmCheckingJoint.btnFeaturesKA.skin = \"skntabSelected\";\nfrmCheckingJoint.btnChargesKA.skin = \"sknbtnbgf9f9f9B1pxe2e2e2\";\nfrmCheckingJoint.btnInfoKA.skin = \"sknbtnbgf9f9f9B1pxe2e2e2\";\nfrmCheckingJoint.tabDeselectedIndicator2KA.setVisibility(false);\nfrmCheckingJoint.tabDeselectedIndicator1KA.setVisibility(false);\nfrmCheckingJoint.tabSelectedIndicator.setVisibility(true);\nfrmCheckingJoint.RichTextInfoMain.setVisibility(true);\nfrmCheckingJoint.RichTextInfo1.setVisibility(false);\nfrmCheckingJoint.RichTextInfo2.setVisibility(false);",
            "parentId": null,
            "callbackType": null
        }]
    }
}