{
    "AS_FlexContainer_cbfe812cfa6e4491860ee0459eacc910": {
        "id": "AS_FlexContainer_cbfe812cfa6e4491860ee0459eacc910",
        "type": "ACTION_SEQUENCE",
        "params": [{
            "datatype": "collection",
            "name": "eventobject"
        }],
        "contextObj": {
            "name": "frmManageCardLess",
            "type": "forms",
            "platform": "",
            "KUID": "jd96d8371a184c5ba5a32df58e75e79f"
        },
        "language": "js",
        "actions": []
    }
}