{
    "AS_FlexContainer_daa9c29ea90a4ca1ae60c4dd2286b2de": {
        "id": "AS_FlexContainer_daa9c29ea90a4ca1ae60c4dd2286b2de",
        "type": "ACTION_SEQUENCE",
        "params": [{
            "datatype": "collection",
            "name": "eventobject"
        }],
        "contextObj": {
            "name": "frmEnrolluserLandingKA",
            "type": "forms",
            "platform": "",
            "KUID": "de724966138b4e7c9bfdd35033a0bdb3"
        },
        "language": "js",
        "actions": [{
            "id": "ADD_SNIPPET__d2315c34dd634a7c9fce98ae9c8b1002",
            "type": "ADD_SNIPPET",
            "codeSnippet": "gblFromModule = \"RetriveUsername\";\nfrmRegisterUser.show();",
            "parentId": null,
            "callbackType": null
        }]
    }
}