{
    "AS_FlexContainer_ea323e6592234ad0a2513ff300b2552f": {
        "id": "AS_FlexContainer_ea323e6592234ad0a2513ff300b2552f",
        "type": "ACTION_SEQUENCE",
        "params": [{
            "datatype": "collection",
            "name": "eventobject"
        }],
        "language": "js",
        "actions": [{
            "id": "ADD_SNIPPET_ide_onClick_jebe254c0c2d4512a923713a7b7c5200",
            "type": "ADD_SNIPPET",
            "codeSnippet": "if (parseFloat(frmBulkPaymentKA.lblHiddenSelBillsAmt.text) > 0){\n\tfrmAccountDetailsScreen.lblHead.text = \"Accounts\";\n\tgblTModule = \"BulkPrePayPayment\";\n\tgotoAccountDetailsScreen(1);\n}\nelse{\n  customAlertPopup(geti18Value(\"i18n.common.alert\"), geti18Value(\"i18n.bills.bulkPaymentPay\"),popupCommonAlertDimiss,\"\", geti18nkey(\"i18n.settings.ok\"), \"\");\n}",
            "callbackType": null
        }]
    }
}