{
    "AS_Form_0b6c26bef8d14c8890bf593ab4941a19": {
        "id": "AS_Form_0b6c26bef8d14c8890bf593ab4941a19",
        "type": "ACTION_SEQUENCE",
        "params": [{
            "datatype": "collection",
            "name": "eventobject"
        }],
        "contextObj": {
            "type": "forms",
            "platform": "",
            "KUID": "28dd657fd46d44f99b4f344da39c5ea9"
        },
        "language": "js",
        "actions": [{
            "id": "ADD_SNIPPET__51601d87d6524783ab90389dbde53d91",
            "type": "ADD_SNIPPET",
            "codeSnippet": "//p2pPhoneSetData();",
            "parentId": null,
            "callbackType": null
        }]
    }
}