{
    "AS_FlexContainer_cbb20226d5a44542ab40e35c451cfa55": {
        "id": "AS_FlexContainer_cbb20226d5a44542ab40e35c451cfa55",
        "type": "ACTION_SEQUENCE",
        "params": [{
            "datatype": "collection",
            "name": "eventobject"
        }],
        "language": "js",
        "actions": [{
            "id": "ADD_SNIPPET_ide_onClick_gd33ba5eead4420e83eaf1706b202ee4",
            "type": "ADD_SNIPPET",
            "codeSnippet": "onClickCardsMenu();",
            "callbackType": null
        }]
    }
}