{
    "AS_FlexContainer_ade9cd0537cc409d919956409fb91d77": {
        "id": "AS_FlexContainer_ade9cd0537cc409d919956409fb91d77",
        "type": "ACTION_SEQUENCE",
        "params": [{
            "datatype": "collection",
            "name": "eventobject"
        }, {
            "datatype": "string",
            "name": "x"
        }, {
            "datatype": "string",
            "name": "y"
        }],
        "language": "js",
        "actions": [{
            "id": "ADD_SNIPPET_ide_onTouchStart_f94feaf4e960403fb784e4ca375b27f8",
            "type": "ADD_SNIPPET",
            "codeSnippet": "accountsLandingVC.infeedAdsOnCLick();",
            "callbackType": null
        }]
    }
}