{
    "AS_FlexContainer_f700ab47f8914de7bd01ce1235a433c8": {
        "id": "AS_FlexContainer_f700ab47f8914de7bd01ce1235a433c8",
        "type": "ACTION_SEQUENCE",
        "name": "AS_FlexContainer_eStatmentSwitchOn",
        "params": [{
            "datatype": "collection",
            "name": "eventobject"
        }],
        "contextObj": {
            "name": "frmEditAccountSettings",
            "type": "forms",
            "platform": "",
            "KUID": "ace74a42ca5e45cabde3f7b9d6361bd8"
        },
        "language": "js",
        "actions": [{
            "id": "ADD_SNIPPET__ec41dbf315a04dc6baebbbb64ace8334",
            "type": "ADD_SNIPPET",
            "codeSnippet": "frmEditAccountSettings.flxeStatmentSwitchOff.isVisible = true;\nfrmEditAccountSettings.flxeStatmentSwitchOn.isVisible = false;\n\n",
            "parentId": null,
            "callbackType": null
        }]
    }
}