{
    "AS_FlexContainer_e9fd6c868a2343f2b998b2cd5abb8bc7": {
        "id": "AS_FlexContainer_e9fd6c868a2343f2b998b2cd5abb8bc7",
        "type": "ACTION_SEQUENCE",
        "params": [{
            "datatype": "collection",
            "name": "eventobject"
        }],
        "language": "js",
        "actions": [{
            "id": "ADD_SNIPPET_ide_onClick_c61877961dce4f5580e4c5dea35a4d55",
            "type": "ADD_SNIPPET",
            "codeSnippet": "gblFromModule = \"RegisterUser\";\nfrmRegisterUser.show();\nfrmLoginKA.passwordTextField.text=\"\";",
            "callbackType": null,
            "disabled": false
        }]
    }
}