{
    "AS_Form_cbaed6899c66493eb38b1a4c21117635": {
        "id": "AS_Form_cbaed6899c66493eb38b1a4c21117635",
        "type": "ACTION_SEQUENCE",
        "name": "AS_Form_PreshowCardsLanding",
        "params": [{
            "datatype": "collection",
            "name": "eventobject"
        }],
        "contextObj": {
            "name": "frmCardsLandingKA",
            "type": "forms",
            "platform": "",
            "KUID": "d077415ce83a4f0096a87719325e288d"
        },
        "language": "js",
        "actions": [{
            "id": "ADD_SNIPPET__b3467ae468c64f1296bd4022c0b468c0",
            "type": "ADD_SNIPPET",
            "codeSnippet": "frmCardsLandingKA.flxScrollMain.showFadingEdges = false;",
            "parentId": null,
            "callbackType": null
        }]
    }
}