{
    "AS_Form_ab4095b886ed40668ce9d5877acbbbe9": {
        "id": "AS_Form_ab4095b886ed40668ce9d5877acbbbe9",
        "type": "ACTION_SEQUENCE",
        "actions": [{
            "id": "ADD_SNIPPET__6a9eb51ddfeb4bc89f137a812d191119",
            "type": "ADD_SNIPPET",
            "codeSnippet": "depositPreShow();",
            "parentId": null,
            "callbackType": null
        }]
    }
}