{
    "AS_FlexContainer_afd52be661a7457c9ebc324066978502": {
        "id": "AS_FlexContainer_afd52be661a7457c9ebc324066978502",
        "type": "ACTION_SEQUENCE",
        "params": [{
            "datatype": "collection",
            "name": "eventobject"
        }],
        "contextObj": {
            "type": "forms",
            "platform": "",
            "KUID": "e1a74e2010674478ae32526db3e182de"
        },
        "language": "js",
        "actions": [{
            "id": "ADD_SNIPPET__g6e87f278f3e4b8290c7329308731a8e",
            "type": "ADD_SNIPPET",
            "codeSnippet": "if(frmSelectProductKA.imgCollapsed4.src==\"collapsed.png\")\n  {\n    frmSelectProductKA.imgCollapsed4.src=\"expanded.png\";\n    frmSelectProductKA.segDeposit.isVisible=true;\n  }\nelse\n  {\n    frmSelectProductKA.imgCollapsed4.src=\"collapsed.png\";\n    frmSelectProductKA.segDeposit.isVisible=false;\n  }",
            "parentId": null,
            "callbackType": null
        }]
    }
}