{
    "AS_Form_47c5baa1336e4ee19792ad1ef8adf32a": {
        "id": "AS_Form_47c5baa1336e4ee19792ad1ef8adf32a",
        "type": "ACTION_SEQUENCE",
        "params": [{
            "datatype": "collection",
            "name": "eventobject"
        }],
        "contextObj": {
            "name": "frmDeviceRegistrationOptionsKA",
            "type": "forms",
            "platform": null,
            "KUID": "24f3bbc2ed074c75a9b6604d9e48a90c"
        },
        "language": "js",
        "actions": [{
            "id": "ADD_SNIPPET_ide_onHide_803c769b8ab0492f9ba47a11d582b973",
            "type": "ADD_SNIPPET",
            "codeSnippet": "kony.print(\"Removed\");",
            "callbackType": null
        }]
    }
}