{
    "AS_FlexContainer_ca2771d696a84a02a415566d50949cda": {
        "id": "AS_FlexContainer_ca2771d696a84a02a415566d50949cda",
        "type": "ACTION_SEQUENCE",
        "params": [{
            "datatype": "collection",
            "name": "eventobject"
        }],
        "language": "js",
        "actions": [{
            "id": "ADD_SNIPPET_ide_onClick_b8573b56325a488794f6f872e33ce684",
            "type": "ADD_SNIPPET",
            "codeSnippet": "onClickCardsMenu();",
            "callbackType": null
        }]
    }
}