{
    "AS_Form_dde91e2022fd43b1b5f4e79aa08e9fb9": {
        "id": "AS_Form_dde91e2022fd43b1b5f4e79aa08e9fb9",
        "type": "ACTION_SEQUENCE",
        "name": "AS_Form_preshowCardsList",
        "params": [{
            "datatype": "collection",
            "name": "eventobject"
        }],
        "contextObj": {
            "name": "frmCreditCardNumber",
            "type": "forms",
            "platform": "",
            "KUID": "a036edc0edf6449ebfdbd2bf3d6667cd"
        },
        "language": "js",
        "actions": [{
            "id": "ADD_SNIPPET__f0dc7c918ea640aca4e2ba61d717c13d",
            "type": "ADD_SNIPPET",
            "codeSnippet": "getCreditCards();",
            "parentId": null,
            "callbackType": null
        }]
    }
}