{
    "AS_FlexContainer_gc3b39bbbc114938a8c8e0511d9ece80": {
        "id": "AS_FlexContainer_gc3b39bbbc114938a8c8e0511d9ece80",
        "type": "ACTION_SEQUENCE",
        "params": [{
            "datatype": "collection",
            "name": "eventobject"
        }],
        "contextObj": {
            "name": "frmNewTransferKA",
            "type": "forms",
            "platform": "",
            "KUID": "2ac343500306428da0ceef91a3b44d18"
        },
        "language": "js",
        "actions": [{
            "id": "ADD_SNIPPET__ebbb2a716e444fd4930ca60958be06ec",
            "type": "ADD_SNIPPET",
            "codeSnippet": "kony.print(\"Do nothing\");\n",
            "parentId": null,
            "callbackType": null
        }]
    }
}