{
    "AS_Form_2697689c72fc41f1bf17db6c88fc1310": {
        "id": "AS_Form_2697689c72fc41f1bf17db6c88fc1310",
        "type": "ACTION_SEQUENCE",
        "params": [{
            "datatype": "collection",
            "name": "eventobject"
        }],
        "contextObj": {
            "type": "forms",
            "platform": "",
            "KUID": "ace8b4225caf4b58b3da535a42d2711b"
        },
        "language": "js",
        "actions": [{
            "id": "ADD_SNIPPET__95ff0563e4d84bc9b64294de6898f36d",
            "type": "ADD_SNIPPET",
            "codeSnippet": "kony.print(\"device back\");",
            "parentId": null,
            "callbackType": null
        }]
    }
}