{
    "AS_FlexContainer_gc5babe6f53d4e398bd12047420466a3": {
        "id": "AS_FlexContainer_gc5babe6f53d4e398bd12047420466a3",
        "type": "ACTION_SEQUENCE",
        "params": [{
            "datatype": "collection",
            "name": "eventobject"
        }],
        "contextObj": {
            "name": "frmJoMoPayRegistration",
            "type": "forms",
            "platform": "",
            "KUID": "h0b4f51069c74c7bbbbd6798301d77d6"
        },
        "language": "js",
        "actions": [{
            "id": "ADD_SNIPPET__i50caf2ad7a2470285fc35e14f56b138",
            "type": "ADD_SNIPPET",
            "codeSnippet": "glbJmpFlow = \"dash\";\nfrmJoMoPayLanding.show();",
            "parentId": null,
            "callbackType": null
        }]
    }
}