{
    "AS_FlexContainer_c54c0c62657c4dcd984ff7a71e9d935f": {
        "id": "AS_FlexContainer_c54c0c62657c4dcd984ff7a71e9d935f",
        "type": "ACTION_SEQUENCE",
        "params": [{
            "datatype": "collection",
            "name": "eventobject"
        }],
        "contextObj": {
            "type": "forms",
            "platform": "",
            "KUID": "d632c1724f9840698e446fcf7c83b2ca"
        },
        "language": "js",
        "actions": [{
            "id": "ADD_SNIPPET__e769111c3320467a8b9e2ebadc596f0b",
            "type": "ADD_SNIPPET",
            "codeSnippet": "frmAccountInfoEditKA.copyflxAccountInfoNavOptKA.isVisible=false;",
            "parentId": null,
            "callbackType": null
        }]
    }
}