{
    "AS_FlexContainer_e91ebddc90be4531aa9589318290e04e": {
        "id": "AS_FlexContainer_e91ebddc90be4531aa9589318290e04e",
        "type": "ACTION_SEQUENCE",
        "params": [{
            "datatype": "collection",
            "name": "eventobject"
        }],
        "language": "js",
        "actions": [{
            "id": "ADD_SNIPPET_ide_onClick_ede3779b78824ed1b3847871685097c6",
            "type": "ADD_SNIPPET",
            "codeSnippet": "var currentForm = kony.application.getCurrentForm();\nkony.chatbots.bot.showBotSplash(currentForm);",
            "callbackType": null
        }]
    }
}