{
    "AS_FlexContainer_d3686fab8fea4490a154b0d5bbe3c67c": {
        "id": "AS_FlexContainer_d3686fab8fea4490a154b0d5bbe3c67c",
        "type": "ACTION_SEQUENCE",
        "params": [{
            "datatype": "collection",
            "name": "eventobject"
        }, {
            "datatype": "string",
            "name": "x"
        }, {
            "datatype": "string",
            "name": "y"
        }],
        "language": "js",
        "actions": [{
            "id": "ADD_SNIPPET_ide_onTouchStart_f56c682ec8d64a0780c869133e72da0c",
            "type": "ADD_SNIPPET",
            "codeSnippet": "accountsLandingVC.infeedAdsOnCLick();",
            "callbackType": null
        }]
    }
}