{
    "AS_Form_b464dc4338214ad59ecd48a25089ba12": {
        "id": "AS_Form_b464dc4338214ad59ecd48a25089ba12",
        "type": "ACTION_SEQUENCE",
        "params": [{
            "datatype": "collection",
            "name": "eventobject"
        }],
        "contextObj": {
            "type": "forms",
            "platform": "",
            "KUID": "7891569f547446feb05fd0bfc49efb41"
        },
        "language": "js",
        "actions": [{
            "id": "ADD_SNIPPET__3846e4d696844d83b3a5d0e460626b5d",
            "type": "ADD_SNIPPET",
            "codeSnippet": "accountPreviewPreShow();",
            "parentId": null,
            "callbackType": null
        }]
    }
}