{
    "AS_Form_d007a73f16c44e69817e254731da6d1d": {
        "id": "AS_Form_d007a73f16c44e69817e254731da6d1d",
        "type": "ACTION_SEQUENCE",
        "params": [{
            "datatype": "collection",
            "name": "eventobject"
        }],
        "contextObj": {
            "type": "forms",
            "platform": "",
            "KUID": "fc18fd91a5d94e439cafe361f3aa1224"
        },
        "language": "js",
        "actions": [{
            "id": "ADD_SNIPPET__g2fe28d819e545dfa9d2b3f28502c37d",
            "type": "ADD_SNIPPET",
            "codeSnippet": "kony.print(\"Device Back\");",
            "parentId": null,
            "callbackType": null
        }]
    }
}