{
    "AS_FlexContainer_i3107ccad50343958f52ce52b5546d38": {
        "id": "AS_FlexContainer_i3107ccad50343958f52ce52b5546d38",
        "type": "ACTION_SEQUENCE",
        "params": [{
            "datatype": "collection",
            "name": "eventobject"
        }],
        "contextObj": {
            "name": "frmSettingsKA",
            "type": "forms",
            "platform": "",
            "KUID": "hb0fb66c0c224ed284a1334d78669bfa"
        },
        "language": "js",
        "actions": [{
            "id": "ADD_SNIPPET_ide_onClick_h18dca23de3f4fd98e51ff471d2985c5",
            "type": "ADD_SNIPPET",
            "codeSnippet": "onClickSiriSet();",
            "callbackType": null
        }]
    }
}