{
    "AS_Form_ecbd0818e06c45e0a311713a226feb05": {
        "id": "AS_Form_ecbd0818e06c45e0a311713a226feb05",
        "type": "ACTION_SEQUENCE",
        "name": "AS_Form_devicebackfrmmyaccSettings",
        "params": [{
            "datatype": "collection",
            "name": "eventobject"
        }],
        "contextObj": {
            "name": "frmMyAccountSettingsKA",
            "type": "forms",
            "platform": null,
            "KUID": "h22bc7d202134098869f46b57b12c5f3"
        },
        "language": "js",
        "actions": [{
            "id": "ADD_SNIPPET__b80ed366a9c3405d9d93d55349f20cb6",
            "type": "ADD_SNIPPET",
            "codeSnippet": "kony.print(\"Do nothing\");\nfrmSettingsKA.show();",
            "parentId": null
        }]
    }
}