{
    "AS_FlexContainer_eed8c4d0cfe64bdfa40b813f89cfdbb8": {
        "id": "AS_FlexContainer_eed8c4d0cfe64bdfa40b813f89cfdbb8",
        "type": "ACTION_SEQUENCE",
        "params": [{
            "datatype": "collection",
            "name": "eventobject"
        }],
        "contextObj": {
            "name": "frmUserSettingsTouchIdKA",
            "type": "forms",
            "platform": "",
            "KUID": "16105f00f47f4b3aac423736a1b9dbdf"
        },
        "language": "js",
        "actions": [{
            "id": "ADD_SNIPPET__d61b033b5cd64ba7a6e585d7278ac0fe",
            "type": "ADD_SNIPPET",
            "codeSnippet": "kony.print(\"diffFlowFlag :: \"+ diffFlowFlag);\nif(diffFlowFlag == \"LOGINFLOW\"){\nfrmAuthorizationAlternatives.show();\n}else{\nfrmSettingsKA.show();\n}",
            "parentId": null,
            "callbackType": null
        }]
    }
}