{
    "AS_FlexContainer_i117a263066c4e1199dd6865ed037b78": {
        "id": "AS_FlexContainer_i117a263066c4e1199dd6865ed037b78",
        "type": "ACTION_SEQUENCE",
        "name": "AS_FlexContainer_CardlessTransactionOnClickTermsAndCondition",
        "params": [{
            "datatype": "collection",
            "name": "eventobject"
        }, {
            "datatype": "string",
            "name": "x"
        }, {
            "datatype": "string",
            "name": "y"
        }],
        "language": "js",
        "actions": [{
            "id": "ADD_SNIPPET_ide_onClick_idf3ef9a4c994155ba1203d467a09c0d",
            "type": "ADD_SNIPPET",
            "codeSnippet": "//navigate_INTERNAL_TERMSANDCONDITION_SCREEN(kony.application.getCurrentForm(), \"Cardless\");\n\n// var langObj = kony.store.getItem(\"langPrefObj\");\n// if(langObj.toUpperCase() === \"EN\"){\n//   frmCardlessTransaction.BrowserTCCardless.requestURLConfig= {\n//               \"URL\": \"http://bojm01jo2020.dev.dot.jo/rewards/tccdle\",\n//               \"requestMethod\": constants.BROWSER_REQUEST_METHOD_GET\n//           };\n// }else{\n//   frmCardlessTransaction.BrowserTCCardless.requestURLConfig= {\n//               \"URL\": \"http://bojm01jo2020.dev.dot.jo/ar/rewards/tccdla\",\n//               \"requestMethod\": constants.BROWSER_REQUEST_METHOD_GET\n//           };\n// }\nfrmCardlessTransaction.flxBody.isVisible=false;\nfrmCardlessTransaction.btnNextCardless.setVisibility(false);\nfrmCardlessTransaction.BrowserTCCardless.isVisible=true;\n",
            "callbackType": null
        }]
    }
}