{
    "AS_FlexContainer_f23ebe8f000d4911958470cdc85a7af4": {
        "id": "AS_FlexContainer_f23ebe8f000d4911958470cdc85a7af4",
        "type": "ACTION_SEQUENCE",
        "params": [{
            "datatype": "collection",
            "name": "eventobject"
        }],
        "contextObj": {
            "name": "frmCardsAddNickname",
            "type": "forms",
            "platform": null,
            "KUID": "d382c627ba0b45cfb446cc6dd8d8759e"
        },
        "language": "js",
        "actions": [{
            "id": "ADD_SNIPPET_ide_onClick_e47cda22eeb3491aa3686b02047271c0",
            "type": "ADD_SNIPPET",
            "codeSnippet": "frmCardsAddNickname.flxShowHideSwitchOn.isVisible  = true;  \nfrmCardsAddNickname.flxShowHideSwitchOff.isVisible = false;\n  \n",
            "callbackType": null
        }]
    }
}