{
    "AS_FlexContainer_b9b25475b6d349638ea55cb47e91b4c5": {
        "id": "AS_FlexContainer_b9b25475b6d349638ea55cb47e91b4c5",
        "type": "ACTION_SEQUENCE",
        "params": [{
            "datatype": "collection",
            "name": "eventobject"
        }],
        "language": "js",
        "actions": [{
            "id": "ADD_SNIPPET_ide_onClick_d0b8fbb0232146419a401d2fd2b0026c",
            "type": "ADD_SNIPPET",
            "codeSnippet": "if(QuickFlowprev == \"bill\")\n\tfrmBills.show();\nelse\n  frmNewBillDetails.show();",
            "callbackType": null
        }]
    }
}