{
    "AS_Form_f41f939b6dcd4dc19a554c68fc969abb": {
        "id": "AS_Form_f41f939b6dcd4dc19a554c68fc969abb",
        "type": "ACTION_SEQUENCE",
        "params": [{
            "datatype": "collection",
            "name": "eventobject"
        }],
        "contextObj": {
            "name": "frmAddNewPrePayeeKA",
            "type": "forms",
            "platform": null,
            "KUID": "a843292d9c674ff7ba10a9b594b7e7e5"
        },
        "language": "js",
        "actions": [{
            "id": "ADD_SNIPPET_ide_onDeviceBack_edf4853259eb4b5aba9b1273bc09e179",
            "type": "ADD_SNIPPET",
            "codeSnippet": "customAlertPopup(geti18Value(\"i18n.common.AreYouSure\"), \n                 geti18Value(\"i18n.Bene.backFromBeneError\"),\n                kony.boj.onClickYesBackAddBene, popupCommonAlertDimiss, \n                geti18Value(\"i18n.common.YES\"),\n                geti18Value(\"i18n.common.NO\"));",
            "callbackType": null
        }]
    }
}