{
    "AS_FlexContainer_gaa469fd793f43b6ad86e7aa511fbaa0": {
        "id": "AS_FlexContainer_gaa469fd793f43b6ad86e7aa511fbaa0",
        "type": "ACTION_SEQUENCE",
        "params": [{
            "datatype": "collection",
            "name": "eventobject"
        }],
        "contextObj": {
            "name": "iphoneFooterAr",
            "type": "templates",
            "platform": null,
            "KUID": "d18adb1bf93a460eb89a9f1da80f952f"
        },
        "language": "js",
        "actions": [{
            "id": "ADD_SNIPPET_ide_onClick_cd2689bbd22d45278ab1dcb1837a14be",
            "type": "ADD_SNIPPET",
            "codeSnippet": "gblfrmName = \"\";\nadditionalValidationRdc(this,gotoDeposits);\n",
            "callbackType": null
        }]
    }
}