{
    "AS_FlexContainer_ice175df59814043b147a807c571ba86": {
        "id": "AS_FlexContainer_ice175df59814043b147a807c571ba86",
        "type": "ACTION_SEQUENCE",
        "params": [{
            "datatype": "collection",
            "name": "eventobject"
        }],
        "language": "js",
        "actions": [{
            "id": "ADD_SNIPPET_ide_onClick_d0afa4e8217e441e97e10421f9a1fbf2",
            "type": "ADD_SNIPPET",
            "codeSnippet": "kony.print(\"Removed\");",
            "callbackType": null
        }]
    }
}