{
    "AS_FlexContainer_b1329283a171497e9c7614143aa791eb": {
        "id": "AS_FlexContainer_b1329283a171497e9c7614143aa791eb",
        "type": "ACTION_SEQUENCE",
        "name": "AS_FlexContainer_onClickLoanPostPone",
        "params": [{
            "datatype": "collection",
            "name": "eventobject"
        }],
        "contextObj": {
            "name": "frmAccountInfoKA",
            "type": "forms",
            "platform": "",
            "KUID": "b2f984d11c5244e6ae5f81fe393d837e"
        },
        "language": "js",
        "actions": [{
            "id": "ADD_SNIPPET__jca502c53b4d443c908a01015a2d4b91",
            "type": "ADD_SNIPPET",
            "codeSnippet": "navigate_LOAN_POSTPONE();",
            "parentId": null,
            "callbackType": null
        }]
    }
}