{
    "AS_FlexContainer_dea82a277ad249e3a30a1ac947dd2ae3": {
        "id": "AS_FlexContainer_dea82a277ad249e3a30a1ac947dd2ae3",
        "type": "ACTION_SEQUENCE",
        "params": [{
            "datatype": "collection",
            "name": "eventobject"
        }],
        "contextObj": {
            "name": "frmAddNewPrePayeeKA",
            "type": "forms",
            "platform": null,
            "KUID": "a843292d9c674ff7ba10a9b594b7e7e5"
        },
        "language": "js",
        "actions": [{
            "id": "ADD_SNIPPET_ide_onClick_b9c1d1b2d90f41a5890763ff115e624c",
            "type": "ADD_SNIPPET",
            "codeSnippet": "if(JSON.stringify(kony.boj.Biller[kony.boj.selectedBillerType].selectedBiller) == '{}'){\n  frmAddNewPrePayeeKA.flxUnderlineServiceType.skin = \"sknFlxOrangeLine\";\n  frmAddNewPrePayeeKA.flxUnderlineBillerName.skin = \"sknFlxOrangeLine\";\n  if(JSON.stringify(kony.boj.Biller[kony.boj.selectedBillerType].selectedBillerCategory) == '{}')\n    frmAddNewPrePayeeKA.flxUnderlineBillerCategory.skin = \"sknFlxOrangeLine\";\n}\nelse{\n    kony.boj.callService(\"GetPPServiceType\");\n}",
            "callbackType": null
        }]
    }
}