{
    "AS_FlexContainer_c2f4ad02a9dc4ed09e432912e8f81557": {
        "id": "AS_FlexContainer_c2f4ad02a9dc4ed09e432912e8f81557",
        "type": "ACTION_SEQUENCE",
        "name": "AS_FlexContainer_onTouchStartPlusAmountCardless",
        "params": [{
            "datatype": "collection",
            "name": "eventobject"
        }, {
            "datatype": "string",
            "name": "x"
        }, {
            "datatype": "string",
            "name": "y"
        }],
        "contextObj": {
            "name": "frmCardlessTransaction",
            "type": "forms",
            "platform": "",
            "KUID": "b7e7974060664c0093c575d8bba1e829"
        },
        "language": "js",
        "actions": [{
            "id": "ADD_SNIPPET__i8d573d865834bbea33948a96debdcd1",
            "type": "ADD_SNIPPET",
            "codeSnippet": "changeAmountFunction(\"plus\");",
            "parentId": null,
            "callbackType": null
        }]
    }
}