{
    "AS_FlexContainer_b6b656fc388c4d7783f4cadf2fef2564": {
        "id": "AS_FlexContainer_b6b656fc388c4d7783f4cadf2fef2564",
        "type": "ACTION_SEQUENCE",
        "params": [{
            "datatype": "collection",
            "name": "eventobject"
        }],
        "language": "js",
        "actions": [{
            "id": "ADD_SNIPPET_ide_onClick_a0340a98288947d09a7ce43d70fdb357",
            "type": "ADD_SNIPPET",
            "codeSnippet": "onClickCardsMenu();",
            "callbackType": null
        }]
    }
}