{
    "AS_FlexContainer_e921e086574c4de2ba840afe7dfc5e60": {
        "id": "AS_FlexContainer_e921e086574c4de2ba840afe7dfc5e60",
        "type": "ACTION_SEQUENCE",
        "params": [{
            "datatype": "collection",
            "name": "eventobject"
        }],
        "language": "js",
        "actions": [{
            "id": "ADD_SNIPPET_ide_onClick_e0fae6f055d54f03bdf95326a4952182",
            "type": "ADD_SNIPPET",
            "codeSnippet": "// var currentForm = kony.application.getCurrentForm();\n// kony.chatbots.bot.showBotSplash(currentForm);",
            "callbackType": null
        }]
    }
}