{
    "AS_FlexContainer_d5c54462a6fb45b58763776507b6e572": {
        "id": "AS_FlexContainer_d5c54462a6fb45b58763776507b6e572",
        "type": "ACTION_SEQUENCE",
        "params": [{
            "datatype": "collection",
            "name": "eventobject"
        }],
        "language": "js",
        "actions": [{
            "id": "ADD_SNIPPET_ide_onClick_eae85410e3354300bddec2d66e19095a",
            "type": "ADD_SNIPPET",
            "codeSnippet": "gblfrmName = \"\";\nadditionalValidationRdc(this,gotoDeposits);\n",
            "callbackType": null
        }]
    }
}