{
    "AS_FlexContainer_848c27f7501f4a98a737366841eab29b": {
        "id": "AS_FlexContainer_848c27f7501f4a98a737366841eab29b",
        "type": "ACTION_SEQUENCE",
        "params": [{
            "datatype": "collection",
            "name": "eventobject"
        }],
        "language": "js",
        "actions": [{
            "id": "OPEN_URL_ide_onClick_a046afca948d40a68237fb9c406e6fc2",
            "type": "OPEN_URL",
            "url": "http://pmqa.konylabs.net/KonyWebBanking/campaign.html",
            "callbackType": null
        }]
    }
}