{
    "AS_FlexContainer_c829900104934d019c545caee7d61292": {
        "id": "AS_FlexContainer_c829900104934d019c545caee7d61292",
        "type": "ACTION_SEQUENCE",
        "params": [{
            "datatype": "collection",
            "name": "eventobject"
        }],
        "contextObj": {
            "name": "frmCardsAddNickname",
            "type": "forms",
            "platform": null,
            "KUID": "d382c627ba0b45cfb446cc6dd8d8759e"
        },
        "language": "js",
        "actions": [{
            "id": "ADD_SNIPPET_ide_onClick_b4d766a59aae4bc1b4e0e4f810df7795",
            "type": "ADD_SNIPPET",
            "codeSnippet": "frmEditAccountSettings.flxeStatmentSwitchOff.isVisible = true;\nfrmEditAccountSettings.flxeStatmentSwitchOn.isVisible = false;\n\n",
            "callbackType": null
        }]
    }
}