{
    "AS_Form_hee1174092bf4999943b1d9c00270e2a": {
        "id": "AS_Form_hee1174092bf4999943b1d9c00270e2a",
        "type": "ACTION_SEQUENCE",
        "params": [{
            "datatype": "collection",
            "name": "eventobject"
        }],
        "contextObj": {
            "name": "frmNewUserOnboardVerificationKA",
            "type": "forms",
            "platform": "",
            "KUID": "ie7b921fac134bd8a8afb16afc085409"
        },
        "language": "js",
        "actions": [{
            "id": "ADD_SNIPPET__cd358fd2ffd148a2992107414fd9d64a",
            "type": "ADD_SNIPPET",
            "codeSnippet": "deregisterWithSMSListener();",
            "parentId": null,
            "callbackType": null
        }]
    }
}