{
    "AS_FlexContainer_cb0bfe090df642f985d1872c33cd1cc0": {
        "id": "AS_FlexContainer_cb0bfe090df642f985d1872c33cd1cc0",
        "type": "ACTION_SEQUENCE",
        "params": [{
            "datatype": "collection",
            "name": "eventobject"
        }],
        "language": "js",
        "actions": [{
            "id": "ADD_SNIPPET_ide_onClick_d6aacadb484642b5a6829e481eec6c81",
            "type": "ADD_SNIPPET",
            "codeSnippet": "// frmNewBillKA.show();\nvar previousForm = kony.application.getPreviousForm();\npreviousForm.show();",
            "callbackType": null
        }]
    }
}