{
    "AS_FlexContainer_cd31ec1a0f2441f1aeb408af4f379ea7": {
        "id": "AS_FlexContainer_cd31ec1a0f2441f1aeb408af4f379ea7",
        "type": "ACTION_SEQUENCE",
        "params": [{
            "datatype": "collection",
            "name": "eventobject"
        }],
        "contextObj": {
            "KUID": "a7af44ce35e44a7ea6c9516ec3bff4eb",
            "platform": "",
            "type": "forms"
        },
        "language": "js",
        "actions": [{
            "id": "ADD_SNIPPET__a2a3ddfa1cf344ca9f6667675cb8c84d",
            "type": "ADD_SNIPPET",
            "codeSnippet": "// frmConfirmationEPS.show();",
            "parentId": null,
            "callbackType": null
        }]
    }
}