{
    "AS_Form_e43bbee145e041cbaa5d5cd8870de70f": {
        "id": "AS_Form_e43bbee145e041cbaa5d5cd8870de70f",
        "type": "ACTION_SEQUENCE",
        "params": [{
            "datatype": "collection",
            "name": "eventobject"
        }],
        "contextObj": {
            "name": "frmConfirmNPPRegistration",
            "type": "forms",
            "platform": null,
            "KUID": "e6a1d365d76b48e1bf53a6a1a73bbeb0"
        },
        "language": "js",
        "actions": [{
            "id": "ADD_SNIPPET__c80c720c2f6c4702aa640367054089ba",
            "type": "ADD_SNIPPET",
            "codeSnippet": "kony.print(\"device back\");",
            "parentId": null,
            "callbackType": null
        }]
    }
}