{
    "AS_FlexContainer_j7ceeae0de4b46f0b0437ccc3d75b918": {
        "id": "AS_FlexContainer_j7ceeae0de4b46f0b0437ccc3d75b918",
        "type": "ACTION_SEQUENCE",
        "params": [{
            "datatype": "collection",
            "name": "eventobject"
        }],
        "contextObj": {
            "name": "frmUserSettingsSiri",
            "type": "forms",
            "platform": null,
            "KUID": "f6a73333c5b04d9f97a80b02ff57e6ae"
        },
        "language": "js",
        "actions": [{
            "id": "ADD_SNIPPET_ide_onClick_h768be2b37fa49c4a1459b69c385dbef",
            "type": "ADD_SNIPPET",
            "codeSnippet": "customAlertPopup(geti18Value(\"i18n.cards.Confirmation\"), kony.i18n.getLocalizedString(\"i18n.Siri.SureEnableText\"), askSiriPermission, popupCommonAlertDimiss, kony.i18n.getLocalizedString(\"i18n.common.YES\"), kony.i18n.getLocalizedString(\"i18n.common.NO\")); "
        }]
    }
}