{
    "AS_Form_e1b96cb66ed04a5d87f5d26284484355": {
        "id": "AS_Form_e1b96cb66ed04a5d87f5d26284484355",
        "type": "ACTION_SEQUENCE",
        "params": [{
            "datatype": "collection",
            "name": "eventobject"
        }],
        "contextObj": {
            "name": "frmDirectionsKA",
            "type": "forms",
            "platform": "",
            "KUID": "2a844aaae75b49948039c6e28c65dfcc"
        },
        "language": "js",
        "actions": [{
            "id": "ADD_SNIPPET__42cd7c91c2f14bc98f16ca068b2b12c3",
            "type": "ADD_SNIPPET",
            "codeSnippet": "directionPreShow();",
            "parentId": null,
            "callbackType": null
        }]
    }
}