{
    "AS_Form_d86821a21bcb4d96b49bd44254326b7c": {
        "id": "AS_Form_d86821a21bcb4d96b49bd44254326b7c",
        "type": "ACTION_SEQUENCE",
        "params": [{
            "datatype": "collection",
            "name": "eventobject"
        }],
        "contextObj": {
            "name": "frmContactUsKA",
            "type": "forms",
            "platform": "",
            "KUID": "3730b7e8806c47969fff751b469e1811"
        },
        "language": "js",
        "actions": [{
            "id": "ADD_SNIPPET__bab68156c9d64eaea8cdc6e2dd54f1db",
            "type": "ADD_SNIPPET",
            "codeSnippet": "frmContactUsKA.lblMobile.text = bojcontactnumber;\nfrmContactUsKA.lblEmail.text = bojemailID;",
            "parentId": null,
            "callbackType": null
        }]
    }
}