{
    "AS_Image_d730564096bc4e3c93b5b9101d35476a": {
        "id": "AS_Image_d730564096bc4e3c93b5b9101d35476a",
        "type": "ACTION_SEQUENCE",
        "params": [{
            "datatype": "collection",
            "name": "eventobject"
        }, {
            "datatype": "string",
            "name": "x"
        }, {
            "datatype": "string",
            "name": "y"
        }],
        "contextObj": {
            "name": "frmDepositPayLandingKA",
            "type": "forms",
            "platform": "",
            "KUID": "dd44156e890e4ee28360f50ee6c67184"
        },
        "language": "js",
        "actions": [{
            "id": "ADD_SNIPPET__c70a56f8113a47a3818ed83040a2c315",
            "type": "ADD_SNIPPET",
            "codeSnippet": "setSegmentData(\"frmDepositPayLandingKA\");\n",
            "parentId": null,
            "callbackType": null
        }]
    }
}