{
    "AS_Image_f413013b0a954673b0533cafb5b5b403": {
        "id": "AS_Image_f413013b0a954673b0533cafb5b5b403",
        "type": "ACTION_SEQUENCE",
        "params": [{
            "datatype": "collection",
            "name": "eventobject"
        }, {
            "datatype": "string",
            "name": "x"
        }, {
            "datatype": "string",
            "name": "y"
        }],
        "contextObj": {
            "name": "frmRegisterUser",
            "type": "forms",
            "platform": "",
            "KUID": "cd7432ec5087404590338186c94e35d2"
        },
        "language": "js",
        "actions": [{
            "id": "ADD_SNIPPET__a456933a6a37474f8f6e1cecd537060c",
            "type": "ADD_SNIPPET",
            "codeSnippet": "\n//kony.timer.schedule(\"scanCardTimer\",scanCardTimerFn, 15, false);\nif (isAndroid()) {\n  BojScan.BlinkCardMethodInvoker(microBlinkCallBack,SCANCARDLICENSEANDROID);\n}else{\n  //Creates an object of class 'iPhoneMicroBlink'\nvar iPhoneMicroBlinkObject = new BojScan.iPhoneMicroBlink(SCANCARDLICENSEIOS);\n//Invokes method 'scanCardWithCallback' on the object\niPhoneMicroBlinkObject.scanCardWithCallback(\n\t\t/**Function*/ microBlinkCallBack);\n}",
            "parentId": null,
            "callbackType": null
        }]
    }
}