{
    "AS_Image_fd29aba284874589b7ff2faadcdb9346": {
        "id": "AS_Image_fd29aba284874589b7ff2faadcdb9346",
        "type": "ACTION_SEQUENCE",
        "params": [{
            "datatype": "collection",
            "name": "eventobject"
        }, {
            "datatype": "string",
            "name": "x"
        }, {
            "datatype": "string",
            "name": "y"
        }],
        "contextObj": {
            "type": "forms",
            "platform": "",
            "KUID": "j32d10a95dd64de1812ebf4238033a0b"
        },
        "language": "js",
        "actions": [{
            "id": "ADD_SNIPPET__eae78440a4c1439b929aa21d3bbdf2d2",
            "type": "ADD_SNIPPET",
            "codeSnippet": "kony.print(\"Deleted\");",
            "parentId": null,
            "callbackType": null
        }]
    }
}