{
    "AS_Image_7135c542bc8b4663b6655484cfd6d0ec": {
        "id": "AS_Image_7135c542bc8b4663b6655484cfd6d0ec",
        "type": "ACTION_SEQUENCE",
        "params": [{
            "datatype": "collection",
            "name": "eventobject"
        }, {
            "datatype": "string",
            "name": "x"
        }, {
            "datatype": "string",
            "name": "y"
        }],
        "contextObj": {
            "name": "frmAccountInfoKA",
            "type": "forms",
            "platform": "",
            "KUID": "b2f984d11c5244e6ae5f81fe393d837e"
        },
        "language": "js",
        "actions": [{
            "id": "ADD_SNIPPET__b4d25e544e3041e3af22b4b4a782f721",
            "type": "ADD_SNIPPET",
            "codeSnippet": "setSegmentData(\"frmAccountInfoKA\");\nfrmAccountInfoKA.flxAccountInfoNavOptKA.isVisible=true;",
            "parentId": null,
            "callbackType": null
        }]
    }
}