{
    "AS_Image_jed0ad455cc34e91b664ead26db35d4e": {
        "id": "AS_Image_jed0ad455cc34e91b664ead26db35d4e",
        "type": "ACTION_SEQUENCE",
        "params": [{
            "datatype": "collection",
            "name": "eventobject"
        }, {
            "datatype": "string",
            "name": "x"
        }, {
            "datatype": "string",
            "name": "y"
        }],
        "contextObj": {
            "name": "frmUserSettingsSiri",
            "type": "forms",
            "platform": null,
            "KUID": "f6a73333c5b04d9f97a80b02ff57e6ae"
        },
        "language": "js",
        "actions": [{
            "id": "ADD_SNIPPET_ide_onTouchStart_c5b996ce8960452887f3c4cdfd1a6125",
            "type": "ADD_SNIPPET",
            "codeSnippet": "kony.localAuthentication.cancelAuthentication();\nfrmLoginKA.loginMainScreen.opacity = 1;\nfrmLoginKA.loginMainPINScreen.opacity = 0;\nfrmLoginKA.flxtouchIdAndrd.setVisibility(false);\nfrmLoginKA.skin=\"sknLoginMainPage\";\nfrmLoginKA.loginMainScreen.setVisibility(true);\nfrmLoginKA.loginMainScreen.setEnabled(true);\nfrmLoginKA.loginMainPINScreen.setEnabled(true);\nloginPreShow();\nkony.sdk.mvvm.KonyApplicationContext.dismissLoadingScreen();",
            "callbackType": null
        }]
    }
}