{
    "AS_Label_a771122b5b584536b0c42ea1d3bdd9b4": {
        "id": "AS_Label_a771122b5b584536b0c42ea1d3bdd9b4",
        "type": "ACTION_SEQUENCE",
        "params": [{
            "datatype": "collection",
            "name": "eventobject"
        }, {
            "datatype": "string",
            "name": "x"
        }, {
            "datatype": "string",
            "name": "y"
        }],
        "language": "js",
        "actions": [{
            "id": "ADD_SNIPPET_ide_onTouchStart_a02347e417b8413f8ed1b6fc22265bbb",
            "type": "ADD_SNIPPET",
            "codeSnippet": "frmConfirmPayBill.show();",
            "callbackType": null
        }]
    }
}