{
    "AS_ListBox_72ecb1c8b89a46769cfe8df2c3019554": {
        "id": "AS_ListBox_72ecb1c8b89a46769cfe8df2c3019554",
        "type": "ACTION_SEQUENCE",
        "params": [{
            "datatype": "collection",
            "name": "eventobject"
        }],
        "language": "js",
        "actions": [{
            "id": "ADD_SNIPPET_ide_onSelection_0da3d3de52e04a6cafdddd617e107f1a",
            "type": "ADD_SNIPPET",
            "codeSnippet": "onlbxDateRangeSelected();",
            "callbackType": null
        }]
    }
}