{
    "AS_Label_a96d27113db84dc8b7d314979e71cc9e": {
        "id": "AS_Label_a96d27113db84dc8b7d314979e71cc9e",
        "type": "ACTION_SEQUENCE",
        "params": [{
            "datatype": "collection",
            "name": "eventobject"
        }, {
            "datatype": "string",
            "name": "x"
        }, {
            "datatype": "string",
            "name": "y"
        }],
        "contextObj": {
            "name": "frmCurrency",
            "type": "forms",
            "platform": "",
            "KUID": "ad97ea383c7f4e06ae53164a57723f84"
        },
        "language": "js",
        "actions": [{
            "id": "ADD_SNIPPET__be4f25f0afa3496897effd8080179411",
            "type": "ADD_SNIPPET",
            "codeSnippet": "if(gblTModule === \"countryCode\"){\n\tset_COUNTRYCODE_TO_SEGMENT();\n}else\n\tsetDataInSegment();\nfrmCurrency.tbxSearch.text = \"\";",
            "parentId": null,
            "callbackType": null
        }]
    }
}