{
    "AS_Label_g655ca67a10b4163a219a910345098ec": {
        "id": "AS_Label_g655ca67a10b4163a219a910345098ec",
        "type": "ACTION_SEQUENCE",
        "params": [{
            "datatype": "collection",
            "name": "eventobject"
        }, {
            "datatype": "string",
            "name": "x"
        }, {
            "datatype": "string",
            "name": "y"
        }],
        "contextObj": {
            "name": "frmLoginKA",
            "type": "forms",
            "platform": "",
            "KUID": "7b1aa8fceb6b4070833e9eab879b0e5e"
        },
        "language": "js",
        "actions": [{
            "id": "NAMED_ACTION____d3c1befc5db64236b0dba2643a85c46d",
            "type": "NAMED_ACTION",
            "sequenceKUID": "AS_Button_bcc85b20219b45e8be7e1a01dbe48752",
            "display": "TouchLoginClick",
            "inputparams": [{
                "datatype": "collection",
                "name": "eventobject"
            }],
            "parentId": null,
            "callbackType": null,
            "disabled": null,
            "isMasterInstanceAction": null
        }]
    }
}