{
    "AS_Label_fcd47d409b0a4ea99f6050bed45ac193": {
        "id": "AS_Label_fcd47d409b0a4ea99f6050bed45ac193",
        "type": "ACTION_SEQUENCE",
        "name": "AS_Label_onClickTermsAndCondCardless",
        "params": [{
            "datatype": "collection",
            "name": "eventobject"
        }, {
            "datatype": "string",
            "name": "x"
        }, {
            "datatype": "string",
            "name": "y"
        }],
        "contextObj": {
            "name": "frmCardlessTransaction",
            "type": "forms",
            "platform": "",
            "KUID": "b7e7974060664c0093c575d8bba1e829"
        },
        "language": "js",
        "actions": [{
            "id": "ADD_SNIPPET__b62cbd706f9b41a3a3c2ed67fb8ab971",
            "type": "ADD_SNIPPET",
            "codeSnippet": "if (frmCardlessTransaction.lblTermsandConditionsCheckBox.text === \"q\")\n  frmCardlessTransaction.lblTermsandConditionsCheckBox.text=\"p\";\nelse\n  frmCardlessTransaction.lblTermsandConditionsCheckBox.text=\"q\";\n\ncheckNextCardless();",
            "parentId": null,
            "callbackType": null
        }]
    }
}