{
    "AS_Label_ced3895936d2431484674dcdb319df0a": {
        "id": "AS_Label_ced3895936d2431484674dcdb319df0a",
        "type": "ACTION_SEQUENCE",
        "params": [{
            "datatype": "collection",
            "name": "eventobject"
        }, {
            "datatype": "string",
            "name": "x"
        }, {
            "datatype": "string",
            "name": "y"
        }],
        "language": "js",
        "actions": [{
            "id": "ADD_SNIPPET_ide_onTouchEnd_f803646cc3c740bdad789233d0de917d",
            "type": "ADD_SNIPPET",
            "codeSnippet": "if(frmAddExternalAccountKA.tbxCountry.text === \"\" || frmAddExternalAccountKA.tbxCountry.text === \"BR\" || frmAddExternalAccountKA.tbxCountry.text ===\"CA\")\n  kony.boj.showSelectedDetailsFromBene(\"City\", \"lblCityName\", \"JOR\");\nelse\n  kony.boj.showSelectedDetailsFromBene(\"City\", \"lblCityName\", frmAddExternalAccountKA.tbxCountry.text);",
            "callbackType": null
        }]
    }
}