{
    "AS_Label_ed80e06e027b41f09f5bbcd82969809b": {
        "id": "AS_Label_ed80e06e027b41f09f5bbcd82969809b",
        "type": "ACTION_SEQUENCE",
        "params": [{
            "datatype": "collection",
            "name": "eventobject"
        }, {
            "datatype": "string",
            "name": "x"
        }, {
            "datatype": "string",
            "name": "y"
        }],
        "language": "js",
        "actions": [{
            "id": "ADD_SNIPPET_ide_onTouchEnd_h8162c167b494561b8999149f57ff713",
            "type": "ADD_SNIPPET",
            "codeSnippet": "//var context={\"widget\":frmAccountDetailKA.accountDetailsTransactions,\"anchor\":\"bottom\",\"sizetoanchorwidth\":false};\n//popupSort.setContext(context);\n// popupSort.show();\nanimatePopup_Sort();",
            "callbackType": null
        }]
    }
}