{
    "AS_ListBox_09d4a8a071474b8aa65612a23096a41f": {
        "id": "AS_ListBox_09d4a8a071474b8aa65612a23096a41f",
        "type": "ACTION_SEQUENCE",
        "params": [{
            "datatype": "collection",
            "name": "eventobject"
        }],
        "language": "js",
        "actions": [{
            "id": "ADD_SNIPPET_ide_onSelection_ea393c7d30d04202bc80a2893d48b09c",
            "type": "ADD_SNIPPET",
            "codeSnippet": "validateNewMessage();",
            "callbackType": null
        }]
    }
}