{
    "AS_ListBox_2e8f2af107ce4b05b72aebc0a3c5cd34": {
        "id": "AS_ListBox_2e8f2af107ce4b05b72aebc0a3c5cd34",
        "type": "ACTION_SEQUENCE",
        "params": [{
            "datatype": "collection",
            "name": "eventobject"
        }],
        "contextObj": {
            "type": "forms",
            "platform": "",
            "KUID": "595170e0ad324e3699d120dae6f9e312"
        },
        "language": "js",
        "actions": [{
            "id": "ADD_SNIPPET__5a9f24e544c644ecb7c1ce1a0727ee1b",
            "type": "ADD_SNIPPET",
            "codeSnippet": "kony.print(\"Deleted\");",
            "parentId": null,
            "callbackType": null
        }]
    }
}