{
    "AS_ListBox_eb7493fc2e24416faf80f9c8a8971cd8": {
        "id": "AS_ListBox_eb7493fc2e24416faf80f9c8a8971cd8",
        "type": "ACTION_SEQUENCE",
        "params": [{
            "datatype": "collection",
            "name": "eventobject"
        }],
        "language": "js",
        "actions": [{
            "id": "ADD_SNIPPET_ide_onSelection_e226956f5cae44889885f4ef485ee829",
            "type": "ADD_SNIPPET",
            "codeSnippet": "frmAddExternalAccountKA.tbxCity.text = frmAddExternalAccountKA.ListCityKA.selectedKeyValue[1];\nkony.boj.addBeneNextStatus();",
            "callbackType": null
        }]
    }
}