{
    "AS_Label_j6ef68c16fbc4452aa068075cb0131d7": {
        "id": "AS_Label_j6ef68c16fbc4452aa068075cb0131d7",
        "type": "ACTION_SEQUENCE",
        "params": [{
            "datatype": "collection",
            "name": "eventobject"
        }, {
            "datatype": "string",
            "name": "x"
        }, {
            "datatype": "string",
            "name": "y"
        }],
        "contextObj": {
            "name": "frmAccountDetailKA",
            "type": "forms",
            "platform": "",
            "KUID": "5ed703cad63c441882fc4a36f5ea0c28"
        },
        "language": "js",
        "actions": [{
            "id": "ADD_SNIPPET__f915daa4b6434586ac7d0692db424e26",
            "type": "ADD_SNIPPET",
            "codeSnippet": "accountInfo(\"deals\");",
            "parentId": null,
            "callbackType": null
        }]
    }
}