{
    "AS_Label_c970c421cc744e6b89425534d59c9094": {
        "id": "AS_Label_c970c421cc744e6b89425534d59c9094",
        "type": "ACTION_SEQUENCE",
        "name": "AS_Label_onCloseConfirm",
        "params": [{
            "datatype": "collection",
            "name": "eventobject"
        }, {
            "datatype": "string",
            "name": "x"
        }, {
            "datatype": "string",
            "name": "y"
        }],
        "contextObj": {
            "name": "frmConfirmTransferKA",
            "type": "forms",
            "platform": "",
            "KUID": "79e9f0ae27394db6b3b371dc6ca4520b"
        },
        "language": "js",
        "actions": [{
            "id": "ADD_SNIPPET__be42eeb596fa4ede932962a8a7dc1ffe",
            "type": "ADD_SNIPPET",
            "codeSnippet": "customAlertPopup(geti18Value(\"i18n.cards.Confirmation\"), \n                   geti18Value(\"i18n.Transfer.cancelTra\"),\n                   onClickYesClose, onClickNoClose, \n                   geti18Value(\"i18n.login.continue\"),\n                   geti18Value(\"i18n.common.cancel\"));\n\nfunction onClickYesClose(){\n  if(gblTModule == \"web\"){\n    frmManageCardsKA.show();\n    popupCommonAlertDimiss();\n  }\n  else{\n    popupCommonAlertDimiss();\n    removeDatafrmTransfersform();\n    makeInlineErrorsTransfersInvisible();\n    frmPaymentDashboard.show();;\n  }\n}\n\nfunction onClickNoClose(){\n  popupCommonAlertDimiss();\n}",
            "parentId": null,
            "callbackType": null
        }]
    }
}