{
    "AS_FlexContainer_df6856490c32423b900f80ccb323a7c6": {
        "id": "AS_FlexContainer_df6856490c32423b900f80ccb323a7c6",
        "type": "ACTION_SEQUENCE",
        "name": "AS_onclicknavtoRequestOrderCheckBookScreen",
        "params": [{
            "datatype": "collection",
            "name": "eventobject"
        }],
        "contextObj": {
            "name": "frmAccountInfoKA",
            "type": "forms",
            "platform": "",
            "KUID": "b2f984d11c5244e6ae5f81fe393d837e"
        },
        "language": "js",
        "actions": [{
            "id": "ADD_SNIPPET__h867b55e97c9454bae4f1f4a40d87deb",
            "type": "ADD_SNIPPET",
            "codeSnippet": "navigatetoformOrderChequeBook();",
            "parentId": null,
            "callbackType": null
        }]
    }
}