{
    "AS_TextField_c7989c6782d147488b779f4ef866a7df": {
        "id": "AS_TextField_c7989c6782d147488b779f4ef866a7df",
        "type": "ACTION_SEQUENCE",
        "name": "AS_onEndEditingiOSNickNameAddBene",
        "params": [{
            "datatype": "collection",
            "name": "eventobject"
        }, {
            "datatype": "string",
            "name": "changedtext"
        }],
        "contextObj": {
            "name": "frmAddExternalAccountKA",
            "type": "forms",
            "platform": "",
            "KUID": "4943cca5d62d4f0ca6f2e9ab47274db5"
        },
        "language": "js",
        "actions": [{
            "id": "ADD_SNIPPET_ide_onEndEditing_c668331d08354f03b0c9c5f3bf1d1d79",
            "type": "ADD_SNIPPET",
            "codeSnippet": "// if(frmAddExternalAccountKA.txtBenficiryNameKA.text !== \"\"){\n//   frmAddExternalAccountKA.flxUnderlineBenficiryNameKA.skin = \"sknFlxGreenLine\";\n// }else{\n//   frmAddExternalAccountKA.flxUnderlineBenficiryNameKA.skin = \"sknFlxOrangeLine\";\n// }\nkony.boj.addBeneNextStatus();\nanimateLabel(\"DOWN\", \"lblBenficiryNickName\", frmAddExternalAccountKA.txtBenficiryNickName.text);\nif(kony.boj.addBeneVar.selectedType === \"BOJ\")\n  kony.boj.addBeneficiaryAnimation(\"lblAccountNumber\");\nelse\n  kony.boj.addBeneficiaryAnimation(\"lblAddressBene\");",
            "callbackType": null
        }]
    }
}