{
    "AS_Button_f01cc5f187b947d7af5ca061e7a43307": {
        "id": "AS_Button_f01cc5f187b947d7af5ca061e7a43307",
        "type": "ACTION_SEQUENCE",
        "name": "AS_onClickINTAddBene",
        "params": [{
            "datatype": "collection",
            "name": "eventobject"
        }],
        "language": "js",
        "actions": [{
            "id": "ADD_SNIPPET_ide_onClick_b5ff5ce59f5e4e98b93004c58d8bc1b9",
            "type": "ADD_SNIPPET",
            "codeSnippet": "kony.boj.displayParameter(\"INT\");\nkony.boj.restoreDetails();\n// kony.boj.addBeneNextStatus();",
            "callbackType": null
        }]
    }
}