{
    "AS_TextField_cfc96d1b4ce34e5a8dcf0af87490e395": {
        "id": "AS_TextField_cfc96d1b4ce34e5a8dcf0af87490e395",
        "type": "ACTION_SEQUENCE",
        "name": "AS_onEndEditingBeneRelationAddBeneiOS",
        "params": [{
            "datatype": "collection",
            "name": "eventobject"
        }, {
            "datatype": "string",
            "name": "changedtext"
        }],
        "language": "js",
        "actions": [{
            "id": "ADD_SNIPPET_ide_onEndEditing_e4900f66f2494f7084fbac50f86bef37",
            "type": "ADD_SNIPPET",
            "codeSnippet": "if(frmAddExternalAccountKA.tbxBeneRelation.text !== \"\"){\n  frmAddExternalAccountKA.flxUnderlineBeneRelation.skin = \"sknFlxGreenLine\";\n}else{\n  frmAddExternalAccountKA.flxUnderlineBeneRelation.skin = \"sknFlxOrangeLine\";\n}\n\nanimateLabel(\"DOWN\", \"lblBeneRelation\", frmAddExternalAccountKA.tbxBeneRelation.text);",
            "callbackType": null
        }]
    }
}