{
    "AS_FlexContainer_g66e3994d1a643f79821edf39275700b": {
        "id": "AS_FlexContainer_g66e3994d1a643f79821edf39275700b",
        "type": "ACTION_SEQUENCE",
        "name": "AS_onClickDeno",
        "params": [{
            "datatype": "collection",
            "name": "eventobject"
        }],
        "contextObj": {
            "name": "frmNewBillKA",
            "type": "forms",
            "platform": "",
            "KUID": "94b57de480514c9f98e1f6979b71a37b"
        },
        "language": "js",
        "actions": [{
            "id": "ADD_SNIPPET__hdfdece3f28e429d95ceb2e001055dd9",
            "type": "ADD_SNIPPET",
            "codeSnippet": "kony.boj.manualService(\"Denomination\");\n// gblBiller = \"Denom\";\n// frmBillerListForm.show();",
            "parentId": null,
            "callbackType": null
        }]
    }
}