{
    "AS_TextField_ff318f3ee52b48428917928924d0748d": {
        "id": "AS_TextField_ff318f3ee52b48428917928924d0748d",
        "type": "ACTION_SEQUENCE",
        "name": "AS_onTextChangeAddr2AddBene",
        "params": [{
            "datatype": "collection",
            "name": "eventobject"
        }, {
            "datatype": "string",
            "name": "changedtext"
        }],
        "language": "js",
        "actions": [{
            "id": "ADD_SNIPPET_ide_onTextChange_c18597119a434911a9b006701380561e",
            "type": "ADD_SNIPPET",
            "codeSnippet": "if(frmAddExternalAccountKA.tbxAddress2.text !== \"\"){\n  frmAddExternalAccountKA.flxUnderlineAddress2.skin = \"sknFlxGreenLine\";\n}else{\n  frmAddExternalAccountKA.flxUnderlineAddress2.skin = \"sknFlxOrangeLine\";\n}\nkony.boj.addBeneNextStatus();\nif(true){\n  //frmEnrolluserLandingKA.lblNext.skin = \"sknLblNextEnabled\";\n}\nelse{\n // frmEnrolluserLandingKA.lblNext.skin = \"sknLblNextDisabled\";\n}\n",
            "callbackType": null
        }]
    }
}