{
    "AS_TextField_j627eb3366ec4252ada4c890f2cb0a08": {
        "id": "AS_TextField_j627eb3366ec4252ada4c890f2cb0a08",
        "type": "ACTION_SEQUENCE",
        "name": "AS_onEndEditingAddr1AddBeneiOS",
        "params": [{
            "datatype": "collection",
            "name": "eventobject"
        }, {
            "datatype": "string",
            "name": "changedtext"
        }],
        "language": "js",
        "actions": [{
            "id": "ADD_SNIPPET_ide_onEndEditing_ab564f09a30e408d9a2533c76605af32",
            "type": "ADD_SNIPPET",
            "codeSnippet": "if(frmAddExternalAccountKA.tbxAddress1.text !== \"\"){\n  frmAddExternalAccountKA.flxUnderlineAddress1.skin = \"sknFlxGreenLine\";\n}else{\n  frmAddExternalAccountKA.flxUnderlineAddress1.skin = \"sknFlxOrangeLine\";\n}\n\nanimateLabel(\"DOWN\", \"lblAddress1\", frmAddExternalAccountKA.tbxAddress1.text);",
            "callbackType": null
        }]
    }
}