{
    "AS_TextField_ebeac429d7c947b2ac946f2bc3f8b48c": {
        "id": "AS_TextField_ebeac429d7c947b2ac946f2bc3f8b48c",
        "type": "ACTION_SEQUENCE",
        "name": "AS_onEndEditingAccNumiOS",
        "params": [{
            "datatype": "collection",
            "name": "eventobject"
        }, {
            "datatype": "string",
            "name": "changedtext"
        }],
        "language": "js",
        "actions": [{
            "id": "ADD_SNIPPET_ide_onEndEditing_j40e7ab002ec4e41a672e0f1d398990d",
            "type": "ADD_SNIPPET",
            "codeSnippet": "kony.boj.addBeneNextStatus();\nanimateLabel(\"DOWN\", \"lblAccountNumber\", frmAddExternalAccountKA.externalAccountNumberTextField.text);\nif(kony.boj.addBeneVar.selectedType === \"INT\")\n\tkony.boj.addBeneficiaryAnimation(\"lblSwiftCode\");\nelse\n  kony.boj.addBeneficiaryAnimation(\"lblAccountNumber\");",
            "callbackType": null
        }]
    }
}