{
    "AS_TextField_g0e5b43c53594a1fb4aee2a0d8041450": {
        "id": "AS_TextField_g0e5b43c53594a1fb4aee2a0d8041450",
        "type": "ACTION_SEQUENCE",
        "name": "AS_onDoneCityBank",
        "params": [{
            "datatype": "collection",
            "name": "eventobject"
        }, {
            "datatype": "string",
            "name": "changedtext"
        }],
        "contextObj": {
            "name": "frmAddExternalAccountKA",
            "type": "forms",
            "platform": "",
            "KUID": "4943cca5d62d4f0ca6f2e9ab47274db5"
        },
        "language": "js",
        "actions": [{
            "id": "ADD_SNIPPET__e71c9774729242e5bdc64e4599b46729",
            "type": "ADD_SNIPPET",
            "codeSnippet": "kony.boj.addBeneficiaryAnimation(\"lblAddressBank\");",
            "parentId": null,
            "callbackType": null
        }]
    }
}