{
    "AS_ListBox_g1080810346840b9af50180b6066bf7c": {
        "id": "AS_ListBox_g1080810346840b9af50180b6066bf7c",
        "type": "ACTION_SEQUENCE",
        "name": "AS_onSelectionCardReason",
        "params": [{
            "datatype": "collection",
            "name": "eventobject"
        }],
        "contextObj": {
            "name": "frmCancelCardKA",
            "type": "forms",
            "platform": "",
            "KUID": "h9147b91e9434f428264b7f811fa0f0c"
        },
        "language": "js",
        "actions": [{
            "id": "ADD_SNIPPET__d884cdcaccfe48a9b8110a10ed6afe33",
            "type": "ADD_SNIPPET",
            "codeSnippet": "// alert(frmCancelCardKA.lstCardReason.selectedKeyValue);\nfrmCancelCardKA.lblReason.text = frmCancelCardKA.lstCardReason.selectedKey[0];",
            "parentId": null,
            "callbackType": null
        }]
    }
}