{
    "AS_TextField_c5a7dadb1ff643d4b6cfcfd6a1cb1b24": {
        "id": "AS_TextField_c5a7dadb1ff643d4b6cfcfd6a1cb1b24",
        "type": "ACTION_SEQUENCE",
        "name": "AS_onDoneRec",
        "params": [{
            "datatype": "collection",
            "name": "eventobject"
        }, {
            "datatype": "string",
            "name": "changedtext"
        }],
        "contextObj": {
            "name": "frmNewTransferKA",
            "type": "forms",
            "platform": "",
            "KUID": "2ac343500306428da0ceef91a3b44d18"
        },
        "language": "js",
        "actions": [{
            "id": "ADD_SNIPPET__h5e83ed1cf054d50a9a4bac065f1ad7e",
            "type": "ADD_SNIPPET",
            "codeSnippet": "animateLabel(\"DOWN\",\"lblNumRecurr\", frmNewTransferKA.txtNumRecurrences.text);\nvar Text=frmNewTransferKA.txtDesc.text;\nanimateLabel(\"UP\",\"lblDescription\",Text);\nonTextChangeRecurrence();\n",
            "parentId": null,
            "callbackType": null
        }]
    }
}