{
    "AS_TextField_h16af155e1bc47138eda1342c4388ad7": {
        "id": "AS_TextField_h16af155e1bc47138eda1342c4388ad7",
        "type": "ACTION_SEQUENCE",
        "name": "AS_onDoneBillerIDAddBiller",
        "params": [{
            "datatype": "collection",
            "name": "eventobject"
        }, {
            "datatype": "string",
            "name": "changedtext"
        }],
        "contextObj": {
            "name": "frmAddNewPayeeKA",
            "type": "forms",
            "platform": "",
            "KUID": "22b994296d374ff48427012b2b05feb7"
        },
        "language": "js",
        "actions": [{
            "id": "ADD_SNIPPET__c8cbc080262047698d8ec2a7ce7c856b",
            "type": "ADD_SNIPPET",
            "codeSnippet": "animateLabel(\"DOWN\", \"lblBillerID\",frmAddNewPayeeKA.tbxBillerID.text);\nanimateLabel(\"UP\", \"lblAddress\",frmAddNewPayeeKA.tbxAddress.text);",
            "parentId": null,
            "callbackType": null
        }]
    }
}