{
    "AS_TextField_e048c12c9b484fca987f6be9535e1873": {
        "id": "AS_TextField_e048c12c9b484fca987f6be9535e1873",
        "type": "ACTION_SEQUENCE",
        "name": "AS_onEndEditingAddress2Android",
        "params": [{
            "datatype": "collection",
            "name": "eventobject"
        }, {
            "datatype": "string",
            "name": "changedtext"
        }],
        "contextObj": {
            "name": "frmAddExternalAccountKA",
            "type": "forms",
            "platform": "",
            "KUID": "4943cca5d62d4f0ca6f2e9ab47274db5"
        },
        "language": "js",
        "actions": [{
            "id": "ADD_SNIPPET_ide_onEndEditing_e2bc31bd7af34c559db6f55433ebb7fb",
            "type": "ADD_SNIPPET",
            "codeSnippet": "if(frmAddExternalAccountKA.tbxAddress2.text !== \"\"){\n  frmAddExternalAccountKA.flxUnderlineAddress2.skin = \"sknFlxGreenLine\";\n}else{\n  frmAddExternalAccountKA.flxUnderlineAddress2.skin = \"sknFlxOrangeLine\";\n}\n\nanimateLabel(\"DOWN\", \"lblAddress2\", frmAddExternalAccountKA.lblAddress2.text);",
            "callbackType": null
        }]
    }
}