{
    "AS_TextField_c0756115e64f4e1a81ddd590a8430675": {
        "id": "AS_TextField_c0756115e64f4e1a81ddd590a8430675",
        "type": "ACTION_SEQUENCE",
        "name": "AS_onTextChangeIDNumberAddBiller",
        "params": [{
            "datatype": "collection",
            "name": "eventobject"
        }, {
            "datatype": "string",
            "name": "changedtext"
        }],
        "contextObj": {
            "name": "frmAddNewPayeeKA",
            "type": "forms",
            "platform": "",
            "KUID": "22b994296d374ff48427012b2b05feb7"
        },
        "language": "js",
        "actions": [{
            "id": "ADD_SNIPPET__jec60cd1c7404e4086db752884ba7f2e",
            "type": "ADD_SNIPPET",
            "codeSnippet": "kony.boj.storeDetailsAddBiller(\"BillerID\", frmAddNewPayeeKA.tbxBillerID.text);\nif(kony.boj.isNextEnabledBiller())\n  frmAddNewPayeeKA.lblNext.skin = \"sknLblNextEnabled\";\nelse\n  frmAddNewPayeeKA.lblNext.skin = \"sknLblNextDisabled\";",
            "parentId": null,
            "callbackType": null
        }]
    }
}