{
    "AS_FlexContainer_fbd5fcd82db44be38e4251d2b3d65bae": {
        "id": "AS_FlexContainer_fbd5fcd82db44be38e4251d2b3d65bae",
        "type": "ACTION_SEQUENCE",
        "name": "as_OnClicnTnCSettingsFlow",
        "params": [{
            "datatype": "collection",
            "name": "eventobject"
        }],
        "contextObj": {
            "name": "frmSettingsKA",
            "type": "forms",
            "platform": "",
            "KUID": "hb0fb66c0c224ed284a1334d78669bfa"
        },
        "language": "js",
        "actions": [{
            "id": "ADD_SNIPPET__e13fba46cdd14106aed05b748bb12035",
            "type": "ADD_SNIPPET",
            "codeSnippet": "gblTnCFlow = true;\nshowTnCFormSettings();",
            "parentId": null,
            "callbackType": null
        }]
    }
}