{
    "AS_TextField_i3509ce956f84da58a7dcd3e951569b6": {
        "id": "AS_TextField_i3509ce956f84da58a7dcd3e951569b6",
        "type": "ACTION_SEQUENCE",
        "name": "AS_onTextChangeBeneRelationAddBene",
        "params": [{
            "datatype": "collection",
            "name": "eventobject"
        }, {
            "datatype": "string",
            "name": "changedtext"
        }],
        "language": "js",
        "actions": [{
            "id": "ADD_SNIPPET_ide_onTextChange_jecb32220f8d4c0d90eaf813815e23a6",
            "type": "ADD_SNIPPET",
            "codeSnippet": "if(frmAddExternalAccountKA.tbxBeneRelation.text !== \"\"){\n  frmAddExternalAccountKA.flxUnderlineBeneRelation.skin = \"sknFlxGreenLine\";\n}else{\n  frmAddExternalAccountKA.flxUnderlineBeneRelation.skin = \"sknFlxOrangeLine\";\n}\nkony.boj.addBeneNextStatus();\nif(true){\n  //frmEnrolluserLandingKA.lblNext.skin = \"sknLblNextEnabled\";\n}\nelse{\n // frmEnrolluserLandingKA.lblNext.skin = \"sknLblNextDisabled\";\n}\n",
            "callbackType": null
        }]
    }
}