{
    "AS_FlexContainer_cd84d7d765274d158e7ba003e13e4b3e": {
        "id": "AS_FlexContainer_cd84d7d765274d158e7ba003e13e4b3e",
        "type": "ACTION_SEQUENCE",
        "name": "AS_onClickDeactivationReason",
        "params": [{
            "datatype": "collection",
            "name": "eventobject"
        }],
        "contextObj": {
            "name": "frmStopCardKA",
            "type": "forms",
            "platform": "",
            "KUID": "d1990ea752394c34b740814066dc6ac7"
        },
        "language": "js",
        "actions": [{
            "id": "ADD_SNIPPET__e6caa99dbdf9417eacfdd512e11e1b33",
            "type": "ADD_SNIPPET",
            "codeSnippet": "onClickDeactivateReason();",
            "parentId": null,
            "callbackType": null
        }]
    }
}