{
    "AS_TextField_gc2f088621524389998a01d6cecad0ac": {
        "id": "AS_TextField_gc2f088621524389998a01d6cecad0ac",
        "type": "ACTION_SEQUENCE",
        "name": "AS_onDoneDebitText",
        "params": [{
            "datatype": "collection",
            "name": "eventobject"
        }, {
            "datatype": "string",
            "name": "changedtext"
        }],
        "contextObj": {
            "name": "frmRegisterUser",
            "type": "forms",
            "platform": "",
            "KUID": "cd7432ec5087404590338186c94e35d2"
        },
        "language": "js",
        "actions": [{
            "id": "ADD_SNIPPET__d331bebd98af43308874e7567d9f997e",
            "type": "ADD_SNIPPET",
            "codeSnippet": "frmRegisterUser.flxLine.skin = \"sknFlxGreyLine\";",
            "parentId": null,
            "callbackType": null
        }]
    }
}