{
    "AS_Button_ae42b05e3f1a40e496fde8ab3005b258": {
        "id": "AS_Button_ae42b05e3f1a40e496fde8ab3005b258",
        "type": "ACTION_SEQUENCE",
        "name": "AS_onClosePopUpAddBene",
        "params": [{
            "datatype": "collection",
            "name": "eventobject"
        }],
        "language": "js",
        "actions": [{
            "id": "ADD_SNIPPET_ide_onClick_j8fefd6d19b74e91aeaad7ab4ab7d396",
            "type": "ADD_SNIPPET",
            "codeSnippet": "customAlertPopup(geti18Value(\"i18n.common.AreYouSure\"), \n                 geti18Value(\"i18n.Bene.backFromBeneError\"),\n                kony.boj.onClickYesBackAddBene, popupCommonAlertDimiss, \n                geti18Value(\"i18n.common.YES\"),\n                geti18Value(\"i18n.common.NO\"));",
            "callbackType": null
        }]
    }
}