{
    "AS_TextField_g7755c71608844039410545beefa9db4": {
        "id": "AS_TextField_g7755c71608844039410545beefa9db4",
        "type": "ACTION_SEQUENCE",
        "name": "AS_onTextChangeFrmSI",
        "params": [{
            "datatype": "collection",
            "name": "eventobject"
        }, {
            "datatype": "string",
            "name": "changedtext"
        }],
        "contextObj": {
            "name": "frmFilterSI",
            "type": "forms",
            "platform": null,
            "KUID": "ic4b1b46f1f740f3aa18d23b3648b743"
        },
        "language": "js",
        "actions": [{
            "id": "ADD_SNIPPET_ide_onTextChange_fb99ce7d53984a15ae631c9f8012af23",
            "type": "ADD_SNIPPET",
            "codeSnippet": "if(!new RegExp(\"^[0-9.]+$\").test(frmFilterSI.txtAmountRangeFrom.text))\n  frmFilterSI.txtAmountRangeFrom.text = frmFilterSI.txtAmountRangeFrom.text.substring(0, frmFilterSI.txtAmountRangeFrom.text.length - 1);",
            "callbackType": null
        }]
    }
}