{
    "AS_TextField_e48bbbdea581414980de436f5db80a8f": {
        "id": "AS_TextField_e48bbbdea581414980de436f5db80a8f",
        "type": "ACTION_SEQUENCE",
        "name": "AS_onTouchEndAccNum",
        "params": [{
            "datatype": "collection",
            "name": "eventobject"
        }, {
            "datatype": "string",
            "name": "x"
        }, {
            "datatype": "string",
            "name": "y"
        }],
        "contextObj": {
            "name": "frmAddExternalAccountKA",
            "type": "forms",
            "platform": "",
            "KUID": "4943cca5d62d4f0ca6f2e9ab47274db5"
        },
        "language": "js",
        "actions": [{
            "id": "ADD_SNIPPET__fc568d17f2de46b887668f3a3b2f6d17",
            "type": "ADD_SNIPPET",
            "codeSnippet": "kony.boj.addBeneficiaryAnimation(\"lblAccountNumber\");\n//frmAddExternalAccountKA.flxUnderlineAccountNumber.skin = \"sknFlxBlueLine\";",
            "parentId": null,
            "callbackType": null
        }]
    }
}