{
    "AS_FlexContainer_d2180100b63445fe87e78ac338ca61fe": {
        "id": "AS_FlexContainer_d2180100b63445fe87e78ac338ca61fe",
        "type": "ACTION_SEQUENCE",
        "name": "AS_onRowClickBefNavToSendMoney",
        "params": [{
            "name": "eventobject",
            "datatype": "collection"
        }, {
            "name": "context",
            "datatype": "collection"
        }],
        "contextObj": {
            "name": "segShowAcc",
            "type": "templates",
            "platform": "",
            "KUID": "c795aaa82a6f432cbc2e70d251355a55"
        },
        "language": "js",
        "actions": [{
            "id": "ADD_SNIPPET__efe5fdd6fc14411bb8148e60c8a7936d",
            "type": "ADD_SNIPPET",
            "codeSnippet": "kony.print(\"Nav::\");\ngblSelectedBene = context.widgetInfo.selectedRowItems[0];\nif(gblSelectedBene.benType !== \"IPS\"){\n  if(gblSelectedBene.benType !== \"ITB\" || (get_COUNTRY_DETAILS(\"2\").CTRY_CODE == gblSelectedBene.countryName))\n      frmNewTransferKA.lblToAccCurr.text = getCurrency_FROM_ACCOUNT_NUMBER(gblSelectedBene.benAcctNo);\n  check_numberOfAccounts();\n}else if(gblSelectedBene.benType === \"IPS\"){\n\tshow_SELECTED_BENEFICIARY_IPS_TRANSFER(gblSelectedBene);\n}",
            "parentId": null,
            "callbackType": null
        }]
    }
}