{
    "AS_TextField_c849b6c4edde4136b42c36d424dcf212": {
        "id": "AS_TextField_c849b6c4edde4136b42c36d424dcf212",
        "type": "ACTION_SEQUENCE",
        "name": "AS_onTextChangeFullNameAddBene",
        "params": [{
            "datatype": "collection",
            "name": "eventobject"
        }, {
            "datatype": "string",
            "name": "changedtext"
        }],
        "language": "js",
        "actions": [{
            "id": "ADD_SNIPPET_ide_onTextChange_ecaeda5de7984591b43596902e6a5b41",
            "type": "ADD_SNIPPET",
            "codeSnippet": "// if(frmAddExternalAccountKA.txtBenficiryNameKA.text !== \"\"){\n//   frmAddExternalAccountKA.flxUnderlineBenficiryNameKA.skin = \"sknFlxGreenLine\";\n// }else{\n//   frmAddExternalAccountKA.flxUnderlineBenficiryNameKA.skin = \"sknFlxOrangeLine\";\n// }\nkony.boj.addBeneNextStatus();",
            "callbackType": null
        }]
    }
}