{
    "AS_FlexContainer_d1fb8356cb31462e886d0cf525830a36": {
        "id": "AS_FlexContainer_d1fb8356cb31462e886d0cf525830a36",
        "type": "ACTION_SEQUENCE",
        "name": "AS_onclickbackofRequestPinCard",
        "params": [{
            "datatype": "collection",
            "name": "eventobject"
        }],
        "language": "js",
        "actions": [{
            "id": "ADD_SNIPPET_ide_onClick_ca08c4899344460cb76eb55081345bff",
            "type": "ADD_SNIPPET",
            "codeSnippet": "gblRequestNewPinBranchList = false;\nfrmManageCardsKA.show();",
            "callbackType": null
        }]
    }
}