{
    "AS_Switch_ffce9beeebed447bb377956ab7a5f809": {
        "id": "AS_Switch_ffce9beeebed447bb377956ab7a5f809",
        "type": "ACTION_SEQUENCE",
        "params": [{
            "datatype": "collection",
            "name": "eventobject"
        }],
        "language": "js",
        "actions": [{
            "id": "ADD_SNIPPET_ide_onSlide_eb0b43ab7516414aab32d8e37ca61d66",
            "type": "ADD_SNIPPET",
            "codeSnippet": "if(frmAuthorizationAlternatives.flxQuickBalance.height === \"8%\"){\n  frmAuthorizationAlternatives.flxQuickBalance.height = \"40%\";\n  addDatatoSegQuickBalance(1);\n}\nelse{\n  frmAuthorizationAlternatives.flxQuickBalance.height = \"8%\";\n  addDatatoSegQuickBalance(0);\n} \n",
            "callbackType": null
        }]
    }
}