{
    "AS_Segment_e4424f0c684446d38abd218698609415": {
        "id": "AS_Segment_e4424f0c684446d38abd218698609415",
        "type": "ACTION_SEQUENCE",
        "params": [{
            "datatype": "collection",
            "name": "eventobject"
        }, {
            "datatype": "number",
            "name": "sectionNumber"
        }, {
            "datatype": "number",
            "name": "rowNumber"
        }],
        "language": "js",
        "actions": [{
            "id": "ADD_SNIPPET_ide_onRowClick_jd14962a72554f4294aa900b393d1853",
            "type": "ADD_SNIPPET",
            "codeSnippet": "accountLandingPopup();",
            "callbackType": null
        }]
    }
}