{
    "AS_Segment_72b1f083bc8e45aba0bcd7f808bd82fb": {
        "id": "AS_Segment_72b1f083bc8e45aba0bcd7f808bd82fb",
        "type": "ACTION_SEQUENCE",
        "params": [{
            "datatype": "collection",
            "name": "eventobject"
        }, {
            "datatype": "string",
            "name": "x"
        }, {
            "datatype": "string",
            "name": "y"
        }],
        "language": "js",
        "actions": [{
            "id": "ADD_SNIPPET_ide_onTouchStart_7a7f48be37b0499c973a6cbb917f1d41",
            "type": "ADD_SNIPPET",
            "codeSnippet": "kony.print(\"Deleted\");",
            "callbackType": null
        }]
    }
}