{
    "AS_Segment_d150a2d613cf4a7db389ae4bca2129a7": {
        "id": "AS_Segment_d150a2d613cf4a7db389ae4bca2129a7",
        "type": "ACTION_SEQUENCE",
        "params": [{
            "datatype": "collection",
            "name": "eventobject"
        }, {
            "datatype": "number",
            "name": "sectionNumber"
        }, {
            "datatype": "number",
            "name": "rowNumber"
        }],
        "language": "js",
        "actions": [{
            "id": "ADD_SNIPPET__9c22cae211b3481b9cae62110b3f8cd5",
            "type": "ADD_SNIPPET",
            "codeSnippet": "kony.print(\"Removed for code cleanup\");\n//navigateToPayBillDetails(\"segCompletedPaymentsKA\",frmPayeeTransactionsKA.segCompletedPaymentsKA.selectedRowIndex[1]);",
            "parentId": null,
            "callbackType": null
        }]
    }
}