{
    "AS_Switch_ef002d46cbe146849dcb60197f7cf05f": {
        "id": "AS_Switch_ef002d46cbe146849dcb60197f7cf05f",
        "type": "ACTION_SEQUENCE",
        "params": [{
            "datatype": "collection",
            "name": "eventobject"
        }],
        "language": "js",
        "actions": [{
            "id": "ADD_SNIPPET_ide_onSlide_81850fa5ad4947fb92478d26046e907b",
            "type": "ADD_SNIPPET",
            "codeSnippet": "updateSecurityAletStatus(\"newPayeeAdded\");",
            "callbackType": null
        }]
    }
}