{
    "AS_Segment_1267dc6be4174eb1abe781c436283113": {
        "id": "AS_Segment_1267dc6be4174eb1abe781c436283113",
        "type": "ACTION_SEQUENCE",
        "params": [{
            "datatype": "collection",
            "name": "eventobject"
        }, {
            "datatype": "number",
            "name": "sectionNumber"
        }, {
            "datatype": "number",
            "name": "rowNumber"
        }],
        "language": "js",
        "actions": [{
            "id": "ADD_SNIPPET__d963d9f19fe54cdf8f8b3421a03b8647",
            "type": "ADD_SNIPPET",
            "codeSnippet": "onRowClickSegment(); ",
            "parentId": null,
            "callbackType": null
        }]
    }
}