{
    "AS_Segment_ia5c4ea3cfb244af990de87c1f185f1b": {
        "id": "AS_Segment_ia5c4ea3cfb244af990de87c1f185f1b",
        "type": "ACTION_SEQUENCE",
        "params": [{
            "datatype": "collection",
            "name": "eventobject"
        }, {
            "datatype": "number",
            "name": "sectionNumber"
        }, {
            "datatype": "number",
            "name": "rowNumber"
        }],
        "contextObj": {
            "type": "forms",
            "platform": "",
            "KUID": "d3cd81c5a2374c97b08d6412ea0d16ef"
        },
        "language": "js",
        "actions": [{
            "id": "ADD_SNIPPET__if78f4188e194171af5e2a0fd1f3c29d",
            "type": "ADD_SNIPPET",
            "codeSnippet": "kony.print(\"Deleted\");",
            "parentId": null,
            "callbackType": null
        }]
    }
}