{
    "AS_Segment_b5fd1a5bfb4947b8b01e842e1398e1de": {
        "id": "AS_Segment_b5fd1a5bfb4947b8b01e842e1398e1de",
        "type": "ACTION_SEQUENCE",
        "params": [{
            "datatype": "collection",
            "name": "eventobject"
        }, {
            "datatype": "number",
            "name": "sectionNumber"
        }, {
            "datatype": "number",
            "name": "rowNumber"
        }],
        "language": "js",
        "actions": [{
            "id": "ADD_SNIPPET_ide_onRowClick_6b77c2517ae547879cf21d8259acf653",
            "type": "ADD_SNIPPET",
            "codeSnippet": "onclicksegmentPay(\"from\");\ngetSelectedFromAccounts();\n",
            "callbackType": null
        }]
    }
}