{
    "AS_Segment_a0b12dfaf6ed472783ba5f552e1a25b2": {
        "id": "AS_Segment_a0b12dfaf6ed472783ba5f552e1a25b2",
        "type": "ACTION_SEQUENCE",
        "params": [{
            "datatype": "collection",
            "name": "eventobject"
        }, {
            "datatype": "number",
            "name": "sectionNumber"
        }, {
            "datatype": "number",
            "name": "rowNumber"
        }],
        "contextObj": {
            "type": "forms",
            "platform": "",
            "KUID": "a42b238ed6d24762ade2b6d865ef4897"
        },
        "language": "js",
        "actions": [{
            "id": "ADD_SNIPPET__h1f7c7b984894a1fb5ac115e8ed32f08",
            "type": "ADD_SNIPPET",
            "codeSnippet": "var obj = new kony.retailbanking.AdvancedAtmFilter();\nobj.onRowClickOfSeg(rowNumber);",
            "parentId": null,
            "callbackType": null
        }]
    }
}