{
    "AS_Segment_e5934031ccd142189b751ac50bf8abfb": {
        "id": "AS_Segment_e5934031ccd142189b751ac50bf8abfb",
        "type": "ACTION_SEQUENCE",
        "params": [{
            "datatype": "collection",
            "name": "eventobject"
        }, {
            "datatype": "number",
            "name": "sectionNumber"
        }, {
            "datatype": "number",
            "name": "rowNumber"
        }],
        "language": "js",
        "actions": [{
            "id": "ADD_SNIPPET_ide_onRowClick_c998ee0ac6f64fc5b193b5ab53ce06fc",
            "type": "ADD_SNIPPET",
            "codeSnippet": "var selRecord  = frmSearchResultsKA.segSearchResultsKA.selectedItems[0];\nnavigateToSearchTransactionDetails(selRecord);",
            "callbackType": null
        }]
    }
}