{
    "AS_Switch_j9402aefbe2d491c9696869a5951a99f": {
        "id": "AS_Switch_j9402aefbe2d491c9696869a5951a99f",
        "type": "ACTION_SEQUENCE",
        "params": [{
            "datatype": "collection",
            "name": "eventobject"
        }],
        "contextObj": {
            "name": "frmLoginKA",
            "type": "forms",
            "platform": "",
            "KUID": "7b1aa8fceb6b4070833e9eab879b0e5e"
        },
        "language": "js",
        "actions": [{
            "id": "ADD_SNIPPET__b742b214c3734a9ab62a4c319d74036f",
            "type": "ADD_SNIPPET",
            "codeSnippet": "//remembeMeOption();\nkony.print(\"Removed\");",
            "parentId": null,
            "callbackType": null
        }]
    }
}