{
    "AS_Segment_i4e93886dd9c4d0ba856be7315870646": {
        "id": "AS_Segment_i4e93886dd9c4d0ba856be7315870646",
        "type": "ACTION_SEQUENCE",
        "params": [{
            "datatype": "collection",
            "name": "eventobject"
        }, {
            "datatype": "number",
            "name": "sectionNumber"
        }, {
            "datatype": "number",
            "name": "rowNumber"
        }],
        "language": "js",
        "actions": [{
            "id": "ADD_SNIPPET_ide_onRowClick_g0c0300d17a64fddaa43746349ff0c81",
            "type": "ADD_SNIPPET",
            "codeSnippet": "kony.print(\"Perf Log: Details page form - start\");\n    var INSTANCE = kony.sdk.mvvm.KonyApplicationContext.getAppInstance();\n    var listController = INSTANCE.getFormController(\"frmAccountsLandingKA\");\n    listController.performAction(\"navigateToAccountsDetails\");",
            "callbackType": null
        }]
    }
}