{
    "AS_Switch_f8a56f4c8144476883bd9b67f5243cb1": {
        "id": "AS_Switch_f8a56f4c8144476883bd9b67f5243cb1",
        "type": "ACTION_SEQUENCE",
        "params": [{
            "datatype": "collection",
            "name": "eventobject"
        }],
        "language": "js",
        "actions": [{
            "id": "ADD_SNIPPET_ide_onSlide_b43fe7eda4bd4e259c81d45bc63c976f",
            "type": "ADD_SNIPPET",
            "codeSnippet": "if(frmAuthorizationAlternatives.flxQuickBalance.height === \"8%\"){\n  frmAuthorizationAlternatives.flxQuickBalance.height = \"40%\";\n  addDatatoSegQuickBalance(1);\n}\nelse{\n  frmAuthorizationAlternatives.flxQuickBalance.height = \"8%\";\n  addDatatoSegQuickBalance(0);\n} \n",
            "callbackType": null
        }]
    }
}