{
    "AS_Segment_30bbd4b22579446dadb9f49cc487f446": {
        "id": "AS_Segment_30bbd4b22579446dadb9f49cc487f446",
        "type": "ACTION_SEQUENCE",
        "params": [{
            "datatype": "collection",
            "name": "eventobject"
        }, {
            "datatype": "number",
            "name": "sectionNumber"
        }, {
            "datatype": "number",
            "name": "rowNumber"
        }],
        "language": "js",
        "actions": [{
            "id": "ADD_SNIPPET_ide_onRowClick_4d4d84126883480c8b30e777210629ed",
            "type": "ADD_SNIPPET",
            "codeSnippet": "var selRecord  = frmSearchResultsKA.segSearchResultsOlderKA.selectedItems[0];\nnavigateToSearchTransactionDetails(selRecord);",
            "callbackType": null
        }]
    }
}