{
    "AS_Segment_691a6626239243f78788ef75789b58cf": {
        "id": "AS_Segment_691a6626239243f78788ef75789b58cf",
        "type": "ACTION_SEQUENCE",
        "params": [{
            "datatype": "collection",
            "name": "eventobject"
        }, {
            "datatype": "number",
            "name": "sectionNumber"
        }, {
            "datatype": "number",
            "name": "rowNumber"
        }],
        "contextObj": {
            "name": "frmSetDefaultPageKA",
            "type": "forms",
            "platform": "",
            "KUID": "0a1abaac7705448e8ce085a947508e2c"
        },
        "language": "js",
        "actions": [{
            "id": "ADD_SNIPPET__f7e7d62dde4940eab863d0b657ef68a5",
            "type": "ADD_SNIPPET",
            "codeSnippet": "setDefaultPage();",
            "parentId": null,
            "callbackType": null
        }]
    }
}