{
    "AS_Segment_8b942f99ff6e4246838d3b4c577a958e": {
        "id": "AS_Segment_8b942f99ff6e4246838d3b4c577a958e",
        "type": "ACTION_SEQUENCE",
        "params": [{
            "datatype": "collection",
            "name": "eventobject"
        }, {
            "datatype": "number",
            "name": "sectionNumber"
        }, {
            "datatype": "number",
            "name": "rowNumber"
        }],
        "contextObj": {
            "type": "forms",
            "platform": "",
            "KUID": "d632c1724f9840698e446fcf7c83b2ca"
        },
        "language": "js",
        "actions": [{
            "id": "ADD_SNIPPET__0ae6918b6aca4c90a38ba7721df391e3",
            "type": "ADD_SNIPPET",
            "codeSnippet": "alertcallAccountInfoEditKA();",
            "parentId": null,
            "callbackType": null
        }]
    }
}