{
    "AS_TextField_a5cbeceb69b44f7093078647758dd109": {
        "id": "AS_TextField_a5cbeceb69b44f7093078647758dd109",
        "type": "ACTION_SEQUENCE",
        "name": "AS_TextField_NationalIDRegistration_FileName_onBeginEditingAnd",
        "params": [{
            "datatype": "collection",
            "name": "eventobject"
        }, {
            "datatype": "string",
            "name": "changedtext"
        }],
        "contextObj": {
            "name": "frmRegisterUser",
            "type": "forms",
            "platform": "",
            "KUID": "cd7432ec5087404590338186c94e35d2"
        },
        "language": "js",
        "actions": [{
            "id": "ADD_SNIPPET__deddb0aadb7a4c878aaff864c7c0e6bf",
            "type": "ADD_SNIPPET",
            "codeSnippet": "animateLabel(\"UP\", \"lblCSPDFileNubmerTitle\", frmRegisterUser.txtCSPDFileNumber.text);",
            "parentId": null,
            "callbackType": null
        }]
    }
}