{
    "AS_TextField_ce54b68b0e4d48e18272344090d77e71": {
        "id": "AS_TextField_ce54b68b0e4d48e18272344090d77e71",
        "type": "ACTION_SEQUENCE",
        "name": "AS_TextField_OnEndEditingAndroidIBANAliasEPS",
        "params": [{
            "datatype": "collection",
            "name": "eventobject"
        }, {
            "datatype": "string",
            "name": "changedtext"
        }],
        "contextObj": {
            "name": "frmEPS",
            "type": "forms",
            "platform": "",
            "KUID": "c49bbb3175be499d86d933cee301b3c4"
        },
        "language": "js",
        "actions": [{
            "id": "ADD_SNIPPET__h513f08c6c014760a8bc0854f0c719f9",
            "type": "ADD_SNIPPET",
            "codeSnippet": "animateLabel(\"DOWN\",\"lblIBANAlias\",frmEPS.txtIBANAlias.text);",
            "parentId": null,
            "callbackType": null
        }]
    }
}