{
    "AS_TextField_e29588b908054b70b52d37bf205c1fe8": {
        "id": "AS_TextField_e29588b908054b70b52d37bf205c1fe8",
        "type": "ACTION_SEQUENCE",
        "params": [{
            "datatype": "collection",
            "name": "eventobject"
        }, {
            "datatype": "string",
            "name": "changedtext"
        }],
        "language": "js",
        "actions": [{
            "id": "ADD_SNIPPET_ide_onEndEditing_i3d69f4b8b334d108f677f4b8a1895ef",
            "type": "ADD_SNIPPET",
            "codeSnippet": "try{\n  if(frmEstatementLandingKA.txtEmail1.text!==null && frmEstatementLandingKA.txtEmail1.text!==\"\")\n  {\n    frmEstatementLandingKA.borderBottom1.skin=\"skntextFieldDividerGreen\";\n  }\n  else\n  {\n    frmEstatementLandingKA.borderBottom1.skin=\"skntextFieldDivider\";\n  }\n  animateLabel(\"DOWN\",\"lblEmail1\",frmEstatementLandingKA.txtEmail1.text);\n  animateLabel(\"DOWN\",\"lblEmail2\",frmEstatementLandingKA.txtEmail2.text);\n}catch(err){\n  kony.print( \"err in pwd::\"+err);\n}\n",
            "callbackType": null
        }]
    }
}