{
    "AS_TextField_g1dd4ab139364e20b9e41c948a7cc907": {
        "id": "AS_TextField_g1dd4ab139364e20b9e41c948a7cc907",
        "type": "ACTION_SEQUENCE",
        "name": "AS_TextField_AnimateUp_tbxAmount",
        "params": [{
            "datatype": "collection",
            "name": "eventobject"
        }, {
            "datatype": "string",
            "name": "x"
        }, {
            "datatype": "string",
            "name": "y"
        }],
        "contextObj": {
            "name": "frmAddNewPrePayeeKA",
            "type": "forms",
            "platform": "",
            "KUID": "a843292d9c674ff7ba10a9b594b7e7e5"
        },
        "language": "js",
        "actions": [{
            "id": "ADD_SNIPPET__ad08b533be724d66a176da3f09e6018d",
            "type": "ADD_SNIPPET",
            "codeSnippet": "animateLabel(\"UP\",\"lblAmount\", frmAddNewPrePayeeKA.tbxAmount.text);",
            "parentId": null,
            "callbackType": null
        }]
    }
}