{
    "AS_TextField_b4bebc9adec14ab4b3d5251ed61301cc": {
        "id": "AS_TextField_b4bebc9adec14ab4b3d5251ed61301cc",
        "type": "ACTION_SEQUENCE",
        "name": "AS_TextField_AmountFldCardLessOnTextChange",
        "params": [{
            "datatype": "collection",
            "name": "eventobject"
        }, {
            "datatype": "string",
            "name": "changedtext"
        }],
        "language": "js",
        "actions": [{
            "id": "ADD_SNIPPET_ide_onTextChange_c1efa1f0fc6e48ca8325e1aedd707f58",
            "type": "ADD_SNIPPET",
            "codeSnippet": "/*if(checkNextCardless())\n  frmCardlessTransaction.btnSubmit.setEnabled(true);\nelse\n  frmCardlessTransaction.btnSubmit.setEnabled(false);*/\ncheckNextCardless();\n\nfrmCardlessTransaction.lblHiddenAmount.text=frmCardlessTransaction.txtFieldAmount.text;\nfrmCardlessTransaction.txtFieldAmount.text = fixDecimal(frmCardlessTransaction.txtFieldAmount.text,getDecimalNumForCurr(frmCardlessTransaction.lblCurrencyCode.text));",
            "callbackType": null
        }]
    }
}