{
    "AS_TextField_i7a2f776d88e44a8a0d4e6e04ab13688": {
        "id": "AS_TextField_i7a2f776d88e44a8a0d4e6e04ab13688",
        "type": "ACTION_SEQUENCE",
        "params": [{
            "datatype": "collection",
            "name": "eventobject"
        }, {
            "datatype": "string",
            "name": "changedtext"
        }],
        "contextObj": {
            "name": "frmCardsAddNickname",
            "type": "forms",
            "platform": null,
            "KUID": "d382c627ba0b45cfb446cc6dd8d8759e"
        },
        "language": "js",
        "actions": [{
            "id": "ADD_SNIPPET_ide_onEndEditing_d63667fa32674552bc384bc2a849dd3c",
            "type": "ADD_SNIPPET",
            "codeSnippet": "animateLabel(\"DOWN\",\"lblAddNickName\",frmCardsAddNickname.txtAddNickName.text);",
            "callbackType": null
        }]
    }
}