{
    "AS_TextField_b5537756dec9433fa63beb561f149d16": {
        "id": "AS_TextField_b5537756dec9433fa63beb561f149d16",
        "type": "ACTION_SEQUENCE",
        "params": [{
            "datatype": "collection",
            "name": "eventobject"
        }, {
            "datatype": "string",
            "name": "changedtext"
        }],
        "contextObj": {
            "name": "frmNewBillDetails",
            "type": "forms",
            "platform": null,
            "KUID": "c2132c3b91ec4677ab952b729de9fc0e"
        },
        "language": "js",
        "actions": [{
            "id": "ADD_SNIPPET_ide_onEndEditing_eec72108ef434cb3a0a6af63f15ebeb2",
            "type": "ADD_SNIPPET",
            "codeSnippet": "onDoneBillerNum();\nanimateLabel(\"DOWN\",\"lblBillerNumber\", frmNewBillKA.tbxBillerNumber.text);",
            "callbackType": null
        }]
    }
}