{
    "AS_TextField_fc56e4f1197f4bb29427c58ec3cdb073": {
        "id": "AS_TextField_fc56e4f1197f4bb29427c58ec3cdb073",
        "type": "ACTION_SEQUENCE",
        "params": [{
            "datatype": "collection",
            "name": "eventobject"
        }, {
            "datatype": "string",
            "name": "changedtext"
        }],
        "contextObj": {
            "name": "frmCardsAddNickname",
            "type": "forms",
            "platform": null,
            "KUID": "d382c627ba0b45cfb446cc6dd8d8759e"
        },
        "language": "js",
        "actions": [{
            "id": "ADD_SNIPPET_ide_onEndEditing_eafeae9afde04107b4f201848730c6da",
            "type": "ADD_SNIPPET",
            "codeSnippet": "animateLabel(\"DOWN\",\"lblAddNickName\",frmCardsAddNickname.txtAddNickName.text);",
            "callbackType": null
        }]
    }
}