{
    "AS_TextField_b045d25877bd47d7a09d94255f5422f2": {
        "id": "AS_TextField_b045d25877bd47d7a09d94255f5422f2",
        "type": "ACTION_SEQUENCE",
        "params": [{
            "datatype": "collection",
            "name": "eventobject"
        }, {
            "datatype": "string",
            "name": "changedtext"
        }],
        "contextObj": {
            "name": "frmAddExternalAccountKA",
            "type": "forms",
            "platform": "",
            "KUID": "4943cca5d62d4f0ca6f2e9ab47274db5"
        },
        "language": "js",
        "actions": [{
            "id": "ADD_SNIPPET_ide_onDone_ga068ab0f2404068ab1bc024ca747937",
            "type": "ADD_SNIPPET",
            "codeSnippet": "animateLabel(\"DOWN\", \"lblUsername\", frmEnrolluserLandingKA.tbxUsernameKA.text);\nanimateLabel(\"UP\", \"lblPassword\", frmEnrolluserLandingKA.tbxPasswordKA.text);",
            "callbackType": null
        }]
    }
}