{
    "AS_TextField_gda9ed9c704846468bb304cda2cdc2a7": {
        "id": "AS_TextField_gda9ed9c704846468bb304cda2cdc2a7",
        "type": "ACTION_SEQUENCE",
        "params": [{
            "datatype": "collection",
            "name": "eventobject"
        }, {
            "datatype": "string",
            "name": "changedtext"
        }],
        "language": "js",
        "actions": [{
            "id": "ADD_SNIPPET_ide_onEndEditing_efc8520025f9470ab3caff5671cb6ecf",
            "type": "ADD_SNIPPET",
            "codeSnippet": "kony.boj.addBeneNextStatus();\nanimateLabel(\"DOWN\", \"lblAddressBene\", frmAddExternalAccountKA.tbxAddressBene.text);\nif(kony.boj.addBeneVar.selectedType === \"DOM\")\n  kony.boj.addBeneficiaryAnimation(\"lblAccountNumber\");\nelse\n  kony.boj.addBeneficiaryAnimation(\"lblCityName\");",
            "callbackType": null
        }]
    }
}