{
    "AS_TextField_hf44ec28de1e49f3a341f57d76f7ca58": {
        "id": "AS_TextField_hf44ec28de1e49f3a341f57d76f7ca58",
        "type": "ACTION_SEQUENCE",
        "name": "AS_TextField_onBeginEditingAndroidAmountCardless",
        "params": [{
            "datatype": "collection",
            "name": "eventobject"
        }, {
            "datatype": "string",
            "name": "changedtext"
        }],
        "language": "js",
        "actions": [{
            "id": "ADD_SNIPPET_ide_onBeginEditing_d1a55ddd2be54e87b03451efb8c1910c",
            "type": "ADD_SNIPPET",
            "codeSnippet": "frmCardlessTransaction.flxBorderAmount.skin=\"skntextFieldDividerBlue\";",
            "callbackType": null
        }]
    }
}