{
    "AS_TextField_43ebb18374084bcf8fc8becec46850d0": {
        "id": "AS_TextField_43ebb18374084bcf8fc8becec46850d0",
        "type": "ACTION_SEQUENCE",
        "params": [{
            "datatype": "collection",
            "name": "eventobject"
        }, {
            "datatype": "string",
            "name": "changedtext"
        }],
        "contextObj": {
            "name": "frmNewTransferKA",
            "type": "forms",
            "platform": "",
            "KUID": "2ac343500306428da0ceef91a3b44d18"
        },
        "language": "js",
        "actions": [{
            "id": "ADD_SNIPPET__9b90dfa84e4e4a5a91fd127707e65611",
            "type": "ADD_SNIPPET",
            "codeSnippet": "RecurringChanges(\"5\");",
            "parentId": null,
            "callbackType": null
        }]
    }
}