{
    "AS_TextField_a5daa1e8ba654b7aa2712551280d1886": {
        "id": "AS_TextField_a5daa1e8ba654b7aa2712551280d1886",
        "type": "ACTION_SEQUENCE",
        "params": [{
            "datatype": "collection",
            "name": "eventobject"
        }, {
            "datatype": "string",
            "name": "changedtext"
        }],
        "contextObj": {
            "type": "forms",
            "platform": "",
            "KUID": "1df7248b622b405fb1a73c4deef77bd8"
        },
        "language": "js",
        "actions": [{
            "id": "ADD_SNIPPET__c2dc47eeea234b72ba52a44e9c026aab",
            "type": "ADD_SNIPPET",
            "codeSnippet": "disableSelectPayeeButton();",
            "parentId": null,
            "callbackType": null
        }]
    }
}