{
    "AS_TextField_i83910330d114f72a4a7876cd49666c3": {
        "id": "AS_TextField_i83910330d114f72a4a7876cd49666c3",
        "type": "ACTION_SEQUENCE",
        "params": [{
            "datatype": "collection",
            "name": "eventobject"
        }, {
            "datatype": "string",
            "name": "changedtext"
        }],
        "language": "js",
        "actions": [{
            "id": "ADD_SNIPPET_ide_onEndEditing_a0738eece39344d88cc8cc66575b391c",
            "type": "ADD_SNIPPET",
            "codeSnippet": "animateLabel(\"DOWN\",\"lblAddressMail\",frmRequestStatementAccounts.txtAddressMail.text);",
            "callbackType": null
        }]
    }
}