{
    "AS_TextField_g3308bf66f4745a89199794fba2c1137": {
        "id": "AS_TextField_g3308bf66f4745a89199794fba2c1137",
        "type": "ACTION_SEQUENCE",
        "name": "AS_TextField_NationalIDRegistration_CustomerID_onBeginEditingAnd",
        "params": [{
            "datatype": "collection",
            "name": "eventobject"
        }, {
            "datatype": "string",
            "name": "changedtext"
        }],
        "contextObj": {
            "name": "frmRegisterUser",
            "type": "forms",
            "platform": "",
            "KUID": "cd7432ec5087404590338186c94e35d2"
        },
        "language": "js",
        "actions": [{
            "id": "ADD_SNIPPET__g8021504f70747128cce19a9dd2f3c72",
            "type": "ADD_SNIPPET",
            "codeSnippet": "animateLabel(\"UP\", \"lblAccountNumberTitle\", frmRegisterUser.txtAccountNumber.text);",
            "parentId": null,
            "callbackType": null
        }]
    }
}