{
    "AS_TextField_g11e426066ca40f08bc63576820218ee": {
        "id": "AS_TextField_g11e426066ca40f08bc63576820218ee",
        "type": "ACTION_SEQUENCE",
        "params": [{
            "datatype": "collection",
            "name": "eventobject"
        }, {
            "datatype": "string",
            "name": "changedtext"
        }],
        "language": "js",
        "actions": [{
            "id": "ADD_SNIPPET_ide_onDone_d57f365ef7294a9382e54fa15e2b62d9",
            "type": "ADD_SNIPPET",
            "codeSnippet": "animateLabel(\"UP\",\"lblstaticdescription\",frmJoMoPay.txtDescription.text);\nfrmJoMoPay.flxBorderAmount.skin=\"skntextFieldDividerGreen\";",
            "callbackType": null
        }]
    }
}