{
    "AS_TextField_bb5866a526ad4a92b5a1df88c0986ac5": {
        "id": "AS_TextField_bb5866a526ad4a92b5a1df88c0986ac5",
        "type": "ACTION_SEQUENCE",
        "name": "AS_TextField_onBeginEdittingAndroidCardlessAmount",
        "params": [{
            "datatype": "collection",
            "name": "eventobject"
        }, {
            "datatype": "string",
            "name": "changedtext"
        }],
        "contextObj": {
            "name": "frmCardlessTransaction",
            "type": "forms",
            "platform": "",
            "KUID": "b7e7974060664c0093c575d8bba1e829"
        },
        "language": "js",
        "actions": [{
            "id": "ADD_SNIPPET__ec5c650c8d174ac1869c3dd0092c8e1e",
            "type": "ADD_SNIPPET",
            "codeSnippet": "frmCardlessTransaction.flxBorderAmount.skin=\"skntextFieldDivider\";\nfrmCardlessTransaction.flxBorderAmount.text=\"\";",
            "parentId": null,
            "callbackType": null
        }]
    }
}