{
    "AS_TextField_dacfd6b0d32b4e51a5da2f3fb49c96d8": {
        "id": "AS_TextField_dacfd6b0d32b4e51a5da2f3fb49c96d8",
        "type": "ACTION_SEQUENCE",
        "params": [{
            "datatype": "collection",
            "name": "eventobject"
        }, {
            "datatype": "string",
            "name": "changedtext"
        }],
        "contextObj": {
            "name": "frmAddExternalAccountKA",
            "type": "forms",
            "platform": "",
            "KUID": "4943cca5d62d4f0ca6f2e9ab47274db5"
        },
        "language": "js",
        "actions": [{
            "id": "ADD_SNIPPET_ide_onEndEditing_ff5bc2383b3b497fb263261813a6e947",
            "type": "ADD_SNIPPET",
            "codeSnippet": "if(kony.retailBanking.util.validation.isValidUsername(frmEnrolluserLandingKA.tbxUsernameKA.text)){\n  frmEnrolluserLandingKA.flxUnderlineUsername.skin = \"sknFlxGreenLine\";\n  usernameFlag = true;\n}else{\n  frmEnrolluserLandingKA.flxUnderlineUsername.skin = \"sknFlxOrangeLine\";\n  usernameFlag = false;\n}\n\nanimateLabel(\"DOWN\", \"lblUsername\", frmEnrolluserLandingKA.tbxUsernameKA.text);",
            "callbackType": null
        }]
    }
}