{
    "AS_TextField_ice1795db09d4a2081ae2550cd34fe4c": {
        "id": "AS_TextField_ice1795db09d4a2081ae2550cd34fe4c",
        "type": "ACTION_SEQUENCE",
        "params": [{
            "datatype": "collection",
            "name": "eventobject"
        }, {
            "datatype": "string",
            "name": "changedtext"
        }],
        "language": "js",
        "actions": [{
            "id": "ADD_SNIPPET_ide_onBeginEditing_dbc194afb1a34c2cac2a492ed8a9d8e1",
            "type": "ADD_SNIPPET",
            "codeSnippet": "animate_NEWCARDSOPTIOS(\"UP\", \"lblBeneficiaryAlias\", frmJOMOPayAddBiller.txtBeneficiaryAlias.text);"
        }]
    }
}