{
    "AS_TextField_gead35dbce8a489da13944cfcda8fadb": {
        "id": "AS_TextField_gead35dbce8a489da13944cfcda8fadb",
        "type": "ACTION_SEQUENCE",
        "params": [{
            "datatype": "collection",
            "name": "eventobject"
        }, {
            "datatype": "string",
            "name": "changedtext"
        }],
        "contextObj": {
            "name": "frmNewBillDetails",
            "type": "forms",
            "platform": null,
            "KUID": "c2132c3b91ec4677ab952b729de9fc0e"
        },
        "language": "js",
        "actions": [{
            "id": "ADD_SNIPPET_ide_onEndEditing_a49d84f4498b41e78d7ad432ef91e33d",
            "type": "ADD_SNIPPET",
            "codeSnippet": "onDoneBillerNum();\nanimateLabel(\"DOWN\",\"lblBillerNumber\", frmNewBillKA.tbxBillerNumber.text);",
            "callbackType": null
        }]
    }
}