{
    "AS_TextField_ibfb2d28a5ed492cb254d0a3ffbefe40": {
        "id": "AS_TextField_ibfb2d28a5ed492cb254d0a3ffbefe40",
        "type": "ACTION_SEQUENCE",
        "params": [{
            "datatype": "collection",
            "name": "eventobject"
        }, {
            "datatype": "string",
            "name": "changedtext"
        }],
        "contextObj": {
            "name": "frmEstatementLandingKA",
            "type": "forms",
            "platform": null,
            "KUID": "d1dcb94f4a054dda97d66cbdc216d96a"
        },
        "language": "js",
        "actions": [{
            "id": "ADD_SNIPPET_ide_onBeginEditing_g1d1e4b4658b4d71b5faf7f1df63c1e5",
            "type": "ADD_SNIPPET",
            "codeSnippet": "try{\n  frmLoginKA.borderBottom.skin=\"skntextFieldDividerBlue\";\n}catch(err){\n  kony.print( \"err in pwd::\"+err);\n}",
            "callbackType": null
        }]
    }
}