{
    "AS_TextField_d2f50d804d83454489eb6a3d62c79fa4": {
        "id": "AS_TextField_d2f50d804d83454489eb6a3d62c79fa4",
        "type": "ACTION_SEQUENCE",
        "name": "AS_TextField_onDoneRecurrence",
        "params": [{
            "datatype": "collection",
            "name": "eventobject"
        }, {
            "datatype": "string",
            "name": "changedtext"
        }],
        "contextObj": {
            "name": "frmNewTransferKA",
            "type": "forms",
            "platform": "",
            "KUID": "2ac343500306428da0ceef91a3b44d18"
        },
        "language": "js",
        "actions": [{
            "id": "ADD_SNIPPET__e461f8826f61437e9b36e00ebfd0d696",
            "type": "ADD_SNIPPET",
            "codeSnippet": "onTextChangeRecurrence();\nanimateLabel(\"DOWN\",\"lblNumRecurr\", frmNewTransferKA.txtNumRecurrences.text);",
            "parentId": null,
            "callbackType": null
        }]
    }
}