{
    "AS_TextField_cc66c1332ea24c2588f20ac1e41f8b34": {
        "id": "AS_TextField_cc66c1332ea24c2588f20ac1e41f8b34",
        "type": "ACTION_SEQUENCE",
        "name": "AS_TextField_OnClickIBANAliasEPSScreen",
        "params": [{
            "datatype": "collection",
            "name": "eventobject"
        }, {
            "datatype": "string",
            "name": "changedtext"
        }],
        "contextObj": {
            "name": "frmEPS",
            "type": "forms",
            "platform": "",
            "KUID": "c49bbb3175be499d86d933cee301b3c4"
        },
        "language": "js",
        "actions": [{
            "id": "ADD_SNIPPET__id01b4f2c11f445f81ecdb629a1dcc66",
            "type": "ADD_SNIPPET",
            "codeSnippet": "if(frmEPS.flxUnderlineIBAN.skin == \"sknFlxGreyLine\"){\nvalidateLblNext();\n}",
            "parentId": null,
            "callbackType": null
        }]
    }
}