{
    "AS_TextField_3a810bdc955242e8ab94af3a3ea47d27": {
        "id": "AS_TextField_3a810bdc955242e8ab94af3a3ea47d27",
        "type": "ACTION_SEQUENCE",
        "params": [{
            "datatype": "collection",
            "name": "eventobject"
        }, {
            "datatype": "string",
            "name": "changedtext"
        }],
        "language": "js",
        "actions": [{
            "id": "ADD_SNIPPET_ide_onEndEditing_3979a1d98e82475ebe375b09da6e4971",
            "type": "ADD_SNIPPET",
            "codeSnippet": "//onRecurrenceNumberOfTimesSelection();",
            "callbackType": null
        }]
    }
}