{
    "AS_TextField_he49112ba47a401c90ba027e31939295": {
        "id": "AS_TextField_he49112ba47a401c90ba027e31939295",
        "type": "ACTION_SEQUENCE",
        "params": [{
            "datatype": "collection",
            "name": "eventobject"
        }, {
            "datatype": "string",
            "name": "changedtext"
        }],
        "language": "js",
        "actions": [{
            "id": "ADD_SNIPPET_ide_onDone_c5c08b136e9544d9aa25009112ba36ea",
            "type": "ADD_SNIPPET",
            "codeSnippet": "var gblAliasType = null;\nkony.sdk.mvvm.KonyApplicationContext.showLoadingScreen(\"\");\ngblAliasType = frmEPS.txtAliasNameMob.text;\nGetAliasInfo(gblAliasType);",
            "callbackType": null
        }]
    }
}