{
    "AS_TextField_a45d330fef37456c9e11f55990524049": {
        "id": "AS_TextField_a45d330fef37456c9e11f55990524049",
        "type": "ACTION_SEQUENCE",
        "params": [{
            "datatype": "collection",
            "name": "eventobject"
        }, {
            "datatype": "string",
            "name": "changedtext"
        }],
        "language": "js",
        "actions": [{
            "id": "ADD_SNIPPET_ide_onBeginEditing_f113c210e11a4fb782365f8dddca068f",
            "type": "ADD_SNIPPET",
            "codeSnippet": "animate_NEWCARDSOPTIOS(\"UP\",\"lblDepositAmountTitle\",frmOpenTermDeposit.txtDepositAmount.text);",
            "callbackType": null
        }]
    }
}