{
    "AS_TextField_f5aa9f3bd27049779e0f23e3fef92771": {
        "id": "AS_TextField_f5aa9f3bd27049779e0f23e3fef92771",
        "type": "ACTION_SEQUENCE",
        "params": [{
            "datatype": "collection",
            "name": "eventobject"
        }, {
            "datatype": "string",
            "name": "changedtext"
        }],
        "contextObj": {
            "type": "forms",
            "platform": null,
            "KUID": "f1620f6e035b43a797bd646b22cf30e3"
        },
        "language": "js",
        "actions": [{
            "id": "ADD_SNIPPET_ide_onTextChange_d43ae43bfe4049c290a3e1e32c7951db",
            "type": "ADD_SNIPPET",
            "codeSnippet": "transferInternalAccountSearch();\ntransferExternalAccountSearch();",
            "callbackType": null
        }]
    }
}