{
    "AS_TextField_f88a7e1ce867455eb119517f381a91e3": {
        "id": "AS_TextField_f88a7e1ce867455eb119517f381a91e3",
        "type": "ACTION_SEQUENCE",
        "params": [{
            "datatype": "collection",
            "name": "eventobject"
        }, {
            "datatype": "string",
            "name": "changedtext"
        }],
        "contextObj": {
            "name": "frmLoginKA",
            "type": "forms",
            "platform": "",
            "KUID": "7b1aa8fceb6b4070833e9eab879b0e5e"
        },
        "language": "js",
        "actions": [{
            "id": "ADD_SNIPPET__c85700d862c144e38fcfcee035d32b12",
            "type": "ADD_SNIPPET",
            "codeSnippet": "frmLoginKA.borderBottom.skin=\"skntextFieldDividerBlue\";",
            "parentId": null,
            "callbackType": null
        }]
    }
}