{
    "AS_TextField_e170472aeeec40f282dfd1ea2892c11b": {
        "id": "AS_TextField_e170472aeeec40f282dfd1ea2892c11b",
        "type": "ACTION_SEQUENCE",
        "params": [{
            "datatype": "collection",
            "name": "eventobject"
        }, {
            "datatype": "string",
            "name": "changedtext"
        }],
        "contextObj": {
            "name": "frmAddExternalAccountKA",
            "type": "forms",
            "platform": "",
            "KUID": "4943cca5d62d4f0ca6f2e9ab47274db5"
        },
        "language": "js",
        "actions": [{
            "id": "ADD_SNIPPET_ide_onDone_c5864f04a68e41d69a9b7ebb7303afc9",
            "type": "ADD_SNIPPET",
            "codeSnippet": "animateLabel(\"DOWN\", \"lblUsername\", frmEnrolluserLandingKA.tbxUsernameKA.text);\nanimateLabel(\"UP\", \"lblPassword\", frmEnrolluserLandingKA.tbxPasswordKA.text);",
            "callbackType": null
        }]
    }
}