{
    "AS_TextField_bfe0bbfc64304b5780f41cb2b631a240": {
        "id": "AS_TextField_bfe0bbfc64304b5780f41cb2b631a240",
        "type": "ACTION_SEQUENCE",
        "name": "AS_TextField_onTouchStartWeb",
        "params": [{
            "datatype": "collection",
            "name": "eventobject"
        }, {
            "datatype": "string",
            "name": "x"
        }, {
            "datatype": "string",
            "name": "y"
        }],
        "contextObj": {
            "name": "frmWebCharge",
            "type": "forms",
            "platform": "",
            "KUID": "i9ea7101c04f4b03aabeac1fe8d65589"
        },
        "language": "js",
        "actions": [{
            "id": "ADD_SNIPPET__d3c51e90db4d430da0d6bcb2928d6171",
            "type": "ADD_SNIPPET",
            "codeSnippet": "frmWebCharge.txtFieldAmount.maxTextLength = 9;\nfrmWebCharge.txtFieldAmount.text=frmWebCharge.lblHiddenAmount.text;",
            "parentId": null,
            "callbackType": null
        }]
    }
}