{
    "AS_TextField_91630a88f83f48e0a2872d953435f085": {
        "id": "AS_TextField_91630a88f83f48e0a2872d953435f085",
        "type": "ACTION_SEQUENCE",
        "params": [{
            "datatype": "collection",
            "name": "eventobject"
        }, {
            "datatype": "string",
            "name": "changedtext"
        }],
        "contextObj": {
            "type": "forms",
            "platform": "",
            "KUID": "595170e0ad324e3699d120dae6f9e312"
        },
        "language": "js",
        "actions": [{
            "id": "ADD_SNIPPET__7d56171c05b74b62954f43f6dc5bfb89",
            "type": "ADD_SNIPPET",
            "codeSnippet": "kony.print(\"Deleted\");",
            "parentId": null,
            "callbackType": null
        }]
    }
}