{
    "AS_TextField_h3898080b0b24f128b72f02ce3752521": {
        "id": "AS_TextField_h3898080b0b24f128b72f02ce3752521",
        "type": "ACTION_SEQUENCE",
        "params": [{
            "datatype": "collection",
            "name": "eventobject"
        }, {
            "datatype": "string",
            "name": "changedtext"
        }],
        "language": "js",
        "actions": [{
            "id": "ADD_SNIPPET_ide_onEndEditing_hc71fdf2c4d143328ac94857ff42de28",
            "type": "ADD_SNIPPET",
            "codeSnippet": "animateLabel(\"DOWN\", \"lblPassword\",frmCardlessTransaction.tbxPassword.text);",
            "callbackType": null
        }]
    }
}