{
    "AS_TextField_b8d4f87f26ec4539bb794a266471e215": {
        "id": "AS_TextField_b8d4f87f26ec4539bb794a266471e215",
        "type": "ACTION_SEQUENCE",
        "name": "AS_TextField_NationalIDRegistration_NationalID_onEndEditingIOS",
        "params": [{
            "datatype": "collection",
            "name": "eventobject"
        }, {
            "datatype": "string",
            "name": "changedtext"
        }],
        "contextObj": {
            "name": "frmRegisterUser",
            "type": "forms",
            "platform": "",
            "KUID": "cd7432ec5087404590338186c94e35d2"
        },
        "language": "js",
        "actions": [{
            "id": "ADD_SNIPPET__d000c2f1c0c041ec81663ff3c660fdb3",
            "type": "ADD_SNIPPET",
            "codeSnippet": "animateLabel(\"DOWN\", \"lblNationalIDTitle\", frmRegisterUser.txtNationalID.text);",
            "parentId": null,
            "callbackType": null
        }]
    }
}