{
    "AS_TextField_b518ce87e3744fd1b9c9de8a30d121c7": {
        "id": "AS_TextField_b518ce87e3744fd1b9c9de8a30d121c7",
        "type": "ACTION_SEQUENCE",
        "params": [{
            "datatype": "collection",
            "name": "eventobject"
        }, {
            "datatype": "string",
            "name": "changedtext"
        }],
        "contextObj": {
            "name": "frmLoginKA",
            "type": "forms",
            "platform": "",
            "KUID": "7b1aa8fceb6b4070833e9eab879b0e5e"
        },
        "language": "js",
        "actions": [{
            "id": "ADD_SNIPPET__j0032769a5434562bf19fb7b05ab653a",
            "type": "ADD_SNIPPET",
            "codeSnippet": "//frmLoginKA.borderBottom.skin=\"skntextFieldDividerGreen\";\nkony.print(\"Commented for testing by Afwan\");",
            "parentId": null,
            "callbackType": null
        }]
    }
}