{
    "AS_TextField_ce496fa840164973ba123d6e3cf29c51": {
        "id": "AS_TextField_ce496fa840164973ba123d6e3cf29c51",
        "type": "ACTION_SEQUENCE",
        "params": [{
            "datatype": "collection",
            "name": "eventobject"
        }, {
            "datatype": "string",
            "name": "changedtext"
        }],
        "language": "js",
        "actions": [{
            "id": "ADD_SNIPPET_ide_onTextChange_ccf4ef6e1e064d6b87657214de24d2f8",
            "type": "ADD_SNIPPET",
            "codeSnippet": "//kony.boj.storeDetailsAddBiller(\"BillerNumber\", frmAddNewPrePayeeKA.tbxBillerNumber.text); hassan\n/*if(kony.boj.isNextEnabledPreBiller())\n  frmAddNewPrePayeeKA.lblNext.skin = \"sknLblNextEnabled\";\nelse\n  frmAddNewPrePayeeKA.lblNext.skin = \"sknLblNextDisabled\";*/\nnextFromNewPrepaidBene();",
            "callbackType": null
        }]
    }
}