{
    "AS_TextField_e80f545b8ff04ac480dfd005e443789b": {
        "id": "AS_TextField_e80f545b8ff04ac480dfd005e443789b",
        "type": "ACTION_SEQUENCE",
        "name": "AS_TextField_onDoneDepositeAmountText",
        "params": [{
            "datatype": "collection",
            "name": "eventobject"
        }, {
            "datatype": "string",
            "name": "changedtext"
        }],
        "contextObj": {
            "type": "forms",
            "platform": "",
            "KUID": "fec6fddbcf8543f2b30114c87e1a7e99"
        },
        "language": "js",
        "actions": [{
            "id": "ADD_SNIPPET__f0fe3f74c55340b2b57e78dbb23ca6c5",
            "type": "ADD_SNIPPET",
            "codeSnippet": "kony.print(\"onDone\");\namountFieldCheck();\ncallRateService();\ncheckNextOpenDeposite();",
            "parentId": null,
            "callbackType": null
        }]
    }
}