{
    "AS_TextField_a3e6c9fe63bc41fe8449f9e446116974": {
        "id": "AS_TextField_a3e6c9fe63bc41fe8449f9e446116974",
        "type": "ACTION_SEQUENCE",
        "name": "AS_TextField_OnTouchEndAliasNameEPS",
        "params": [{
            "datatype": "collection",
            "name": "eventobject"
        }, {
            "datatype": "string",
            "name": "x"
        }, {
            "datatype": "string",
            "name": "y"
        }],
        "contextObj": {
            "name": "frmEPS",
            "type": "forms",
            "platform": "",
            "KUID": "c49bbb3175be499d86d933cee301b3c4"
        },
        "language": "js",
        "actions": [{
            "id": "ADD_SNIPPET__h25bd529f03a4ecda1aac239fff20482",
            "type": "ADD_SNIPPET",
            "codeSnippet": "animateLabel(\"UP\",\"lblAliasName\",frmEPS.txtAliasName.text);",
            "parentId": null,
            "callbackType": null
        }]
    }
}