{
    "AS_TextField_j96199a55161494c90dacac8f7d31f9e": {
        "id": "AS_TextField_j96199a55161494c90dacac8f7d31f9e",
        "type": "ACTION_SEQUENCE",
        "params": [{
            "datatype": "collection",
            "name": "eventobject"
        }, {
            "datatype": "string",
            "name": "changedtext"
        }],
        "contextObj": {
            "name": "frmAddExternalAccountKA",
            "type": "forms",
            "platform": "",
            "KUID": "4943cca5d62d4f0ca6f2e9ab47274db5"
        },
        "language": "js",
        "actions": [{
            "id": "ADD_SNIPPET_ide_onEndEditing_h7183ca601a84a4f81199b5b1053397f",
            "type": "ADD_SNIPPET",
            "codeSnippet": "if(kony.retailBanking.util.validation.isValidUsername(frmEnrolluserLandingKA.tbxUsernameKA.text)){\n  frmEnrolluserLandingKA.flxUnderlineUsername.skin = \"sknFlxGreenLine\";\n  usernameFlag = true;\n}else{\n  frmEnrolluserLandingKA.flxUnderlineUsername.skin = \"sknFlxOrangeLine\";\n  usernameFlag = false;\n}\n\nanimateLabel(\"DOWN\", \"lblUsername\", frmEnrolluserLandingKA.tbxUsernameKA.text);",
            "callbackType": null
        }]
    }
}