{
    "AS_TextField_ef0cf9288f4645daa30a3f257a4ca249": {
        "id": "AS_TextField_ef0cf9288f4645daa30a3f257a4ca249",
        "type": "ACTION_SEQUENCE",
        "params": [{
            "datatype": "collection",
            "name": "eventobject"
        }, {
            "datatype": "string",
            "name": "changedtext"
        }],
        "language": "js",
        "actions": [{
            "id": "ADD_SNIPPET_ide_onTextChange_caddffececc74023b164b3ef56ed1e65",
            "type": "ADD_SNIPPET",
            "codeSnippet": "kony.chatbots.user.onTextChangeOfUserTextField();",
            "callbackType": null
        }]
    }
}