{
    "AS_TextField_b91f7c8352e243a48513ed5e962ac86d": {
        "id": "AS_TextField_b91f7c8352e243a48513ed5e962ac86d",
        "type": "ACTION_SEQUENCE",
        "params": [{
            "datatype": "collection",
            "name": "eventobject"
        }, {
            "datatype": "string",
            "name": "changedtext"
        }],
        "language": "js",
        "actions": [{
            "id": "ADD_SNIPPET_ide_onTextChange_g52d521c90994c4da5218d265c1ee15a",
            "type": "ADD_SNIPPET",
            "codeSnippet": "/*if(checkNextCardless())\n  frmCardlessTransaction.btnSubmit.setEnabled(true);\nelse\n  frmCardlessTransaction.btnSubmit.setEnabled(false);*/\ncheckNextCardless();\n\nfrmCardlessTransaction.lblHiddenAmount.text=frmCardlessTransaction.txtFieldAmount.text;\nfrmCardlessTransaction.txtFieldAmount.text = fixDecimal(frmCardlessTransaction.txtFieldAmount.text,getDecimalNumForCurr(frmCardlessTransaction.lblCurrencyCode.text));",
            "callbackType": null
        }]
    }
}