{
    "AS_TextField_af9742cc1496429d8eacb2e928e13291": {
        "id": "AS_TextField_af9742cc1496429d8eacb2e928e13291",
        "type": "ACTION_SEQUENCE",
        "params": [{
            "datatype": "collection",
            "name": "eventobject"
        }, {
            "datatype": "string",
            "name": "changedtext"
        }],
        "contextObj": {
            "name": "frmLoginKA",
            "type": "forms",
            "platform": "",
            "KUID": "7b1aa8fceb6b4070833e9eab879b0e5e"
        },
        "language": "js",
        "actions": [{
            "id": "ADD_SNIPPET__e2703f2b3d3b4276852ca717155b7c28",
            "type": "ADD_SNIPPET",
            "codeSnippet": "//frmLoginKA.borderBottom.skin=\"skntextFieldDividerGreen\";\nkony.print(\"Commented for testing by Afwan\");",
            "parentId": null,
            "callbackType": null
        }]
    }
}