{
    "AS_TextField_jd357dbb293b467abd4f16b16897da42": {
        "id": "AS_TextField_jd357dbb293b467abd4f16b16897da42",
        "type": "ACTION_SEQUENCE",
        "params": [{
            "datatype": "collection",
            "name": "eventobject"
        }, {
            "datatype": "string",
            "name": "x"
        }, {
            "datatype": "string",
            "name": "y"
        }],
        "contextObj": {
            "name": "frmEstatementLandingKA",
            "type": "forms",
            "platform": "",
            "KUID": "d1dcb94f4a054dda97d66cbdc216d96a"
        },
        "language": "js",
        "actions": [{
            "id": "ADD_SNIPPET__ffd7ddd3d9604904b58f2530e6b8f8ac",
            "type": "ADD_SNIPPET",
            "codeSnippet": "try{\n  if(frmEstatementLandingKA.txtEmail2.text!==null&& frmEstatementLandingKA.txtEmail2.text!==\"\")\n  {\n    frmEstatementLandingKA.borderBottom2.skin=\"skntextFieldDividerGreen\";\n  }else\n  {\n    frmEstatementLandingKA.borderBottom2.skin=\"skntextFieldDivider\";\n  }\n  frmEstatementLandingKA.lblClose2.setVisibility(true);\n  frmEstatementLandingKA.lblClose1.setVisibility(false);\n}catch(err){\n  kony.print( \"err in pwd::\"+err);\n}",
            "parentId": null,
            "callbackType": null
        }]
    }
}