{
    "AS_TextField_e79ee9bcd2ca4c8cade3de2a115cb7a9": {
        "id": "AS_TextField_e79ee9bcd2ca4c8cade3de2a115cb7a9",
        "type": "ACTION_SEQUENCE",
        "name": "AS_textChangeofRequestCardPIn",
        "params": [{
            "datatype": "collection",
            "name": "eventobject"
        }, {
            "datatype": "string",
            "name": "changedtext"
        }],
        "language": "js",
        "actions": [{
            "id": "ADD_SNIPPET_ide_onTextChange_j9c5d919eddc454ca65192a7d1f4c65c",
            "type": "ADD_SNIPPET",
            "codeSnippet": "onTextChangeRequestPINCard();\n",
            "callbackType": null,
            "disabled": true
        }]
    }
}