{
    "AS_TextField_e543fd73147b406ea7fe4a2b6f9f239b": {
        "id": "AS_TextField_e543fd73147b406ea7fe4a2b6f9f239b",
        "type": "ACTION_SEQUENCE",
        "name": "AS_TextField_OnDoneAmountIPS",
        "params": [{
            "datatype": "collection",
            "name": "eventobject"
        }, {
            "datatype": "string",
            "name": "changedtext"
        }],
        "contextObj": {
            "name": "frmEPS",
            "type": "forms",
            "platform": "",
            "KUID": "c49bbb3175be499d86d933cee301b3c4"
        },
        "language": "js",
        "actions": [{
            "id": "ADD_SNIPPET__e67154a0392b4470a0e43c4d397d4717",
            "type": "ADD_SNIPPET",
            "codeSnippet": "validateLblNext();",
            "parentId": null,
            "callbackType": null
        }]
    }
}