{
    "AS_TextField_2be9bc9616554dc0b5a0b71ddefd4630": {
        "id": "AS_TextField_2be9bc9616554dc0b5a0b71ddefd4630",
        "type": "ACTION_SEQUENCE",
        "params": [{
            "datatype": "collection",
            "name": "eventobject"
        }, {
            "datatype": "string",
            "name": "changedtext"
        }],
        "contextObj": {
            "name": "frmLoginKA",
            "type": "forms",
            "platform": "",
            "KUID": "7b1aa8fceb6b4070833e9eab879b0e5e"
        },
        "language": "js",
        "actions": [{
            "id": "ADD_SNIPPET__80b9fb6d8c7749e19e6bf7a56af55977",
            "type": "ADD_SNIPPET",
            "codeSnippet": "frmLoginKA.passwordTextField.text = \"\";\nfrmLoginKA.passwordTextField.secureTextEntry = true;\nfrmLoginKA.lblShowPass.text = \"A\";\nfrmLoginKA.lblInvalidCredentialsKA.isVisible = false;",
            "parentId": null,
            "callbackType": null
        }]
    }
}