{
    "AS_TextField_b95beac9d45a4544b30c20055dcdd796": {
        "id": "AS_TextField_b95beac9d45a4544b30c20055dcdd796",
        "type": "ACTION_SEQUENCE",
        "params": [{
            "datatype": "collection",
            "name": "eventobject"
        }, {
            "datatype": "string",
            "name": "changedtext"
        }],
        "contextObj": {
            "name": "frmLanguageChange",
            "type": "forms",
            "platform": "",
            "KUID": "gf87c4f80b864112b53423e6a7ad3af8"
        },
        "language": "js",
        "actions": [{
            "id": "ADD_SNIPPET_ide_onTextChange_f095ff7fce7a4619a75f78baf8670a9f",
            "type": "ADD_SNIPPET",
            "codeSnippet": "animateLabel(\"UP\",\"lblUserName\",frmLanguageChange.tbxusernameTextField.text); ",
            "callbackType": null
        }]
    }
}