{
    "AS_VBox_c3ca0f35bf8b463a9d71bed582f09347": {
        "id": "AS_VBox_c3ca0f35bf8b463a9d71bed582f09347",
        "type": "ACTION_SEQUENCE",
        "params": [{
            "datatype": "collection",
            "name": "eventobject"
        }],
        "contextObj": {
            "name": "popupCommonAlert",
            "type": "popups",
            "platform": "",
            "KUID": "a858ead763084439955bc861790ad001"
        },
        "language": "js",
        "actions": [{
            "id": "ADD_SNIPPET__ad45086182b848b58c68dd021e77c5eb",
            "type": "ADD_SNIPPET",
            "codeSnippet": "if(popupSort.imgAmountAsc.src == \"map_arrow_straightmap_arrow_straight_nonselected.png\")\n\tpopupSort.imgAmountAsc.src = \"map_arrow_straight.png\";\nelse\n  \tpopupSort.imgAmountAsc.src = \"map_arrow_straightmap_arrow_straight_nonselected.png\";",
            "parentId": null,
            "callbackType": null,
            "disabled": true
        }, {
            "id": "INVOKE_FUNCTION___g403bc18b8a94d2ebc7b01865716d7ff",
            "type": "INVOKE_FUNCTION",
            "sequenceKUID": "accountInfoSorting",
            "display": "accountInfoSorting",
            "inputparams": [{
                "name": "widget",
                "value": "popupSort.imgAmountAsc"
            }, {
                "name": "sortby",
                "value": "\"Amount\""
            }, {
                "name": "type",
                "value": "\"ascending\""
            }],
            "parentId": null,
            "callbackType": null,
            "disabled": null,
            "source": "module"
        }]
    }
}