{
    "AS_FlexContainer_c6e8dfd3096f4d2cb54c51c0d3ca1b53": {
        "id": "AS_FlexContainer_c6e8dfd3096f4d2cb54c51c0d3ca1b53",
        "type": "ACTION_SEQUENCE",
        "name": "asBackfromFrmFxRate",
        "params": [{
            "datatype": "collection",
            "name": "eventobject"
        }],
        "language": "js",
        "actions": [{
            "id": "ADD_SNIPPET_ide_onClick_ed2e71b98350458c8dce00d7276d898c",
            "type": "ADD_SNIPPET",
            "codeSnippet": "gblCalculateFXLeft = false;\ngblCalculateFXRight = false;\ngblExchangeRatesFlag = false;\nfrmMore.show();",
            "callbackType": null
        }]
    }
}