{
    "AS_Button_ae0c8fa3fc1d4b758e389919082b4370": {
        "id": "AS_Button_ae0c8fa3fc1d4b758e389919082b4370",
        "type": "ACTION_SEQUENCE",
        "name": "asBtnActionConfirmUpdateSMSNumber",
        "params": [{
            "datatype": "collection",
            "name": "eventobject"
        }],
        "contextObj": {
            "name": "frmRegisterUser",
            "type": "forms",
            "platform": "",
            "KUID": "cd7432ec5087404590338186c94e35d2"
        },
        "language": "js",
        "actions": [{
            "id": "ADD_SNIPPET__e1bdb2444d19489e8a3da2d617b26e4b",
            "type": "ADD_SNIPPET",
            "codeSnippet": "if (frmRegisterUser.txtCardNum.text !== null && frmRegisterUser.txtPIN.text !== null && validate_CHANGE_MOBILE_SMS_NUMBER()) {\n  var cardNo = getCardNum(frmRegisterUser.txtCardNum.text);\n  if (cardNo.length == 16 && frmRegisterUser.txtPIN.text.length == 4) {\n    gblUpdateOldMobileNumber = \"\";\n    callPreSMSSendAction();\n  } else {\n    kony.print(\"Invalid::\");\n  }\n}",
            "parentId": null,
            "callbackType": null
        }]
    }
}