{
    "AS_Button_c47b55d940254da4b8397657d787ee7d": {
        "id": "AS_Button_c47b55d940254da4b8397657d787ee7d",
        "type": "ACTION_SEQUENCE",
        "name": "AsbtnOnClickofExchangeRates",
        "params": [{
            "datatype": "collection",
            "name": "eventobject"
        }],
        "language": "js",
        "actions": [{
            "id": "ADD_SNIPPET_ide_onClick_e75b750eedc6470395881a1ba6430cad",
            "type": "ADD_SNIPPET",
            "codeSnippet": "frmFxRate.btnExchangeRates.skin=\"slButtonWhiteTab\";\nfrmFxRate.btnExchangeRates.focusSkin=\"slButtonWhiteTabFocus\";\nfrmFxRate.btnCalculateFx.skin=\"slButtonWhiteTabDisabled\";\nfrmFxRate.flxScrlCalculateFx.setVisibility(false);\nfrmFxRate.flxScrlExchangeRates.setVisibility(true);\nfrmFxRate.forceLayout();",
            "callbackType": null
        }]
    }
}