{
    "AS_FlexContainer_g4c50135d01747e7bfdfc2f22012eba1": {
        "id": "AS_FlexContainer_g4c50135d01747e7bfdfc2f22012eba1",
        "type": "ACTION_SEQUENCE",
        "name": "ASFlagLeftOnclickCallFrmCurrency",
        "params": [{
            "datatype": "collection",
            "name": "eventobject"
        }],
        "contextObj": {
            "name": "frmFxRate",
            "type": "forms",
            "platform": "",
            "KUID": "hecd02a154084a89904bda155d565470"
        },
        "language": "js",
        "actions": [{
            "id": "ADD_SNIPPET__e34c73bc55e34c629d48cab55e95d303",
            "type": "ADD_SNIPPET",
            "codeSnippet": "gblCalculateFXLeft = true;\ngblCalculateFXRight = false;\ngblExchangeRatesFlag = false;\n\nfrmCurrency.show();\n",
            "parentId": null,
            "callbackType": null
        }]
    }
}