{
    "AS_FlexContainer_ab22773207764ce5b705fb12213781ae": {
        "id": "AS_FlexContainer_ab22773207764ce5b705fb12213781ae",
        "type": "ACTION_SEQUENCE",
        "name": "AsOnclickofExchangeRatesFlagShowCurrency",
        "params": [{
            "datatype": "collection",
            "name": "eventobject"
        }],
        "contextObj": {
            "name": "frmFxRate",
            "type": "forms",
            "platform": "",
            "KUID": "hecd02a154084a89904bda155d565470"
        },
        "language": "js",
        "actions": [{
            "id": "ADD_SNIPPET__fa0503da184d4598bfc9c477b4670115",
            "type": "ADD_SNIPPET",
            "codeSnippet": "gblCalculateFXLeft = false;\ngblCalculateFXRight = false;\ngblExchangeRatesFlag = true;\n\nfrmCurrency.show();",
            "parentId": null,
            "callbackType": null
        }]
    }
}