{
    "AS_Button_h9888085bc64491d92c5671a7cb593ca": {
        "id": "AS_Button_h9888085bc64491d92c5671a7cb593ca",
        "type": "ACTION_SEQUENCE",
        "name": "BackOnfrmStandingInstructions",
        "params": [{
            "datatype": "collection",
            "name": "eventobject"
        }],
        "contextObj": {
            "name": "frmStandingInstructions",
            "type": "forms",
            "platform": "",
            "KUID": "cf89335dd93d4b46a77376646c7657ea"
        },
        "language": "js",
        "actions": [{
            "id": "ADD_SNIPPET__fe56391172a44d299a63fe77e81e5683",
            "type": "ADD_SNIPPET",
            "codeSnippet": "frmPaymentDashboard.show();\nfrmStandingInstructions.flxAccountDetailsSort.top = \"5%\"",
            "parentId": null,
            "callbackType": null
        }]
    }
}