{
    "AS_FlexContainer_a831b3c34ecd4144aea91f71d8da7026": {
        "id": "AS_FlexContainer_a831b3c34ecd4144aea91f71d8da7026",
        "type": "ACTION_SEQUENCE",
        "name": "backtoPaymentdashfromJPLanding",
        "params": [{
            "datatype": "collection",
            "name": "eventobject"
        }],
        "contextObj": {
            "name": "frmJoMoPayLanding",
            "type": "forms",
            "platform": "",
            "KUID": "d298f6fe5af04a4dbf76c2b5625a9f8c"
        },
        "language": "js",
        "actions": [{
            "id": "ADD_SNIPPET__i0668ce9ae124f2da93a57d67dc89370",
            "type": "ADD_SNIPPET",
            "codeSnippet": "frmJoMoPayLanding.txtSearch.text=\"\";\nfrmPaymentDashboard.show();",
            "parentId": null,
            "callbackType": null
        }]
    }
}