{
    "AS_FlexContainer_a1bc11f66e524456b0396a9cc1524461": {
        "id": "AS_FlexContainer_a1bc11f66e524456b0396a9cc1524461",
        "type": "ACTION_SEQUENCE",
        "name": "BackfromEstmtLanding",
        "params": [{
            "datatype": "collection",
            "name": "eventobject"
        }],
        "language": "js",
        "actions": [{
            "id": "ADD_SNIPPET_ide_onClick_f854f2e297b24c82b8d92bb056ebd265",
            "type": "ADD_SNIPPET",
            "codeSnippet": "frmSettingsKA.show();",
            "callbackType": null
        }]
    }
}