{
    "AS_Button_e53e2dcb7e7b4a26b42ee6a078052a07": {
        "id": "AS_Button_e53e2dcb7e7b4a26b42ee6a078052a07",
        "type": "ACTION_SEQUENCE",
        "name": "btn4_frmPinLoginSuccessKA",
        "params": [{
            "datatype": "collection",
            "name": "eventobject"
        }],
        "contextObj": {
            "type": "forms",
            "platform": "",
            "KUID": "4dc207cd9ba542e880a7fee434e24ecb"
        },
        "language": "js",
        "actions": [{
            "id": "ADD_SNIPPET__5eab16df90534e288aac73768b11c715",
            "type": "ADD_SNIPPET",
            "codeSnippet": "check_updated(4);",
            "parentId": null,
            "callbackType": null
        }]
    }
}