{
    "AS_Button_9b55ca3239a34d3683602ff569e3c92a": {
        "id": "AS_Button_9b55ca3239a34d3683602ff569e3c92a",
        "type": "ACTION_SEQUENCE",
        "name": "btn7_frmLoginKA",
        "params": [{
            "datatype": "collection",
            "name": "eventobject"
        }],
        "contextObj": {
            "name": "frmLoginKA",
            "type": "forms",
            "platform": "",
            "KUID": "7b1aa8fceb6b4070833e9eab879b0e5e"
        },
        "language": "js",
        "actions": [{
            "id": "ADD_SNIPPET__53e88a2812b643b8aa21c92b7fd5302c",
            "type": "ADD_SNIPPET",
            "codeSnippet": "check_Login_Pin(7);",
            "parentId": null,
            "callbackType": null
        }]
    }
}