{
    "AS_Button_g30c3e69c1b3478e86eac894cc65da1a": {
        "id": "AS_Button_g30c3e69c1b3478e86eac894cc65da1a",
        "type": "ACTION_SEQUENCE",
        "name": "btnSetResetPinOnClick",
        "params": [{
            "datatype": "collection",
            "name": "eventobject"
        }],
        "contextObj": {
            "name": "frmUserSettingsPinLoginKA",
            "type": "forms",
            "platform": "",
            "KUID": "d6efcea46d734da8bf7a8f21578e100d"
        },
        "language": "js",
        "actions": [{
            "id": "ADD_SNIPPET__hbd96691e69045908287c348cb95073a",
            "type": "ADD_SNIPPET",
            "codeSnippet": "btnSetResetPinonClick();\nflagClicked = true;",
            "parentId": null,
            "callbackType": null
        }]
    }
}