{
    "AS_Button_a5dee383cb6c41729b859066743f1205": {
        "id": "AS_Button_a5dee383cb6c41729b859066743f1205",
        "type": "ACTION_SEQUENCE",
        "name": "cashWithdrawProceedbtnOnClick",
        "params": [{
            "datatype": "collection",
            "name": "eventobject"
        }],
        "contextObj": {
            "type": "forms",
            "platform": "",
            "KUID": "c61ad12e0ab14a518f43b91ce1670e1d"
        },
        "language": "js",
        "actions": [{
            "id": "ADD_SNIPPET__b65e3a35f9874b23a7fe46674c1f3c4e",
            "type": "ADD_SNIPPET",
            "codeSnippet": "frmConfirmCashWithDraw.show();",
            "parentId": null,
            "callbackType": null
        }]
    }
}