{
    "AS_Segment_ha9f1adc915943c3b2a9db7753e7d021": {
        "id": "AS_Segment_ha9f1adc915943c3b2a9db7753e7d021",
        "type": "ACTION_SEQUENCE",
        "name": "ContactSelectionjomopay",
        "params": [{
            "datatype": "collection",
            "name": "eventobject"
        }, {
            "datatype": "number",
            "name": "sectionNumber"
        }, {
            "datatype": "number",
            "name": "rowNumber"
        }],
        "contextObj": {
            "name": "frmJomopayContacts",
            "type": "forms",
            "platform": "",
            "KUID": "e87eb38e1ea54c6586c26f1aee3e02d4"
        },
        "language": "js",
        "actions": [{
            "id": "ADD_SNIPPET__f3e582418ab946d9806c63bfd08050c3",
            "type": "ADD_SNIPPET",
            "codeSnippet": "contactselection();",
            "parentId": null,
            "callbackType": null
        }]
    }
}