{
    "AS_Form_b04a8e05cb5847579518a85cfa0c102a": {
        "id": "AS_Form_b04a8e05cb5847579518a85cfa0c102a",
        "type": "ACTION_SEQUENCE",
        "name": "disablingbackweb",
        "params": [{
            "datatype": "collection",
            "name": "eventobject"
        }],
        "contextObj": {
            "name": "frmWebCharge",
            "type": "forms",
            "platform": "",
            "KUID": "i9ea7101c04f4b03aabeac1fe8d65589"
        },
        "language": "js",
        "actions": [{
            "id": "ADD_SNIPPET__bfc32403eedd4d55afdd113d456f796e",
            "type": "ADD_SNIPPET",
            "codeSnippet": "if(frmWebCharge.flxBodyWeb.isVisible = true){\n  frmManageCardsKA.show();\n  frmWebCharge.destroy();\n  frmWebCharge.txtFieldAmount.text=\"\";\n}else if (frmWebCharge.flxConfirmPopup.isVisible = true)\n{\n  frmWebCharge.flxConfirmPopup.setVisibility(false);\n  frmWebCharge.flxBodyWeb.setVisibility(true);\n}else{\n  kony.print(\"Back is disabled\");\n}",
            "parentId": null,
            "callbackType": null
        }]
    }
}