{
    "AS_TextField_a47356be9f69448f9e26666a578d6223": {
        "id": "AS_TextField_a47356be9f69448f9e26666a578d6223",
        "type": "ACTION_SEQUENCE",
        "name": "endEditingANdroidOfPwd",
        "params": [{
            "datatype": "collection",
            "name": "eventobject"
        }, {
            "datatype": "string",
            "name": "changedtext"
        }],
        "contextObj": {
            "name": "frmLoginKA",
            "type": "forms",
            "platform": "",
            "KUID": "7b1aa8fceb6b4070833e9eab879b0e5e"
        },
        "language": "js",
        "actions": [{
            "id": "ADD_SNIPPET__edc4fcf2e91e42158cabbc38e54c9931",
            "type": "ADD_SNIPPET",
            "codeSnippet": "try{\n  if(frmLoginKA.passwordTextField.text!==null&&frmLoginKA.passwordTextField.text!==\"\")\n  {\n    frmLoginKA.flxbdrpwd.skin=\"skntextFieldDividerGreen\";\n  }\n  else\n  {\n    frmLoginKA.flxbdrpwd.skin=\"skntextFieldDivider\";\n  }\n  animateLabel(\"DOWN\",\"lblPassword\",frmLoginKA.passwordTextField.text);\n}catch(err){\n  kony.print( \"err in pwd::\"+err);\n}",
            "parentId": null
        }]
    }
}