{
    "AS_Button_8db87bb4a1424a639a2ea55c0137630a": {
        "id": "AS_Button_8db87bb4a1424a639a2ea55c0137630a",
        "type": "ACTION_SEQUENCE",
        "name": "EnterLocationOnDone",
        "params": [{
            "datatype": "collection",
            "name": "eventobject"
        }],
        "language": "js",
        "actions": [{
            "id": "ADD_SNIPPET__9120ae8d661a4dc0977d0025a1b6eac0",
            "type": "ADD_SNIPPET",
            "codeSnippet": "locationProceed();",
            "parentId": null,
            "callbackType": null
        }]
    }
}