{
    "AS_FlexContainer_b27fa417155f45d3b153b0d941c198d1": {
        "id": "AS_FlexContainer_b27fa417155f45d3b153b0d941c198d1",
        "type": "ACTION_SEQUENCE",
        "name": "frmAccountInfoKA_flxRightSSC_onClick",
        "params": [{
            "datatype": "collection",
            "name": "eventobject"
        }],
        "contextObj": {
            "name": "frmAccountInfoKA",
            "type": "forms",
            "platform": "",
            "KUID": "b2f984d11c5244e6ae5f81fe393d837e"
        },
        "language": "js",
        "actions": [{
            "id": "ADD_SNIPPET__f468bca3b578403c961069b116bda8ae",
            "type": "ADD_SNIPPET",
            "codeSnippet": "frmAccountInfoKA.flxTabsWrapper.setVisibility(false);\nfrmAccountInfoKA.imgDivSett.setVisibility(false);\nfrmAccountInfoKA.flxAccountOptions.setVisibility(false);\nfrmAccountInfoKA.flxSSCInformation.setVisibility(true);\nfrmAccountInfoKA.lblLoanAccountInfo.text = geti18Value(\"i18n.SSC.BackBtn\");",
            "parentId": null,
            "callbackType": null
        }]
    }
}