{
    "AS_Form_394cf55edc694da991c7976b1227b253": {
        "id": "AS_Form_394cf55edc694da991c7976b1227b253",
        "type": "ACTION_SEQUENCE",
        "name": "frmAccountRecentTransactionOnDeviceBack",
        "params": [{
            "datatype": "collection",
            "name": "eventobject"
        }],
        "contextObj": {
            "type": "forms",
            "platform": null,
            "KUID": "0d68842a63044b0aad261ca209bb8f12"
        },
        "language": "js",
        "actions": [{
            "id": "ADD_SNIPPET_ide_onDeviceBack_81f9c90d1e5a4ab98910dcdc5c613649",
            "type": "ADD_SNIPPET",
            "codeSnippet": "kony.print(\"Device Back\");",
            "callbackType": null
        }]
    }
}