{
    "AS_Form_b434edb1c75c400aa9c27ef24cb0118d": {
        "id": "AS_Form_b434edb1c75c400aa9c27ef24cb0118d",
        "type": "ACTION_SEQUENCE",
        "name": "frmAddNewPayeKADeviceBack",
        "params": [{
            "datatype": "collection",
            "name": "eventobject"
        }],
        "contextObj": {
            "name": "frmAddNewPayeeKA",
            "type": "forms",
            "platform": "",
            "KUID": "22b994296d374ff48427012b2b05feb7"
        },
        "language": "js",
        "actions": [{
            "id": "ADD_SNIPPET__1220bfe8c74d4c88962171e5be991019",
            "type": "ADD_SNIPPET",
            "codeSnippet": "customAlertPopup(geti18Value(\"i18n.common.AreYouSure\"), \n                 geti18Value(\"i18n.Bene.backFromBeneError\"),\n                kony.boj.onClickYesBackAddBene, popupCommonAlertDimiss, \n                geti18Value(\"i18n.common.YES\"),\n                geti18Value(\"i18n.common.NO\"));",
            "parentId": null,
            "callbackType": null
        }]
    }
}