{
    "AS_TextField_d2b8bcb35ad047ce8e8f04135eaad3ff": {
        "id": "AS_TextField_d2b8bcb35ad047ce8e8f04135eaad3ff",
        "type": "ACTION_SEQUENCE",
        "name": "frmBillsOnendeditandroid",
        "params": [{
            "datatype": "collection",
            "name": "eventobject"
        }, {
            "datatype": "string",
            "name": "changedtext"
        }],
        "contextObj": {
            "name": "frmBills",
            "type": "forms",
            "platform": "",
            "KUID": "ade6df6ecf3c4acba302ea54bc0a2e56"
        },
        "language": "js",
        "actions": [{
            "id": "ADD_SNIPPET__d7cd81449b874483a116a1509019e828",
            "type": "ADD_SNIPPET",
            "codeSnippet": "animateLabel(\"DOWN\",\"lblAmount\",frmBills.tbxAmount.text);",
            "parentId": null,
            "callbackType": null
        }]
    }
}