{
    "AS_Form_g65cb29f4ee146479b361ccf0a87dcf6": {
        "id": "AS_Form_g65cb29f4ee146479b361ccf0a87dcf6",
        "type": "ACTION_SEQUENCE",
        "name": "frmIPSRequests_PreShow",
        "params": [{
            "datatype": "collection",
            "name": "eventobject"
        }],
        "contextObj": {
            "name": "frmIPSRequests",
            "type": "forms",
            "platform": "",
            "KUID": "d382284ee62042e6a81640b3c07028c0"
        },
        "language": "js",
        "actions": [{
            "id": "ADD_SNIPPET__a2fc9503602249b58d081253cdcee19d",
            "type": "ADD_SNIPPET",
            "codeSnippet": "",
            "parentId": null,
            "callbackType": null
        }]
    }
}