{
    "AS_Form_ff38fc2574d945feb3ddc91561a06d07": {
        "id": "AS_Form_ff38fc2574d945feb3ddc91561a06d07",
        "type": "ACTION_SEQUENCE",
        "name": "frmMoreFaqKAdeviceback",
        "params": [{
            "datatype": "collection",
            "name": "eventobject"
        }],
        "contextObj": {
            "name": "frmMoreFaqKA",
            "type": "forms",
            "platform": "",
            "KUID": "9261e8e20c71473f990646fcd3d38caf"
        },
        "language": "js",
        "actions": [{
            "id": "ADD_SNIPPET__18789d4f385e4f2f80684039ffaef19e",
            "type": "ADD_SNIPPET",
            "codeSnippet": "kony.print(\"Device Back\");\nonClickMoreInfoOptionsBack();",
            "parentId": null,
            "callbackType": null
        }]
    }
}