{
    "AS_FlexContainer_c3edc5026f094f809ed76de29759e9a3": {
        "id": "AS_FlexContainer_c3edc5026f094f809ed76de29759e9a3",
        "type": "ACTION_SEQUENCE",
        "name": "frmsetPinSwitchOn",
        "params": [{
            "datatype": "collection",
            "name": "eventobject"
        }],
        "contextObj": {
            "name": "frmUserSettingsPinLoginKA",
            "type": "forms",
            "platform": null,
            "KUID": "d6efcea46d734da8bf7a8f21578e100d"
        },
        "language": "js",
        "actions": [{
            "id": "ADD_SNIPPET_ide_onClick_f1864a1700f04abe906554e3d05d8637",
            "type": "ADD_SNIPPET",
            "codeSnippet": "EnableDisablePinLogin();",
            "callbackType": null
        }]
    }
}