{
    "AS_Form_bd1c6edc33ab4b01864e82576305b4d4": {
        "id": "AS_Form_bd1c6edc33ab4b01864e82576305b4d4",
        "type": "ACTION_SEQUENCE",
        "name": "frmUnauthForgotUsernamePasswordKAStep1preshow",
        "params": [{
            "datatype": "collection",
            "name": "eventobject"
        }],
        "contextObj": {
            "type": "forms",
            "platform": null,
            "KUID": "54e375c1a90146209699603526a8e7ca"
        },
        "language": "js",
        "actions": [{
            "id": "ADD_SNIPPET__bdf8f1cdf49d4095ad6e15ca3ebce2c4",
            "type": "ADD_SNIPPET",
            "codeSnippet": "kony.print(\"removed\");",
            "parentId": null,
            "callbackType": null
        }]
    }
}