{
    "AS_Button_c9e189ea1b6841269e0fa84129573efe": {
        "id": "AS_Button_c9e189ea1b6841269e0fa84129573efe",
        "type": "ACTION_SEQUENCE",
        "name": "IPSRequests_RetunrPayment_ConfimrOnClick",
        "params": [{
            "datatype": "collection",
            "name": "eventobject"
        }],
        "language": "js",
        "actions": [{
            "id": "ADD_SNIPPET_ide_onClick_h88f6162993b4d8ba0216d11ba5e3279",
            "type": "ADD_SNIPPET",
            "codeSnippet": "// gblToOTPFrom = \"CLIQ\";\n// gblTModule = \"CLIQ\";\n// ShowLoadingScreen();\n// callRequestOTP(); \n// // TransferIPS();\n\ngblToOTPFrom = \"IPSReturn\";\n\n//mai 25/11/2020 move gblTmodule to transfer button\n//gblTModule = \"CLIQ\";\nShowLoadingScreen();\ncallRequestOTP(); \n// TransferIPS();",
            "callbackType": null
        }]
    }
}