{
    "AS_TextField_bbd722cbd4674b168807efe7d4de13a9": {
        "id": "AS_TextField_bbd722cbd4674b168807efe7d4de13a9",
        "type": "ACTION_SEQUENCE",
        "name": "jomopayonendeditingphonetextandroid",
        "params": [{
            "datatype": "collection",
            "name": "eventobject"
        }, {
            "datatype": "string",
            "name": "changedtext"
        }],
        "contextObj": {
            "name": "frmJoMoPay",
            "type": "forms",
            "platform": "",
            "KUID": "d41a38dfc97d4e0a8f3b1db96d6a1ca0"
        },
        "language": "js",
        "actions": [{
            "id": "ADD_SNIPPET_ide_onEndEditing_eed07e93e571426f995ff4a42d6adcf1",
            "type": "ADD_SNIPPET",
            "codeSnippet": "animate_NEWCARDSOPTIOS(\"DOWN\",\"lblBeneficiaryStaticText\",frmJoMoPay.txtPhoneNo.text);\nfrmJoMoPay.flxBorderBenificiary.skin=\"skntextFieldDividerGreen\";",
            "callbackType": null
        }]
    }
}