{
    "AS_TextField_e6eb6e5b842b42f6a01a175ffc8cc746": {
        "id": "AS_TextField_e6eb6e5b842b42f6a01a175ffc8cc746",
        "type": "ACTION_SEQUENCE",
        "name": "jomopayontextchangeofamount",
        "params": [{
            "datatype": "collection",
            "name": "eventobject"
        }, {
            "datatype": "string",
            "name": "changedtext"
        }],
        "contextObj": {
            "name": "frmJoMoPay",
            "type": "forms",
            "platform": "",
            "KUID": "d41a38dfc97d4e0a8f3b1db96d6a1ca0"
        },
        "language": "js",
        "actions": [{
            "id": "ADD_SNIPPET__c764fbe90ee4410a81be80144155c59c",
            "type": "ADD_SNIPPET",
            "codeSnippet": "ontextchangeamount();",
            "parentId": null,
            "callbackType": null
        }]
    }
}