{
    "AS_TextField_d8ac0f82da0c4d7cb672d2dbf8d24b92": {
        "id": "AS_TextField_d8ac0f82da0c4d7cb672d2dbf8d24b92",
        "type": "ACTION_SEQUENCE",
        "name": "jomopayiphoneonend",
        "params": [{
            "datatype": "collection",
            "name": "eventobject"
        }, {
            "datatype": "string",
            "name": "changedtext"
        }],
        "contextObj": {
            "name": "frmJoMoPay",
            "type": "forms",
            "platform": "",
            "KUID": "d41a38dfc97d4e0a8f3b1db96d6a1ca0"
        },
        "language": "js",
        "actions": [{
            "id": "ADD_SNIPPET__h58ca4b164864c27be6936357a4f6b01",
            "type": "ADD_SNIPPET",
            "codeSnippet": "// animateLabel(\"DOWN\",\"lblstaticdescription\",frmJoMoPay.txtDescription.text);\nanimate_NEWCARDSOPTIOS(\"DOWN\",\"lblstaticdescription\",frmJoMoPay.txtDescription.text);",
            "parentId": null,
            "callbackType": null
        }]
    }
}