{
    "AS_TextField_ad3dfdffb4ee462da8bf2bb866c298aa": {
        "id": "AS_TextField_ad3dfdffb4ee462da8bf2bb866c298aa",
        "type": "ACTION_SEQUENCE",
        "name": "jomopayonbegineditingTFAndroid",
        "params": [{
            "datatype": "collection",
            "name": "eventobject"
        }, {
            "datatype": "string",
            "name": "changedtext"
        }],
        "contextObj": {
            "name": "frmJoMoPay",
            "type": "forms",
            "platform": "",
            "KUID": "d41a38dfc97d4e0a8f3b1db96d6a1ca0"
        },
        "language": "js",
        "actions": [{
            "id": "ADD_SNIPPET__da7aa2afc4df40718056c446c77f7b68",
            "type": "ADD_SNIPPET",
            "codeSnippet": "frmJoMoPay.flxBorderBenificiary.skin=\"skntextFieldDividerBlue\";",
            "parentId": null,
            "callbackType": null
        }]
    }
}