{
    "AS_TextField_h7ea174d3fdb447199890e1685eda7f5": {
        "id": "AS_TextField_h7ea174d3fdb447199890e1685eda7f5",
        "type": "ACTION_SEQUENCE",
        "name": "jomopayonBeginEditingiphone",
        "params": [{
            "datatype": "collection",
            "name": "eventobject"
        }, {
            "datatype": "string",
            "name": "changedtext"
        }],
        "contextObj": {
            "name": "frmJoMoPay",
            "type": "forms",
            "platform": "",
            "KUID": "d41a38dfc97d4e0a8f3b1db96d6a1ca0"
        },
        "language": "js",
        "actions": [{
            "id": "ADD_SNIPPET__fcf92134b38c404abd142a7e8fbb9663",
            "type": "ADD_SNIPPET",
            "codeSnippet": "frmJoMoPay.flxBorderAmount.skin=\"skntextFieldDividerBlue\";",
            "parentId": null,
            "callbackType": null
        }]
    }
}