{
    "AS_Form_j5b5c1c4314e448dbe46985fb2cb238a": {
        "id": "AS_Form_j5b5c1c4314e448dbe46985fb2cb238a",
        "type": "ACTION_SEQUENCE",
        "name": "jomopayforminit",
        "params": [{
            "datatype": "collection",
            "name": "eventobject"
        }],
        "contextObj": {
            "name": "frmJoMoPay",
            "type": "forms",
            "platform": "",
            "KUID": "d41a38dfc97d4e0a8f3b1db96d6a1ca0"
        },
        "language": "js",
        "actions": [{
            "id": "ADD_SNIPPET__h90a953337384ee1a14d9614ef98c416",
            "type": "ADD_SNIPPET",
            "codeSnippet": "initjomopay();",
            "parentId": null,
            "callbackType": null
        }]
    }
}