{
    "AS_TextField_ja0784d976eb44f9ac55454325b7e09f": {
        "id": "AS_TextField_ja0784d976eb44f9ac55454325b7e09f",
        "type": "ACTION_SEQUENCE",
        "name": "loginiPhoneonEndEditing",
        "params": [{
            "datatype": "collection",
            "name": "eventobject"
        }, {
            "datatype": "string",
            "name": "changedtext"
        }],
        "contextObj": {
            "name": "frmLoginKA",
            "type": "forms",
            "platform": "",
            "KUID": "7b1aa8fceb6b4070833e9eab879b0e5e"
        },
        "language": "js",
        "actions": [{
            "id": "ADD_SNIPPET__b5774f197bff4327bab5ab8730b66662",
            "type": "ADD_SNIPPET",
            "codeSnippet": "try{\n  if(frmLoginKA.tbxusernameTextField.text!==null&&frmLoginKA.tbxusernameTextField.text!==\"\")\n  {\n    frmLoginKA.borderBottom.skin=\"skntextFieldDividerGreen\";\n  }\n  else\n  {\n    frmLoginKA.borderBottom.skin=\"skntextFieldDivider\";\n  }\n  animateLabel(\"DOWN\",\"lblUserName\",frmLoginKA.tbxusernameTextField.text);\n  animateLabel(\"UP\",\"lblPassword\",frmLoginKA.passwordTextField.text);\n}catch(err){\n  kony.print( \"err in pwd::\"+err);\n}",
            "parentId": null,
            "callbackType": null
        }]
    }
}