{
    "AS_TextField_071f4142f0774723865c0c1a0c789957": {
        "id": "AS_TextField_071f4142f0774723865c0c1a0c789957",
        "type": "ACTION_SEQUENCE",
        "name": "loginondoneofpassword",
        "params": [{
            "datatype": "collection",
            "name": "eventobject"
        }, {
            "datatype": "string",
            "name": "changedtext"
        }],
        "language": "js",
        "actions": [{
            "id": "ADD_SNIPPET_ide_onDone_2716da7672d9478b89c73eb4aa6fd1c0",
            "type": "ADD_SNIPPET",
            "codeSnippet": "ondonePassword();",
            "callbackType": null
        }]
    }
}