{
    "AS_Button_328c114136424552afae15f35f5f3837": {
        "id": "AS_Button_328c114136424552afae15f35f5f3837",
        "type": "ACTION_SEQUENCE",
        "name": "loginonclickofinfoicon",
        "params": [{
            "datatype": "collection",
            "name": "eventobject"
        }],
        "language": "js",
        "actions": [{
            "id": "ADD_SNIPPET__cfc57890a8994baaabf7fa814529af4d",
            "type": "ADD_SNIPPET",
            "codeSnippet": "kony.print(\"Navigate to Information Screen\");\ngetNewsInfo(\"\");",
            "parentId": null,
            "callbackType": null
        }]
    }
}