{
    "AS_Button_g75af8b7b91242bb99e1932068efbf0c": {
        "id": "AS_Button_g75af8b7b91242bb99e1932068efbf0c",
        "type": "ACTION_SEQUENCE",
        "name": "onAndroidBackfrmDefaultLoginMethodKA",
        "params": [{
            "datatype": "collection",
            "name": "eventobject"
        }],
        "contextObj": {
            "name": "frmDefaultLoginMethodKA",
            "type": "forms",
            "platform": "",
            "KUID": "e739ce9a81be420593090d683fadc9e7"
        },
        "language": "js",
        "actions": [{
            "id": "ADD_SNIPPET__f886627c5a8f4a1b98336a429e7d73e2",
            "type": "ADD_SNIPPET",
            "codeSnippet": "tempSettingsFlag = 0;\n//setDefaultLoginMethod(frmDefaultLoginMethodKA);\nkony.print(\"Removed\");",
            "parentId": null,
            "callbackType": null
        }]
    }
}