{
    "AS_TextField_b9d09512292f4a5da8bdb1903468dacf": {
        "id": "AS_TextField_b9d09512292f4a5da8bdb1903468dacf",
        "type": "ACTION_SEQUENCE",
        "name": "onBeginEditingJomopayBeneficiaryMobileiPhone",
        "params": [{
            "datatype": "collection",
            "name": "eventobject"
        }, {
            "datatype": "string",
            "name": "changedtext"
        }],
        "contextObj": {
            "name": "frmJOMOPayAddBiller",
            "type": "forms",
            "platform": null,
            "KUID": "df7e7935cb6a4e5c8a9dad110f300c3c"
        },
        "language": "js",
        "actions": [{
            "id": "ADD_SNIPPET__je51c5902bf745c9bca926c9481f05bc",
            "type": "ADD_SNIPPET",
            "codeSnippet": "animate_NEWCARDSOPTIOS(\"UP\", \"lblBeneficiaryMobileTitle\", frmJOMOPayAddBiller.txtBeneficiaryMobile.text);",
            "parentId": null
        }]
    }
}