{
    "AS_TextField_bdee0d49dd4047f898e21d080ba9b8a9": {
        "id": "AS_TextField_bdee0d49dd4047f898e21d080ba9b8a9",
        "type": "ACTION_SEQUENCE",
        "name": "onbegineditingandroidRegJP",
        "params": [{
            "datatype": "collection",
            "name": "eventobject"
        }, {
            "datatype": "string",
            "name": "changedtext"
        }],
        "language": "js",
        "actions": [{
            "id": "ADD_SNIPPET_ide_onBeginEditing_i80866e07f7b4d35b625681527d756a6",
            "type": "ADD_SNIPPET",
            "codeSnippet": "frmJoMoPayRegistration.flxBorderBenificiary.skin=\"skntextFieldDividerBlue\";",
            "callbackType": null
        }]
    }
}