{
    "AS_TextField_j84e389876b24f8fb5b995203646875b": {
        "id": "AS_TextField_j84e389876b24f8fb5b995203646875b",
        "type": "ACTION_SEQUENCE",
        "name": "onBeginEditingNotesAndroid",
        "params": [{
            "datatype": "collection",
            "name": "eventobject"
        }, {
            "datatype": "string",
            "name": "changedtext"
        }],
        "contextObj": {
            "name": "frmApplyNewCardsKA",
            "type": "forms",
            "platform": "",
            "KUID": "a05ce8d2e4404e40bfbc8dad585d28dc"
        },
        "language": "js",
        "actions": [{
            "id": "ADD_SNIPPET__cb990ded8e0d48f6bcfbe5135244c2cc",
            "type": "ADD_SNIPPET",
            "codeSnippet": "animate_NEWCARDSOPTIOS(\"UP\",kony.newCARD.fields.Notes[0],frmApplyNewCardsKA[kony.newCARD.fields.Notes[1]].text);",
            "parentId": null
        }]
    }
}