{
    "AS_FlexContainer_ab9b2f393410413b90fd9e563c48b346": {
        "id": "AS_FlexContainer_ab9b2f393410413b90fd9e563c48b346",
        "type": "ACTION_SEQUENCE",
        "name": "onClickMyRegisteredDevicesSettings",
        "params": [{
            "datatype": "collection",
            "name": "eventobject"
        }],
        "contextObj": {
            "name": "frmSettingsKA",
            "type": "forms",
            "platform": "",
            "KUID": "hb0fb66c0c224ed284a1334d78669bfa"
        },
        "language": "js",
        "actions": [{
            "id": "ADD_SNIPPET__ea24888c98434600977acb2b99bcb2c4",
            "type": "ADD_SNIPPET",
            "codeSnippet": "getDeviceList();",
            "parentId": null,
            "callbackType": null
        }]
    }
}