{
    "AS_Button_bbbc2c65e1f44ad1ab5535752d14ec6e": {
        "id": "AS_Button_bbbc2c65e1f44ad1ab5535752d14ec6e",
        "type": "ACTION_SEQUENCE",
        "name": "onClickMobileCodeRegisterUserChangeSms",
        "params": [{
            "datatype": "collection",
            "name": "eventobject"
        }],
        "contextObj": {
            "name": "frmRegisterUser",
            "type": "forms",
            "platform": "",
            "KUID": "cd7432ec5087404590338186c94e35d2"
        },
        "language": "js",
        "actions": [{
            "id": "ADD_SNIPPET__ec2538c5be144dfc8b7aa8178e4cfa5a",
            "type": "ADD_SNIPPET",
            "codeSnippet": "gblTModule = \"countryCode\";\nfrmCurrency.show();",
            "parentId": null,
            "callbackType": null
        }]
    }
}