{
    "AS_Button_96cc31ff195f466b9b8db059aa30860d": {
        "id": "AS_Button_96cc31ff195f466b9b8db059aa30860d",
        "type": "ACTION_SEQUENCE",
        "name": "onclickacceptndenroll",
        "params": [{
            "datatype": "collection",
            "name": "eventobject"
        }],
        "language": "js",
        "actions": [{
            "id": "SHOW_ALERT__3d09caebd06f448dad5b748968d0ae02",
            "type": "SHOW_ALERT",
            "alertType": "constants.ALERT_TYPE_INFO",
            "alertMessage": "You have been succesfully enrolled for our Mobile Banking Application. Please sign in to start using the features",
            "messageType": "constant",
            "parentId": null,
            "callbackType": null,
            "alertTitlei18n": null,
            "yesLabeli18n": null,
            "noLabeli18n": null,
            "alertMessagei18n": null,
            "iconPosition": "constants.ALERT_ICON_POSITION_LEFT"
        }, {
            "id": "NAVIGATE_TO_FORM___dc9f3f0ba0ea47e8bdf74dffb1378a08",
            "type": "NAVIGATE_TO_FORM",
            "formId": "frmLoginKA",
            "formKUID": "7b1aa8fceb6b4070833e9eab879b0e5e",
            "mappings": {},
            "mappingsOrder": [],
            "parentId": "",
            "callbackType": null,
            "enableMappingEditor": true,
            "package": "",
            "navigationObj": "{\n    \"_meta_\": {\n        \"eventName\": \"\",\n        \"widgetId\": \"\"\n    }\n}",
            "isCustomInput": false
        }]
    }
}