{
    "AS_Button_d9d4d61dae1a423aa29b8e3fff52f073": {
        "id": "AS_Button_d9d4d61dae1a423aa29b8e3fff52f073",
        "type": "ACTION_SEQUENCE",
        "name": "onclickLoansAcc",
        "params": [{
            "datatype": "collection",
            "name": "eventobject"
        }],
        "contextObj": {
            "name": "frmAccountsLandingKA",
            "type": "forms",
            "platform": "",
            "KUID": "d62a2a0906c64d2281addc95893a6544"
        },
        "language": "js",
        "actions": [{
            "id": "ADD_SNIPPET__c61a38e960cb4a70ae02b1d5524d492d",
            "type": "ADD_SNIPPET",
            "codeSnippet": "frmAccountsLandingKA.flxDeals.setVisibility(false);\nif(frmAccountsLandingKA.segAccountsKALoans.data !== null && frmAccountsLandingKA.segAccountsKALoans.data.length === 1){\n         LoanOnetimeCall();        \n      }else{\nloansAnimation();\n      }",
            "parentId": null
        }]
    }
}