{
    "AS_Button_id652e2d02824b64a1b92e2741e0cb2c": {
        "id": "AS_Button_id652e2d02824b64a1b92e2741e0cb2c",
        "type": "ACTION_SEQUENCE",
        "name": "onClickDeletePINLogin",
        "params": [{
            "datatype": "collection",
            "name": "eventobject"
        }],
        "language": "js",
        "actions": [{
            "id": "ADD_SNIPPET_ide_onClick_gad2cec2d24946c6b7b8f27c8b66ac2b",
            "type": "ADD_SNIPPET",
            "codeSnippet": "DeleteClick();",
            "callbackType": null
        }]
    }
}