{
    "AS_Button_d03cc2209df14854bc9dbd020e5fd4d7": {
        "id": "AS_Button_d03cc2209df14854bc9dbd020e5fd4d7",
        "type": "ACTION_SEQUENCE",
        "name": "onClickToggleATMPOSUpdateLimit",
        "params": [{
            "name": "eventobject",
            "datatype": "collection"
        }],
        "contextObj": {
            "name": "frmATMPOSLimit",
            "type": "forms",
            "platform": "",
            "KUID": "j80a8c138d2b4f1e84c03bcdca145900"
        },
        "language": "js",
        "actions": [{
            "id": "ADD_SNIPPET__i9614d8b51b14bbfad47a716e2a9422c",
            "type": "ADD_SNIPPET",
            "codeSnippet": "if(eventobject.id === \"btnDaily\"){\n\tonSelect_PERIOD_ATMPOSLIMIT(\"Daily\");\n}else if(eventobject.id === \"btnWeekly\"){\n\tonSelect_PERIOD_ATMPOSLIMIT(\"Weekly\");\n}else if(eventobject.id === \"btnMonthly\"){\n\tonSelect_PERIOD_ATMPOSLIMIT(\"Monthly\");\n}",
            "parentId": null,
            "callbackType": null
        }]
    }
}