{
    "AS_FlexContainer_b1c6acb2850a480b9f8c627242ee334d": {
        "id": "AS_FlexContainer_b1c6acb2850a480b9f8c627242ee334d",
        "type": "ACTION_SEQUENCE",
        "name": "onClickBackOpenTermDeposite",
        "params": [{
            "datatype": "collection",
            "name": "eventobject"
        }],
        "contextObj": {
            "type": "forms",
            "platform": "",
            "KUID": "fec6fddbcf8543f2b30114c87e1a7e99"
        },
        "language": "js",
        "actions": [{
            "id": "ADD_SNIPPET__gfa2eececcef476ca9ea8591cf4f0f9e",
            "type": "ADD_SNIPPET",
            "codeSnippet": "if (frmOpenTermDeposit.flxConfirmDeposite.isVisible ===true)\n  {\n    frmOpenTermDeposit.flxDepositSelection.setVisibility(true);\n    frmOpenTermDeposit.flxConfirmDeposite.setVisibility(false);\n    frmOpenTermDeposit.btnNextDeposite.setVisibility(true);\n  }\nelse{\n  resetForm();\n  frmAccountsLandingKA.show();\n  frmOpenTermDeposit.destroy();\n}\n",
            "parentId": null,
            "callbackType": null
        }]
    }
}