{
    "AS_FlexContainer_f1e10794092045d596fd821aae1b1052": {
        "id": "AS_FlexContainer_f1e10794092045d596fd821aae1b1052",
        "type": "ACTION_SEQUENCE",
        "name": "onClickSMSNotificationDisabled",
        "params": [{
            "datatype": "collection",
            "name": "eventobject"
        }],
        "contextObj": {
            "name": "frmSMSNotification",
            "type": "forms",
            "platform": "",
            "KUID": "h53d27b5aa3844a594848b59224c4f16"
        },
        "language": "js",
        "actions": [{
            "id": "ADD_SNIPPET__ga06ef939ed243669c7a9a4cc1688de7",
            "type": "ADD_SNIPPET",
            "codeSnippet": "optAll = true;\nactivateordeactivate_SMSNOTIFICATION(\"\",\"\");",
            "parentId": null,
            "callbackType": null
        }]
    }
}