{
    "AS_FlexContainer_eaacdb9e07fb4abb8256280bfdb365c3": {
        "id": "AS_FlexContainer_eaacdb9e07fb4abb8256280bfdb365c3",
        "type": "ACTION_SEQUENCE",
        "name": "onClickBackInfo",
        "params": [{
            "datatype": "collection",
            "name": "eventobject"
        }],
        "contextObj": {
            "name": "frmInformationDetailsKA",
            "type": "forms",
            "platform": "",
            "KUID": "bd024cbb5a764c1aadf8f9ba5c1bdc64"
        },
        "language": "js",
        "actions": [{
            "id": "ADD_SNIPPET__e78e1115511e42c6a770442f4fbca6c5",
            "type": "ADD_SNIPPET",
            "codeSnippet": "frmInformationKA.show();",
            "parentId": null,
            "callbackType": null
        }]
    }
}