{
    "AS_FlexContainer_ic809a465b99429e8a08cc3e7da399d7": {
        "id": "AS_FlexContainer_ic809a465b99429e8a08cc3e7da399d7",
        "type": "ACTION_SEQUENCE",
        "name": "onClickAlertSwitchOFF",
        "params": [{
            "datatype": "collection",
            "name": "eventobject"
        }],
        "contextObj": {
            "name": "frmSettingsKA",
            "type": "forms",
            "platform": "",
            "KUID": "hb0fb66c0c224ed284a1334d78669bfa"
        },
        "language": "js",
        "actions": [{
            "id": "ADD_SNIPPET__c25c0f84678a4281bd36410919aa1b65",
            "type": "ADD_SNIPPET",
            "codeSnippet": "onselection_ALERTANDNOTIFICATIONTOGGLE(\"ALERT\");",
            "parentId": null,
            "callbackType": null
        }]
    }
}