{
    "AS_FlexContainer_ddf42bc10fe04798976309009236eebe": {
        "id": "AS_FlexContainer_ddf42bc10fe04798976309009236eebe",
        "type": "ACTION_SEQUENCE",
        "name": "onClickManageCardsUpdateCardLimit",
        "params": [{
            "datatype": "collection",
            "name": "eventobject"
        }],
        "contextObj": {
            "name": "frmManageCardsKA",
            "type": "forms",
            "platform": "",
            "KUID": "75db60b6b4944b7faf9c556f4dbcaf8d"
        },
        "language": "js",
        "actions": [{
            "id": "ADD_SNIPPET__df78a5a3ce214d13820de4f26f1ba6a7",
            "type": "ADD_SNIPPET",
            "codeSnippet": "navigate_TO_ECOMMERCELIMIT();",
            "parentId": null,
            "callbackType": null
        }]
    }
}