{
    "AS_Button_f49232da903a4fd0be0e502360570c11": {
        "id": "AS_Button_f49232da903a4fd0be0e502360570c11",
        "type": "ACTION_SEQUENCE",
        "name": "onClickIPSPaymentHistory",
        "params": [{
            "datatype": "collection",
            "name": "eventobject"
        }],
        "language": "js",
        "actions": [{
            "id": "ADD_SNIPPET_ide_onClick_c35fab9825ff4715bf42a6989188e765",
            "type": "ADD_SNIPPET",
            "codeSnippet": "// frmEPS.flxMain.setVisibility(true);\n// frmEPS.flxConfirmEPS.setVisibility(false);\n\n// frmEPS.show();\n\nfrmIPSRequests.flxReturnPayment.setVisibility(false);\nfrmIPSRequests.flxRequestToPay.setVisibility(false);\nfrmIPSRequests.flxPaymentHistory.setVisibility(true);\nfrmIPSRequests.flxConfirmEPS.setVisibility(false);\ngblTModule = \"CLIQHistory\";\nLoadIPSRequests();\n//frmIPSRequests.show();",
            "callbackType": null
        }]
    }
}