{
    "AS_FlexContainer_f20fb12748f74d1ba4c769fe41070971": {
        "id": "AS_FlexContainer_f20fb12748f74d1ba4c769fe41070971",
        "type": "ACTION_SEQUENCE",
        "name": "onClickUnblockPin",
        "params": [{
            "datatype": "collection",
            "name": "eventobject"
        }],
        "contextObj": {
            "name": "frmManageCardsKA",
            "type": "forms",
            "platform": "",
            "KUID": "75db60b6b4944b7faf9c556f4dbcaf8d"
        },
        "language": "js",
        "actions": [{
            "id": "ADD_SNIPPET__f8a5e9db82944c9ab813ea172b9dc1a7",
            "type": "ADD_SNIPPET",
            "codeSnippet": "serv_UNBLOCKOIN();",
            "parentId": null,
            "callbackType": null
        }]
    }
}