{
    "AS_FlexContainer_ac304c8e320048d49b605d221e67b807": {
        "id": "AS_FlexContainer_ac304c8e320048d49b605d221e67b807",
        "type": "ACTION_SEQUENCE",
        "name": "OnclickOfQRConfirmBack",
        "params": [{
            "datatype": "collection",
            "name": "eventobject"
        }],
        "contextObj": {
            "name": "frmJoMoPayQRConfirm",
            "type": "forms",
            "platform": "",
            "KUID": "ce92d593b2af47c89097ae0c24ec8f40"
        },
        "language": "js",
        "actions": [{
            "id": "ADD_SNIPPET__a17a96d8f1d240c2be1bc5e7b5182103",
            "type": "ADD_SNIPPET",
            "codeSnippet": "frmJoMoPayLanding.show();",
            "parentId": null,
            "callbackType": null
        }]
    }
}