{
    "AS_Button_dce53326846441e79f542df80f769e50": {
        "id": "AS_Button_dce53326846441e79f542df80f769e50",
        "type": "ACTION_SEQUENCE",
        "name": "onClickAccountsBillPayment",
        "params": [{
            "datatype": "collection",
            "name": "eventobject"
        }],
        "language": "js",
        "actions": [{
            "id": "ADD_SNIPPET_ide_onClick_ce00b250b1dc41f58362ea9cd7dcd241",
            "type": "ADD_SNIPPET",
            "codeSnippet": "onChangingradioBtnNewBillKA(frmNewBillKA.btnBillsPayAccounts,frmNewBillKA.lblBillsPayAccounts.text);",
            "callbackType": null
        }]
    }
}