{
    "AS_Button_a67a546e85464169a0b45c0ab3e8f8f3": {
        "id": "AS_Button_a67a546e85464169a0b45c0ab3e8f8f3",
        "type": "ACTION_SEQUENCE",
        "name": "onClickTransactionStatus",
        "params": [{
            "datatype": "collection",
            "name": "eventobject"
        }],
        "contextObj": {
            "name": "frmShowAllBeneficiary",
            "type": "forms",
            "platform": "",
            "KUID": "da135140bfd946caa325afeee19e7e04"
        },
        "language": "js",
        "actions": [{
            "id": "ADD_SNIPPET__i1b1deca131d4af1ba074b4a93387f5d",
            "type": "ADD_SNIPPET",
            "codeSnippet": "frmTransferStatus.btnInwards.skin = \"slButtonWhiteTab\";\nfrmTransferStatus.btnOutwards.skin = \"slButtonWhiteTabDisabled\";\nserv_INREMIT_TRANSACTIONSTATUS();",
            "parentId": null,
            "callbackType": null
        }]
    }
}