{
    "AS_Button_e6aec81914a34c2d8219b98e431aaffe": {
        "id": "AS_Button_e6aec81914a34c2d8219b98e431aaffe",
        "type": "ACTION_SEQUENCE",
        "name": "onClickBackTransactionDetails",
        "params": [{
            "datatype": "collection",
            "name": "eventobject"
        }],
        "contextObj": {
            "name": "frmTransactionDetails",
            "type": "forms",
            "platform": "",
            "KUID": "e1f76b0a13c54f48ae72b42e827c45c2"
        },
        "language": "js",
        "actions": [{
            "id": "ADD_SNIPPET__a7ecf2eacb894e9fb1521263a12fb33f",
            "type": "ADD_SNIPPET",
            "codeSnippet": "frmJoMoPayLanding.show();",
            "parentId": null,
            "callbackType": null
        }]
    }
}