{
    "AS_Button_d63514a34b5349bcbab38710ae54d894": {
        "id": "AS_Button_d63514a34b5349bcbab38710ae54d894",
        "type": "ACTION_SEQUENCE",
        "name": "onClickCancelPINLogin",
        "params": [{
            "datatype": "collection",
            "name": "eventobject"
        }],
        "language": "js",
        "actions": [{
            "id": "ADD_SNIPPET_ide_onClick_e751a7676f7c46ada0a11778865c1a22",
            "type": "ADD_SNIPPET",
            "codeSnippet": "CancelClick();",
            "callbackType": null
        }]
    }
}