{
    "AS_FlexContainer_g0840b75a528464b974aaf017d989855": {
        "id": "AS_FlexContainer_g0840b75a528464b974aaf017d989855",
        "type": "ACTION_SEQUENCE",
        "name": "onClickLast90days",
        "params": [{
            "datatype": "collection",
            "name": "eventobject"
        }],
        "contextObj": {
            "name": "frmFilterTransaction",
            "type": "forms",
            "platform": "",
            "KUID": "ff5ea79e22414b03ba4cca716d18a58c"
        },
        "language": "js",
        "actions": [{
            "id": "ADD_SNIPPET__a3152d6898b54fc69e94e7d77b9338c5",
            "type": "ADD_SNIPPET",
            "codeSnippet": "setTimePeriod(frmFilterTransaction.lblLast90days,frmFilterTransaction.lblLast90daystext.text);",
            "parentId": null,
            "callbackType": null
        }]
    }
}