{
    "AS_FlexContainer_i7db0d32e0214f83941c452994e4b025": {
        "id": "AS_FlexContainer_i7db0d32e0214f83941c452994e4b025",
        "type": "ACTION_SEQUENCE",
        "name": "onClickAccountsCardlessWithdrawal",
        "params": [{
            "datatype": "collection",
            "name": "eventobject"
        }, {
            "datatype": "collection",
            "name": "context"
        }],
        "contextObj": {
            "name": "tmpAccountLandingKA",
            "type": "templates",
            "platform": "",
            "KUID": "d6ec8423e4fc4a0ea9253aafc6a0dd46"
        },
        "language": "js",
        "actions": [{
            "id": "ADD_SNIPPET__g36de6f998f64097bf753e8b42b4f738",
            "type": "ADD_SNIPPET",
            "codeSnippet": "kony.print(\"context ::\"+JSON.stringify(context));\nfrmCardlessTransaction.destroy();\nkony.store.setItem(\"BillPayfromAcc\",kony.retailBanking.globalData.accountsDashboardData.accountsData[context.sectionIndex]);\ngblTModule = \"\";\ngetAllAccounts();\nnavigation_STORE_PREVIOUS_FORM(kony.application.getCurrentForm());\nnavigate_CARDLESS_TRANSACTION(\"accountsLanding\");\n",
            "parentId": null,
            "callbackType": null
        }]
    }
}