{
    "AS_Button_c6eb27e074334d02bed90f4d7e2d0732": {
        "id": "AS_Button_c6eb27e074334d02bed90f4d7e2d0732",
        "type": "ACTION_SEQUENCE",
        "name": "onClickBulkPaymentBiller",
        "params": [{
            "datatype": "collection",
            "name": "eventobject"
        }, {
            "datatype": "collection",
            "name": "context"
        }],
        "language": "js",
        "actions": [{
            "id": "ADD_SNIPPET_ide_onClick_d4bdff3c5a47479590db4d474ed2ae4f",
            "type": "ADD_SNIPPET",
            "codeSnippet": "kony.boj.bojCheckBox(eventobject,context);",
            "callbackType": null
        }]
    }
}