{
    "AS_Button_bfd925d1d3294bc0bd528406b0fbb846": {
        "id": "AS_Button_bfd925d1d3294bc0bd528406b0fbb846",
        "type": "ACTION_SEQUENCE",
        "name": "onClickUpdatePin",
        "params": [{
            "datatype": "collection",
            "name": "eventobject"
        }],
        "contextObj": {
            "type": "forms",
            "platform": "",
            "KUID": "d8e810e6d431401cb87770abb531faf7"
        },
        "language": "js",
        "actions": [{
            "id": "ADD_SNIPPET__e349ba25eb9b44758b9a9db20cef0716",
            "type": "ADD_SNIPPET",
            "codeSnippet": "kony.print(\"Removed\");",
            "parentId": null,
            "callbackType": null
        }]
    }
}