{
    "AS_Button_g098c5fbe90d46849f3ac33f57966713": {
        "id": "AS_Button_g098c5fbe90d46849f3ac33f57966713",
        "type": "ACTION_SEQUENCE",
        "name": "onClickPaymentHistory",
        "params": [{
            "datatype": "collection",
            "name": "eventobject"
        }],
        "contextObj": {
            "name": "frmPaymentDashboard",
            "type": "forms",
            "platform": "",
            "KUID": "j5584f57cd764e66adb4087c6fc15f67"
        },
        "language": "js",
        "actions": [{
            "id": "ADD_SNIPPET__aa4be427eb7340468590b41352ce29eb",
            "type": "ADD_SNIPPET",
            "codeSnippet": "navigate_StandingInstructions(\"Payment History\");",
            "parentId": null,
            "callbackType": null
        }]
    }
}