{
    "AS_FlexContainer_d74c135b12244246a932af5ebe8e6f39": {
        "id": "AS_FlexContainer_d74c135b12244246a932af5ebe8e6f39",
        "type": "ACTION_SEQUENCE",
        "name": "onclickflex",
        "params": [{
            "datatype": "collection",
            "name": "eventobject"
        }],
        "contextObj": {
            "name": "frmCreditCardPayment",
            "type": "forms",
            "platform": "",
            "KUID": "ifc6e17e00ef473bb51f2718c349cfba"
        },
        "language": "js",
        "actions": [{
            "id": "ADD_SNIPPET__f4cb24d3b3d648148f4cd0f83cd8e8d5",
            "type": "ADD_SNIPPET",
            "codeSnippet": "frmCreditCardNumber.show();",
            "parentId": null,
            "callbackType": null
        }]
    }
}