{
    "AS_Button_ecf0012cecb0407f8fe1b2a8a4b10405": {
        "id": "AS_Button_ecf0012cecb0407f8fe1b2a8a4b10405",
        "type": "ACTION_SEQUENCE",
        "name": "onclickbackfrmdetailsmortage",
        "params": [{
            "datatype": "collection",
            "name": "eventobject"
        }],
        "contextObj": {
            "type": "forms",
            "platform": "",
            "KUID": "531dd4cbc46e443c8cee549fd6b810cc"
        },
        "language": "js",
        "actions": [{
            "id": "NAVIGATE_TO_FORM___383976f2971846b696a8097717cdd558",
            "type": "NAVIGATE_TO_FORM",
            "formId": "frmAccountDetailKA",
            "formKUID": "5ed703cad63c441882fc4a36f5ea0c28",
            "mappings": {},
            "mappingsOrder": [],
            "parentId": "",
            "callbackType": null,
            "enableMappingEditor": true,
            "package": "",
            "navigationObj": "{\n    \"_meta_\": {\n        \"eventName\": \"\",\n        \"widgetId\": \"\"\n    }\n}",
            "isCustomInput": false
        }]
    }
}