{
    "AS_Button_e37b93afc1844a1b9ef6ae41cab8423c": {
        "id": "AS_Button_e37b93afc1844a1b9ef6ae41cab8423c",
        "type": "ACTION_SEQUENCE",
        "name": "onClickEditBiller",
        "params": [{
            "datatype": "collection",
            "name": "eventobject"
        }, {
            "datatype": "collection",
            "name": "context"
        }],
        "contextObj": {
            "name": "segmanagepayeetmplt",
            "type": "templates",
            "platform": "",
            "KUID": "16a264b35c494e74a2589ee452044566"
        },
        "language": "js",
        "actions": [{
            "id": "ADD_SNIPPET__e694d0608db247f2aee7955e3e2be02f",
            "type": "ADD_SNIPPET",
            "codeSnippet": "kony.boj.editBillerDetails(eventobject,context);",
            "parentId": null,
            "callbackType": null
        }]
    }
}