{
    "AS_FlexContainer_aff5468e20d94fb7b4cc147501dd2dee": {
        "id": "AS_FlexContainer_aff5468e20d94fb7b4cc147501dd2dee",
        "type": "ACTION_SEQUENCE",
        "name": "onClickBackBulkPaymentConfirmation",
        "params": [{
            "datatype": "collection",
            "name": "eventobject"
        }],
        "contextObj": {
            "name": "frmBulkPaymentConfirmKA",
            "type": "forms",
            "platform": "",
            "KUID": "d2d413e763914ffcb82e30b8007d0d4c"
        },
        "language": "js",
        "actions": [{
            "id": "ADD_SNIPPET__dab5529da7084181bce8a17308963852",
            "type": "ADD_SNIPPET",
            "codeSnippet": "frmBulkPaymentKA.show();\nfrmBulkPaymentConfirmKA.destroy();",
            "parentId": null,
            "callbackType": null
        }]
    }
}