{
    "AS_Button_jf16111d7bda4de98fca7581fc53ffc4": {
        "id": "AS_Button_jf16111d7bda4de98fca7581fc53ffc4",
        "type": "ACTION_SEQUENCE",
        "name": "OnclickOfQRConfirmPayment",
        "params": [{
            "datatype": "collection",
            "name": "eventobject"
        }],
        "contextObj": {
            "name": "frmJoMoPayQRConfirm",
            "type": "forms",
            "platform": "",
            "KUID": "ce92d593b2af47c89097ae0c24ec8f40"
        },
        "language": "js",
        "actions": [{
            "id": "ADD_SNIPPET__f61fe1e35bea46a38a910c57c8fffe77",
            "type": "ADD_SNIPPET",
            "codeSnippet": "//jomopay using QRCode changes\nkony.print(\"calling jomopayment service\");\ncallJoMoPayPaymentsSvc();\n//end",
            "parentId": null,
            "callbackType": null
        }]
    }
}