{
    "AS_Button_jf7795884a904c3ea40d1bbb1b464901": {
        "id": "AS_Button_jf7795884a904c3ea40d1bbb1b464901",
        "type": "ACTION_SEQUENCE",
        "name": "onClickTandCAccept",
        "params": [{
            "datatype": "collection",
            "name": "eventobject"
        }],
        "language": "js",
        "actions": [{
            "id": "ADD_SNIPPET_ide_onClick_j4336c2587f34a6a8130a0b9d483e9d4",
            "type": "ADD_SNIPPET",
            "codeSnippet": "acceptTermsAndConditions();\nvar currentdate = new Date(); \nvar Formatteddate =  currentdate.getFullYear() + \"-\" + (currentdate.getMonth()+1) + \"-\" + currentdate.getDate();\ntncAcceDate = Formatteddate;",
            "callbackType": null
        }]
    }
}