{
    "AS_Button_a647c3817c074b2bba981a5cb6184513": {
        "id": "AS_Button_a647c3817c074b2bba981a5cb6184513",
        "type": "ACTION_SEQUENCE",
        "name": "onclicknextRegJP",
        "params": [{
            "datatype": "collection",
            "name": "eventobject"
        }],
        "contextObj": {
            "name": "frmJoMoPayRegistration",
            "type": "forms",
            "platform": null,
            "KUID": "h0b4f51069c74c7bbbbd6798301d77d6"
        },
        "language": "js",
        "actions": [{
            "id": "ADD_SNIPPET__ae12212d7c4540adb25b8f2709da5d09",
            "type": "ADD_SNIPPET",
            "codeSnippet": "onnextRegJP();",
            "parentId": null,
            "callbackType": null
        }]
    }
}