{
    "AS_FlexContainer_f0147413333f47ea8594157eff29c0fe": {
        "id": "AS_FlexContainer_f0147413333f47ea8594157eff29c0fe",
        "type": "ACTION_SEQUENCE",
        "name": "onClickEnableWithdrawalAlert",
        "params": [{
            "datatype": "collection",
            "name": "eventobject"
        }],
        "contextObj": {
            "name": "frmAlertsKA",
            "type": "forms",
            "platform": "",
            "KUID": "8f4fb6ef80f34f5f861f12908e1a5309"
        },
        "language": "js",
        "actions": [{
            "id": "ADD_SNIPPET__a19b813f57c244b8a9707b6ebeebccdb",
            "type": "ADD_SNIPPET",
            "codeSnippet": "show_optalert(\"withdrawal\",frmAlertsKA.lblWithdrawalFlag);",
            "parentId": null
        }]
    }
}