{
    "AS_Button_f7c31b7e26e34a6c86cbdc68fd07f88f": {
        "id": "AS_Button_f7c31b7e26e34a6c86cbdc68fd07f88f",
        "type": "ACTION_SEQUENCE",
        "name": "onClickConfirmCardLinkedAccounts",
        "params": [{
            "datatype": "collection",
            "name": "eventobject"
        }],
        "contextObj": {
            "name": "frmCardLinkedAccountsConfirm",
            "type": "forms",
            "platform": null,
            "KUID": "h942f65045b843dab657f26a4409ec78"
        },
        "language": "js",
        "actions": [{
            "id": "ADD_SNIPPET__cf6f1d346eea4038970da0463ff835ec",
            "type": "ADD_SNIPPET",
            "codeSnippet": "//get_ACCOUNT_LINK_STATUS(frmCardLinkedAccounts.segCardLinkedAccounts.data);\nif(frmCardLinkedAccountsConfirm.btnConfirm.text === geti18Value(\"i18n.transfers.CONFIRM\"))\n\tserv_CARD_LINK_ACCOUNT();\nelse{\n\tis_CARDPAYMENTSUCCESS = true;\n    service_fetch_cardListAndDetils({\"custID\":custid,\"form\":\"frmCardsLandingKA\"});\n\t//frmManageCardsKA.show();\n\t//frmCardLinkedAccountsConfirm.destroy();\n}",
            "parentId": null,
            "callbackType": null
        }]
    }
}