{
    "AS_Button_cbc225278b204f47afcb29d0de51ae9b": {
        "id": "AS_Button_cbc225278b204f47afcb29d0de51ae9b",
        "type": "ACTION_SEQUENCE",
        "name": "onClickSwitchLanguageLoginKA",
        "params": [{
            "datatype": "collection",
            "name": "eventobject"
        }],
        "language": "js",
        "actions": [{
            "id": "ADD_SNIPPET_ide_onClick_f43bfd15d1a8486c9a70f401acca4b5c",
            "type": "ADD_SNIPPET",
            "codeSnippet": "switch_LANGUAGE(\"login\");",
            "callbackType": null
        }]
    }
}