{
    "AS_Button_a13714471d684162a87cc1ddf4338c79": {
        "id": "AS_Button_a13714471d684162a87cc1ddf4338c79",
        "type": "ACTION_SEQUENCE",
        "name": "onclickbtnCancelsecurity",
        "params": [{
            "datatype": "collection",
            "name": "eventobject"
        }],
        "language": "js",
        "actions": [{
            "id": "NAVIGATE_TO_FORM__ide_onClick_268377ef44e84e46a755ba184c099453",
            "type": "NAVIGATE_TO_FORM",
            "formId": "frmLoginKA",
            "formKUID": "7b1aa8fceb6b4070833e9eab879b0e5e",
            "mappings": {},
            "mappingsOrder": [],
            "parentId": "",
            "callbackType": null,
            "enableMappingEditor": true,
            "package": "",
            "navigationObj": "{\n    \"_meta_\": {\n        \"eventName\": \"onClick\",\n        \"widgetId\": \"btnCancel\"\n    }\n}",
            "isCustomInput": false
        }]
    }
}