{
    "AS_FlexContainer_a7c5af228fcc4d0a890f8889a2062f76": {
        "id": "AS_FlexContainer_a7c5af228fcc4d0a890f8889a2062f76",
        "type": "ACTION_SEQUENCE",
        "name": "onClickSMSOFFSettings",
        "params": [{
            "datatype": "collection",
            "name": "eventobject"
        }],
        "contextObj": {
            "name": "frmSettingsKA",
            "type": "forms",
            "platform": "",
            "KUID": "hb0fb66c0c224ed284a1334d78669bfa"
        },
        "language": "js",
        "actions": [{
            "id": "ADD_SNIPPET__aa9bd725b33e457980d8858f2eaa5511",
            "type": "ADD_SNIPPET",
            "codeSnippet": "onselection_ALERTANDNOTIFICATIONTOGGLE(\"SMS\");",
            "parentId": null,
            "callbackType": null
        }]
    }
}