{
    "AS_FlexContainer_h4a7072c5b6c47589d5a01b32c405b84": {
        "id": "AS_FlexContainer_h4a7072c5b6c47589d5a01b32c405b84",
        "type": "ACTION_SEQUENCE",
        "name": "OnClickBackFromCOmfirmTra",
        "params": [{
            "datatype": "collection",
            "name": "eventobject"
        }],
        "contextObj": {
            "name": "frmConfirmTransferKA",
            "type": "forms",
            "platform": "",
            "KUID": "79e9f0ae27394db6b3b371dc6ca4520b"
        },
        "language": "js",
        "actions": [{
            "id": "ADD_SNIPPET__fb212a52234c4e7cbf6b2a2729d333be",
            "type": "ADD_SNIPPET",
            "codeSnippet": "if(gblTModule!=\"web\"){\n  frmNewTransferKA.show();\n}\nelse{\n  frmWebCharge.show();\n}",
            "parentId": null,
            "callbackType": null
        }]
    }
}