{
    "AS_Image_bb169652645c4ce1abfca9550bbad8ab": {
        "id": "AS_Image_bb169652645c4ce1abfca9550bbad8ab",
        "type": "ACTION_SEQUENCE",
        "name": "onClosetouchIdtryfromSee",
        "params": [{
            "datatype": "collection",
            "name": "eventobject"
        }, {
            "datatype": "string",
            "name": "x"
        }, {
            "datatype": "string",
            "name": "y"
        }],
        "contextObj": {
            "name": "frmLoginKA",
            "type": "forms",
            "platform": "",
            "KUID": "7b1aa8fceb6b4070833e9eab879b0e5e"
        },
        "language": "js",
        "actions": [{
            "id": "ADD_SNIPPET__65eb232fc029441898abae1c56291a83",
            "type": "ADD_SNIPPET",
            "codeSnippet": "kony.localAuthentication.cancelAuthentication();\nfrmLoginKA.loginMainScreen.opacity = 1;\nfrmLoginKA.loginMainPINScreen.opacity = 0;\nfrmLoginKA.flxtouchIdAndrd.setVisibility(false);\nfrmLoginKA.skin=\"sknLoginMainPage\";\nfrmLoginKA.loginMainScreen.setVisibility(true);\nfrmLoginKA.loginMainScreen.setEnabled(true);\nfrmLoginKA.loginMainPINScreen.setEnabled(true);\nloginPreShow();\nkony.sdk.mvvm.KonyApplicationContext.dismissLoadingScreen();",
            "parentId": null,
            "callbackType": null
        }]
    }
}