{
    "AS_Button_a44944b377084c7585f379ae4e07d837": {
        "id": "AS_Button_a44944b377084c7585f379ae4e07d837",
        "type": "ACTION_SEQUENCE",
        "name": "onClickApplySuplementryDebitCard",
        "params": [{
            "datatype": "collection",
            "name": "eventobject"
        }],
        "contextObj": {
            "name": "frmApplyNewCardsKA",
            "type": "forms",
            "platform": "",
            "KUID": "a05ce8d2e4404e40bfbc8dad585d28dc"
        },
        "language": "js",
        "actions": [{
            "id": "ADD_SNIPPET__i3890bf82d27422c93e634c05a8cb179",
            "type": "ADD_SNIPPET",
            "codeSnippet": "onClick_RADIOBUTTON_APPLYNEWCARDSTYPE(frmApplyNewCardsKA.btnSuplementryDebitCard,frmApplyNewCardsKA.lblSuplementryDebitCardTitle,\"SuplementryDebitCard\");",
            "parentId": null,
            "callbackType": null
        }]
    }
}