{
    "AS_Button_bbccbbc3f8084efd9c7664b53b59c328": {
        "id": "AS_Button_bbccbbc3f8084efd9c7664b53b59c328",
        "type": "ACTION_SEQUENCE",
        "name": "onClickCreatePINLogin",
        "params": [{
            "datatype": "collection",
            "name": "eventobject"
        }],
        "contextObj": {
            "type": "forms",
            "platform": "",
            "KUID": "i3d72eddc52446a1b0f37e28e1ab9525"
        },
        "language": "js",
        "actions": [{
            "id": "ADD_SNIPPET__db6afe4867294076a3eb52a43b4ce371",
            "type": "ADD_SNIPPET",
            "codeSnippet": "// setAuthModeHeader(frmPinEntryStep1);\nfrmPinEntryStep1.show();",
            "parentId": null,
            "callbackType": null
        }]
    }
}