{
    "AS_Button_b60596ff11654b199a71dfa6c90dbe7a": {
        "id": "AS_Button_b60596ff11654b199a71dfa6c90dbe7a",
        "type": "ACTION_SEQUENCE",
        "name": "onClickbtnpersonalinfo",
        "params": [{
            "datatype": "collection",
            "name": "eventobject"
        }],
        "language": "js",
        "actions": [{
            "id": "ADD_SNIPPET_ide_onClick_dbca9cf90d694179981bd86af9d05eb8",
            "type": "ADD_SNIPPET",
            "codeSnippet": "kony.print(\"Deleted\");",
            "callbackType": null
        }]
    }
}