{
    "AS_FlexContainer_a9f74fe969d642f8b92aba3878a964e6": {
        "id": "AS_FlexContainer_a9f74fe969d642f8b92aba3878a964e6",
        "type": "ACTION_SEQUENCE",
        "name": "onClickReasonForCancellation",
        "params": [{
            "datatype": "collection",
            "name": "eventobject"
        }],
        "contextObj": {
            "name": "frmCancelCardKA",
            "type": "forms",
            "platform": "",
            "KUID": "h9147b91e9434f428264b7f811fa0f0c"
        },
        "language": "js",
        "actions": [{
            "id": "ADD_SNIPPET__e393a49f7fd641b7a9b6a1fbc4039a40",
            "type": "ADD_SNIPPET",
            "codeSnippet": "//onClickCancelCardReasons();\nloadStopCardReasons();\n",
            "parentId": null,
            "callbackType": null
        }]
    }
}