{
    "AS_Button_f8edc738592e46f4bb3dfc3fe7641857": {
        "id": "AS_Button_f8edc738592e46f4bb3dfc3fe7641857",
        "type": "ACTION_SEQUENCE",
        "name": "onClickPaymentTransactionListPaymentsFooter",
        "params": [{
            "datatype": "collection",
            "name": "eventobject"
        }],
        "language": "js",
        "actions": [{
            "id": "ADD_SNIPPET_ide_onClick_j34b451c6ff2424fbef0863c95f2eced",
            "type": "ADD_SNIPPET",
            "codeSnippet": "frmPaymentDashboard.show();;",
            "callbackType": null
        }]
    }
}