{
    "AS_FlexContainer_ad50464dfb8f4bd486fe5d20801ba7e5": {
        "id": "AS_FlexContainer_ad50464dfb8f4bd486fe5d20801ba7e5",
        "type": "ACTION_SEQUENCE",
        "name": "onClickCurrentYear",
        "params": [{
            "datatype": "collection",
            "name": "eventobject"
        }],
        "contextObj": {
            "name": "frmFilterTransaction",
            "type": "forms",
            "platform": "",
            "KUID": "ff5ea79e22414b03ba4cca716d18a58c"
        },
        "language": "js",
        "actions": [{
            "id": "ADD_SNIPPET__b7b796f0e6b5425db65aed4562ef47f2",
            "type": "ADD_SNIPPET",
            "codeSnippet": "setTimePeriod(frmFilterTransaction.lblCurrentYear,frmFilterTransaction.lblYear.text);",
            "parentId": null,
            "callbackType": null
        }]
    }
}