{
    "AS_FlexContainer_ia3f7da78dc147b0bbcc16246799823f": {
        "id": "AS_FlexContainer_ia3f7da78dc147b0bbcc16246799823f",
        "type": "ACTION_SEQUENCE",
        "name": "onClickBackFrequencyTransfer",
        "params": [{
            "datatype": "collection",
            "name": "eventobject"
        }],
        "contextObj": {
            "name": "frmFrequencyList",
            "type": "forms",
            "platform": "",
            "KUID": "g0d1e2711c2c41b3b485f9bbdce5d771"
        },
        "language": "js",
        "actions": [{
            "id": "ADD_SNIPPET__d49a0d4ec2234728abdd337fc51a777e",
            "type": "ADD_SNIPPET",
            "codeSnippet": "frmNewTransferKA.show();",
            "parentId": null,
            "callbackType": null
        }]
    }
}