{
    "AS_Button_i63c1b126e134f0ab9e095dc3e9bf1ab": {
        "id": "AS_Button_i63c1b126e134f0ab9e095dc3e9bf1ab",
        "type": "ACTION_SEQUENCE",
        "name": "onContinuefrmDefaultLoginMethodKA",
        "params": [{
            "datatype": "collection",
            "name": "eventobject"
        }],
        "contextObj": {
            "name": "frmDefaultLoginMethodKA",
            "type": "forms",
            "platform": "",
            "KUID": "e739ce9a81be420593090d683fadc9e7"
        },
        "language": "js",
        "actions": [{
            "id": "ADD_SNIPPET__bf07755cb76442a38f9bfc8c48fffdbb",
            "type": "ADD_SNIPPET",
            "codeSnippet": "//setDefaultLoginMethod(frmDefaultLoginMethodKA);\nkony.print(\"Removed\");",
            "parentId": null,
            "callbackType": null
        }]
    }
}