{
    "AS_Form_j5d716ac3cd34d04939b2c9c89ae9f0f": {
        "id": "AS_Form_j5d716ac3cd34d04939b2c9c89ae9f0f",
        "type": "ACTION_SEQUENCE",
        "name": "onDeviceBackMangePayee",
        "params": [{
            "datatype": "collection",
            "name": "eventobject"
        }],
        "contextObj": {
            "name": "frmManagePayeeKA",
            "type": "forms",
            "platform": "",
            "KUID": "794f84071c7c4320866cf3978ca5357e"
        },
        "language": "js",
        "actions": [{
            "id": "ADD_SNIPPET__bcb4bcbdc16a455a9b68053c79d7dc60",
            "type": "ADD_SNIPPET",
            "codeSnippet": "frmPaymentDashboard.show();",
            "parentId": null,
            "callbackType": null
        }]
    }
}