{
    "AS_Form_b67e387307da499c8332a99cc774f112": {
        "id": "AS_Form_b67e387307da499c8332a99cc774f112",
        "type": "ACTION_SEQUENCE",
        "name": "onDeviceBackAndroidBulkPaymentConfirmation",
        "params": [{
            "datatype": "collection",
            "name": "eventobject"
        }],
        "contextObj": {
            "name": "frmBulkPaymentConfirmKA",
            "type": "forms",
            "platform": "",
            "KUID": "d2d413e763914ffcb82e30b8007d0d4c"
        },
        "language": "js",
        "actions": [{
            "id": "ADD_SNIPPET__e194202a87614e3ea10b6381a563558a",
            "type": "ADD_SNIPPET",
            "codeSnippet": "if(frmBulkPaymentConfirmKA.flxBack.isVisible === true){\n\tfrmBulkPaymentKA.show();\n\tfrmBulkPaymentConfirmKA.destroy();\n}",
            "parentId": null,
            "callbackType": null
        }]
    }
}