{
    "AS_TextField_c690bd23793846d593b62f10793b55a2": {
        "id": "AS_TextField_c690bd23793846d593b62f10793b55a2",
        "type": "ACTION_SEQUENCE",
        "name": "ondoneJIDRegJP",
        "params": [{
            "datatype": "collection",
            "name": "eventobject"
        }, {
            "datatype": "string",
            "name": "changedtext"
        }],
        "language": "js",
        "actions": [{
            "id": "ADD_SNIPPET_ide_onDone_hb89f23baddd41cca1fc95178de552ec",
            "type": "ADD_SNIPPET",
            "codeSnippet": "animate_NEWCARDSOPTIOS(\"DOWN\",\"lblJomopayIDstatic\",frmJoMoPayRegistration.txtJomopayID.text);\nanimate_NEWCARDSOPTIOS(\"UP\",\"lblNationalID\",frmJoMoPayRegistration.txtNationalID.text);\nif(frmJoMoPayRegistration.txtJomopayID.text!==\"\"&&frmJoMoPayRegistration.txtJomopayID.text!==null)\n  {\nfrmJoMoPayRegistration.flxBorderjomopayID.skin=\"skntextFieldDividerGreen\";\n  }\nelse\n  {\n   frmJoMoPayRegistration.flxBorderjomopayID.skin=\"skntextFieldDividerJomoPay\";\n  }",
            "callbackType": null
        }]
    }
}