{
    "AS_TextField_a8301298b8854888a9904d7230d62111": {
        "id": "AS_TextField_a8301298b8854888a9904d7230d62111",
        "type": "ACTION_SEQUENCE",
        "name": "onDoneUsernameLang",
        "params": [{
            "datatype": "collection",
            "name": "eventobject"
        }, {
            "datatype": "string",
            "name": "changedtext"
        }],
        "language": "js",
        "actions": [{
            "id": "ADD_SNIPPET_ide_onDone_b8c8e7a3375d43579172e693efa62a42",
            "type": "ADD_SNIPPET",
            "codeSnippet": "if(!isEmpty(frmLanguageChange.tbxusernameTextField.text))\nfrmLanguageChange.tbxusernameTextField.text=frmLanguageChange.tbxusernameTextField.text.trim();\n\nif(frmLanguageChange.tbxusernameTextField.text!==null&&frmLanguageChange.tbxusernameTextField.text!==\"\")\n{\n  frmLanguageChange.borderBottom.skin=\"skntextFieldDividerGreen\";\n}\nelse\n  {\n    frmLanguageChange.borderBottom.skin=\"skntextFieldDivider\";\n  }\n// loginKeyboardInactive();",
            "callbackType": null
        }]
    }
}