{
    "AS_TextField_h004f54d77c84f35b3e36d2809aa27f3": {
        "id": "AS_TextField_h004f54d77c84f35b3e36d2809aa27f3",
        "type": "ACTION_SEQUENCE",
        "name": "onDoneFrmBillsAmnt",
        "params": [{
            "datatype": "collection",
            "name": "eventobject"
        }, {
            "datatype": "string",
            "name": "changedtext"
        }],
        "contextObj": {
            "name": "frmBills",
            "type": "forms",
            "platform": "",
            "KUID": "ade6df6ecf3c4acba302ea54bc0a2e56"
        },
        "language": "js",
        "actions": [{
            "id": "ADD_SNIPPET__c3a18ace33484e5f8fad4d845ad77a8b",
            "type": "ADD_SNIPPET",
            "codeSnippet": "frmBills.lblHiddenAmnt.text = frmBills.tbxAmount.text;\nvar amount = frmBills.tbxAmount.text;\nif (amount === null || amount === \"\" || amount == \".\" || (Number(amount) < 0.01) || amount === 0.00) {\n}\nelse{\n  if(kony.store.getItem(\"BillPayfromAcc\") !== null && kony.store.getItem(\"BillPayfromAcc\") !== undefined){\n    var currency = \"\";\n    if(frmBills.btnBillsPayAccounts.text === \"t\"){\n       currency = kony.store.getItem(\"BillPayfromAcc\").currencyCode;\n       /* hassan */\n       gblQuickFlow = \"postBillAcc\";\n       serv_BILLSCOMISSIONCHARGE(frmBills.tbxAmount.text.replace(/,/g,\"\"));\n       /* hassan */\n    }\n    else\n       currency = kony.store.getItem(\"BillPayfromAcc\").balance.split(\" \")[1];\n    frmBills.tbxAmount.text = frmBills.tbxAmount.text;//setDecimal\n  }\n}\n\nif (frmBills.btnBillsPayCards.text===\"t\")//hassan JIRA 2141\n  frmBills.flxConversionAmt.setVisibility(false);//hassan JIRA 2141\n",
            "parentId": null,
            "callbackType": null
        }]
    }
}