{
    "AS_TextField_cc0dca9b00994741ac95cec1b83895b3": {
        "id": "AS_TextField_cc0dca9b00994741ac95cec1b83895b3",
        "type": "ACTION_SEQUENCE",
        "name": "ondonenationalIDRegJP",
        "params": [{
            "datatype": "collection",
            "name": "eventobject"
        }, {
            "datatype": "string",
            "name": "changedtext"
        }],
        "language": "js",
        "actions": [{
            "id": "ADD_SNIPPET_ide_onDone_cd17c68d17824cfc9d06ce758be8cff6",
            "type": "ADD_SNIPPET",
            "codeSnippet": "animate_NEWCARDSOPTIOS(\"DOWN\",\"lblNationalID\",frmJoMoPayRegistration.txtNationalID.text);\nanimate_NEWCARDSOPTIOS(\"UP\",\"lblMobileNumberText\",frmJoMoPayRegistration.txtPhoneNo.text);\nif(frmJoMoPayRegistration.txtNationalID.text!==\"\"&&frmJoMoPayRegistration.txtNationalID.text!==null)\n  {\nfrmJoMoPayRegistration.flxBorderBenificiary.skin=\"skntextFieldDividerGreen\";\n  }\nelse\n  {\n    frmJoMoPayRegistration.flxBorderBenificiary.skin=\"skntextFieldDividerJomoPay\";\n  }",
            "callbackType": null
        }]
    }
}