{
    "AS_TextField_ie9c560b41d14e26a6b4f799ee862809": {
        "id": "AS_TextField_ie9c560b41d14e26a6b4f799ee862809",
        "type": "ACTION_SEQUENCE",
        "name": "onendeditingiphonemobileRegJP",
        "params": [{
            "datatype": "collection",
            "name": "eventobject"
        }, {
            "datatype": "string",
            "name": "changedtext"
        }],
        "language": "js",
        "actions": [{
            "id": "ADD_SNIPPET_ide_onEndEditing_cfe39bab4bc44ea6ba4882c7c4e7fa94",
            "type": "ADD_SNIPPET",
            "codeSnippet": "animate_NEWCARDSOPTIOS(\"DOWN\",\"lblMobileNumberText\",frmJoMoPayRegistration.txtPhoneNo.text);\nif(frmJoMoPayRegistration.txtPhoneNo.text!==\"\"&&frmJoMoPayRegistration.txtPhoneNo.text!==null)\n  {\nfrmJoMoPayRegistration.flxBorderMobileNumber.skin=\"skntextFieldDividerGreen\";\n  }\nelse\n  {\n    frmJoMoPayRegistration.flxBorderMobileNumber.skin=\"skntextFieldDividerJomoPay\";\n  }",
            "callbackType": null
        }]
    }
}