{
    "AS_TextField_dfa61869440347beb667108845967cd5": {
        "id": "AS_TextField_dfa61869440347beb667108845967cd5",
        "type": "ACTION_SEQUENCE",
        "name": "onendEditingIphoneAmntNewBillKA",
        "params": [{
            "datatype": "collection",
            "name": "eventobject"
        }, {
            "datatype": "string",
            "name": "changedtext"
        }],
        "contextObj": {
            "name": "frmNewBillKA",
            "type": "forms",
            "platform": "",
            "KUID": "94b57de480514c9f98e1f6979b71a37b"
        },
        "language": "js",
        "actions": [{
            "id": "ADD_SNIPPET__b3b94ba9909e4f6b9b907ee09670ca04",
            "type": "ADD_SNIPPET",
            "codeSnippet": "animateLabel(\"DOWN\",\"lblAmount\", frmNewBillKA.tbxAmount.text);",
            "parentId": null,
            "callbackType": null
        }]
    }
}