{
    "AS_TextField_d6daeaff3fa04423ad6ba994c0933be3": {
        "id": "AS_TextField_d6daeaff3fa04423ad6ba994c0933be3",
        "type": "ACTION_SEQUENCE",
        "name": "onFocusfromAmount",
        "params": [{
            "datatype": "collection",
            "name": "eventobject"
        }, {
            "datatype": "string",
            "name": "x"
        }, {
            "datatype": "string",
            "name": "y"
        }],
        "contextObj": {
            "type": "forms",
            "platform": "",
            "KUID": "400a0ee97eb04e5897318084b1271b8a"
        },
        "language": "js",
        "actions": [{
            "id": "ADD_SNIPPET__c9a5c2b652c5440681aec4b45b77bb55",
            "type": "ADD_SNIPPET",
            "codeSnippet": "offInvalidAmountorDate(\"lblInvalidAmntRange\");",
            "parentId": null,
            "callbackType": null
        }]
    }
}