{
    "AS_Form_c104e0903d86494aa8138597e7d16bb6": {
        "id": "AS_Form_c104e0903d86494aa8138597e7d16bb6",
        "type": "ACTION_SEQUENCE",
        "name": "onpreshowcard",
        "params": [{
            "datatype": "collection",
            "name": "eventobject"
        }],
        "contextObj": {
            "name": "frmCreditCardPayment",
            "type": "forms",
            "platform": null,
            "KUID": "ifc6e17e00ef473bb51f2718c349cfba"
        },
        "language": "js",
        "actions": [{
            "id": "ADD_SNIPPET__ed52bb52757a4100ad99af4b8dbe176f",
            "type": "ADD_SNIPPET",
            "codeSnippet": "preshowcard();",
            "parentId": null,
            "callbackType": null
        }]
    }
}