{
    "AS_Segment_i6f1ac3976864c37b6158b870dbf7a20": {
        "id": "AS_Segment_i6f1ac3976864c37b6158b870dbf7a20",
        "type": "ACTION_SEQUENCE",
        "name": "onPushCardsTransactionCardDetails",
        "params": [{
            "datatype": "collection",
            "name": "eventobject"
        }],
        "contextObj": {
            "name": "frmManageCardsKA",
            "type": "forms",
            "platform": "",
            "KUID": "75db60b6b4944b7faf9c556f4dbcaf8d"
        },
        "language": "js",
        "actions": [{
            "id": "ADD_SNIPPET__j8ba6ac62c0340cf8c8f5bfafc4c41a2",
            "type": "ADD_SNIPPET",
            "codeSnippet": "accountTransactionseg();",
            "parentId": null,
            "callbackType": null
        }]
    }
}