{
    "AS_Slider_ba6b7476148346be8b0e3ddb48374e76": {
        "id": "AS_Slider_ba6b7476148346be8b0e3ddb48374e76",
        "type": "ACTION_SEQUENCE",
        "name": "onSlideATMPOSLimit",
        "params": [{
            "datatype": "collection",
            "name": "eventobject"
        }, {
            "datatype": "string",
            "name": "selectedvalue"
        }],
        "contextObj": {
            "name": "frmATMPOSLimit",
            "type": "forms",
            "platform": "",
            "KUID": "j80a8c138d2b4f1e84c03bcdca145900"
        },
        "language": "js",
        "actions": [{
            "id": "ADD_SNIPPET__ce4a3635ab0d4a7490b4a859c4d35f61",
            "type": "ADD_SNIPPET",
            "codeSnippet": "if(eventobject.id === \"sliderATMLimit\"){\n\tonTextChange_ATMPOSLIMIT(frmATMPOSLimit.txtWithdrawalLimit, frmATMPOSLimit.sliderATMLimit, \"onSlide\", \"ATM\");\n}else if(eventobject.id === \"sliderPOSLimit\"){\n\tonTextChange_ATMPOSLIMIT(frmATMPOSLimit.txtPOSLimit, frmATMPOSLimit.sliderPOSLimit, \"onSlide\", \"POS\");\n}",
            "parentId": null,
            "callbackType": null
        }]
    }
}