{
    "AS_TextField_eec07e64210c45bdb69a6c2f04c442cc": {
        "id": "AS_TextField_eec07e64210c45bdb69a6c2f04c442cc",
        "type": "ACTION_SEQUENCE",
        "name": "ontextChangeUsernameLogin",
        "params": [{
            "datatype": "collection",
            "name": "eventobject"
        }, {
            "datatype": "string",
            "name": "changedtext"
        }],
        "contextObj": {
            "name": "frmLoginKA",
            "type": "forms",
            "platform": "",
            "KUID": "7b1aa8fceb6b4070833e9eab879b0e5e"
        },
        "language": "js",
        "actions": [{
            "id": "ADD_SNIPPET__bc8d63cae2d04532a312ba49802802cb",
            "type": "ADD_SNIPPET",
            "codeSnippet": "try{\n  if(frmLoginKA.lblUserName.top !== \"15%\")\n    animateLabel(\"UP\",\"lblUserName\",frmLoginKA.tbxusernameTextField.text); \n \n  /*if(!/^[a-zA-Z0-9]+$/.test(frmLoginKA.tbxusernameTextField.text)){\n    frmLoginKA.tbxusernameTextField.text =frmLoginKA.tbxusernameTextField.text.substring(0, frmLoginKA.tbxusernameTextField.text.length - 1);\n }\n  \n  if(kony.retailBanking.util.validation.validateUsernameEdit(frmLoginKA.tbxusernameTextField.text)){\n \n    frmLoginKA.borderBottom.skin = \"sknFlxGreenLine\";\n }else{  // frmLoginKA.tbxusernameTextField.text =frmLoginKA.tbxusernameTextField.text.substring(0, frmLoginKA.tbxusernameTextField.text.length - 1);\n\n  frmLoginKA.borderBottom.skin = \"sknFlxOrangeLine\";\n \n}*/\n \n}catch(err){\n  kony.print( \"err in pwd::\"+err);\n}",
            "parentId": null,
            "callbackType": null
        }]
    }
}