{
    "AS_TextField_j2f063e57eb14c58925fd4f626502832": {
        "id": "AS_TextField_j2f063e57eb14c58925fd4f626502832",
        "type": "ACTION_SEQUENCE",
        "name": "onTextChangeEcommerceLimits",
        "params": [{
            "datatype": "collection",
            "name": "eventobject"
        }, {
            "datatype": "string",
            "name": "changedtext"
        }],
        "contextObj": {
            "name": "frmEnableInternetTransactionKA",
            "type": "forms",
            "platform": "",
            "KUID": "fc2ebd4d755e4e999be8a252c972d865"
        },
        "language": "js",
        "actions": [{
            "id": "ADD_SNIPPET__d0a0c5dd44af463c9420cc9291f2f1a2",
            "type": "ADD_SNIPPET",
            "codeSnippet": "if(eventobject.id === \"txtEcomLimit\"){\n\tonTextChange_ECOMMERCELIMIT(frmEnableInternetTransactionKA.txtEcomLimit, frmEnableInternetTransactionKA.sliderECommerceLmt, \"onTextChange\", \"internetlimit\");\n}else if(eventobject.id === \"txtMailLimit\"){\n\tonTextChange_ECOMMERCELIMIT(frmEnableInternetTransactionKA.txtMailLimit, frmEnableInternetTransactionKA.sliderMailOrderLimit, \"onTextChange\", \"mailorderlimit\");\n}",
            "parentId": null,
            "callbackType": null
        }]
    }
}