{
    "AS_TextField_j4b86790e9ea49888aabd7855b073378": {
        "id": "AS_TextField_j4b86790e9ea49888aabd7855b073378",
        "type": "ACTION_SEQUENCE",
        "name": "onTextChangeBeneficiaryMobileAddBillerJomopay",
        "params": [{
            "datatype": "collection",
            "name": "eventobject"
        }, {
            "datatype": "string",
            "name": "changedtext"
        }],
        "contextObj": {
            "name": "frmJOMOPayAddBiller",
            "type": "forms",
            "platform": null,
            "KUID": "df7e7935cb6a4e5c8a9dad110f300c3c"
        },
        "language": "js",
        "actions": [{
            "id": "ADD_SNIPPET__heefb75c32f44fa08b44218a45dfe9e5",
            "type": "ADD_SNIPPET",
            "codeSnippet": "if(new RegExp(/[^0-9]/g).test(frmJOMOPayAddBiller.txtBeneficiaryMobile.text)){\n\tfrmJOMOPayAddBiller.flxBorderBenificiary.skin = \"skntextFieldDividerOrange\";\n}else{\n\tfrmJOMOPayAddBiller.flxBorderBenificiary.skin = \"skntextFieldDividerGreen\";\n}",
            "parentId": null
        }]
    }
}