{
    "AS_TextField_f81ccf7f4bac49c788da0b27992d6a2a": {
        "id": "AS_TextField_f81ccf7f4bac49c788da0b27992d6a2a",
        "type": "ACTION_SEQUENCE",
        "name": "onTextChangeApplyCardsProfession",
        "params": [{
            "datatype": "collection",
            "name": "eventobject"
        }, {
            "datatype": "string",
            "name": "changedtext"
        }],
        "contextObj": {
            "name": "frmApplyNewCardsKA",
            "type": "forms",
            "platform": "",
            "KUID": "a05ce8d2e4404e40bfbc8dad585d28dc"
        },
        "language": "js",
        "actions": [{
            "id": "ADD_SNIPPET__a35d7aa58eec4a3091eb2c2fa2413594",
            "type": "ADD_SNIPPET",
            "codeSnippet": "if(new RegExp(/[^A-Za-z\\s]/g).test(frmApplyNewCardsKA.txtProfession.text)){\n   frmApplyNewCardsKA.flxBorderProfession.skin = \"sknFlxOrangeLine\";\n}else{\n  frmApplyNewCardsKA.flxBorderProfession.skin = \"skntextFieldDividerGreen\";\n}\nvalidate_APPLYCARDSDETAILS();",
            "parentId": null,
            "callbackType": null
        }]
    }
}