{
    "AS_TextField_b60672505b88483eb6b80f3b1864dc42": {
        "id": "AS_TextField_b60672505b88483eb6b80f3b1864dc42",
        "type": "ACTION_SEQUENCE",
        "name": "onTextChangeAliasJoMoPayRegistration",
        "params": [{
            "datatype": "collection",
            "name": "eventobject"
        }, {
            "datatype": "string",
            "name": "changedtext"
        }],
        "language": "js",
        "actions": [{
            "id": "ADD_SNIPPET_ide_onTextChange_a962002c38da42f186d2ffb1ae4b7f78",
            "type": "ADD_SNIPPET",
            "codeSnippet": "validateAliasField(frmJoMoPayRegistration.txtAlias.text, frmJoMoPayRegistration.txtAlias);\nnextCheck();\n",
            "callbackType": null
        }]
    }
}