{
    "AS_TextField_fd2651e7d12547998f6b21ccc36ab1ac": {
        "id": "AS_TextField_fd2651e7d12547998f6b21ccc36ab1ac",
        "type": "ACTION_SEQUENCE",
        "name": "onTextChangeEmail",
        "params": [{
            "datatype": "collection",
            "name": "eventobject"
        }, {
            "datatype": "string",
            "name": "changedtext"
        }],
        "contextObj": {
            "name": "frmAddExternalAccountKA",
            "type": "forms",
            "platform": "",
            "KUID": "4943cca5d62d4f0ca6f2e9ab47274db5"
        },
        "language": "js",
        "actions": [{
            "id": "ADD_SNIPPET_ide_onTextChange_c51c7846c72a462e8e6b62c799275329",
            "type": "ADD_SNIPPET",
            "codeSnippet": "if(frmAddExternalAccountKA.tbxEmail.text !== \"\"){\n  frmAddExternalAccountKA.flxUnderlineEmail.skin = \"sknFlxGreenLine\";\n}else{\n  frmAddExternalAccountKA.flxUnderlineEmail.skin = \"sknFlxOrangeLine\";\n}\nkony.boj.addBeneNextStatus();\nif(true){\n  //frmEnrolluserLandingKA.lblNext.skin = \"sknLblNextEnabled\";\n}\nelse{\n // frmEnrolluserLandingKA.lblNext.skin = \"sknLblNextDisabled\";\n}\n",
            "callbackType": null
        }]
    }
}