{
    "AS_TextField_h46760a3d8f54a2cb27a9334db597312": {
        "id": "AS_TextField_h46760a3d8f54a2cb27a9334db597312",
        "type": "ACTION_SEQUENCE",
        "name": "onTouchEndPrimaryPhoneNo",
        "params": [{
            "datatype": "collection",
            "name": "eventobject"
        }, {
            "datatype": "string",
            "name": "x"
        }, {
            "datatype": "string",
            "name": "y"
        }],
        "contextObj": {
            "name": "frmUserSettingsMyProfileKA",
            "type": "forms",
            "platform": "",
            "KUID": "469d331305a541b8b65c6d8bdf903828"
        },
        "language": "js",
        "actions": [{
            "id": "ADD_SNIPPET__i515e77784694c91972896be628dbc6a",
            "type": "ADD_SNIPPET",
            "codeSnippet": "animateLabel(\"UP\",\"lblPrimaryPhoneNo\",frmUserSettingsMyProfileKA.txtPrimaryPhoneNo.text);",
            "parentId": null,
            "callbackType": null
        }]
    }
}