{
    "AS_TextField_ba5d0c76ac0c43baae2eb0cfd2e773f3": {
        "id": "AS_TextField_ba5d0c76ac0c43baae2eb0cfd2e773f3",
        "type": "ACTION_SEQUENCE",
        "name": "onTouchEndNotesApplyCards",
        "params": [{
            "datatype": "collection",
            "name": "eventobject"
        }, {
            "datatype": "string",
            "name": "x"
        }, {
            "datatype": "string",
            "name": "y"
        }],
        "contextObj": {
            "name": "frmApplyNewCardsKA",
            "type": "forms",
            "platform": "",
            "KUID": "a05ce8d2e4404e40bfbc8dad585d28dc"
        },
        "language": "js",
        "actions": [{
            "id": "ADD_SNIPPET__g287ea598e644f5eb78a2e5057092e80",
            "type": "ADD_SNIPPET",
            "codeSnippet": "animate_NEWCARDSOPTIOS(\"UP\",kony.newCARD.fields.Notes[0],frmApplyNewCardsKA[kony.newCARD.fields.Notes[1]].text);",
            "parentId": null,
            "callbackType": null
        }]
    }
}