{
    "AS_Label_j88b6a1982c54344877bca33750e5b6e": {
        "id": "AS_Label_j88b6a1982c54344877bca33750e5b6e",
        "type": "ACTION_SEQUENCE",
        "name": "onTouchEndAccountDetailsDeals",
        "params": [{
            "datatype": "collection",
            "name": "eventobject"
        }, {
            "datatype": "string",
            "name": "x"
        }, {
            "datatype": "string",
            "name": "y"
        }],
        "contextObj": {
            "name": "frmAccountDetailKA",
            "type": "forms",
            "platform": "",
            "KUID": "5ed703cad63c441882fc4a36f5ea0c28"
        },
        "language": "js",
        "actions": [{
            "id": "ADD_SNIPPET__b2a051e05c354ed0aca32f34336049fd",
            "type": "ADD_SNIPPET",
            "codeSnippet": "animatePopup_Sort();",
            "parentId": null,
            "callbackType": null
        }]
    }
}