{
    "AS_Label_d531aa289383419db0ce9d4652290743": {
        "id": "AS_Label_d531aa289383419db0ce9d4652290743",
        "type": "ACTION_SEQUENCE",
        "name": "onTouchEndContactUsTwitter",
        "params": [{
            "datatype": "collection",
            "name": "eventobject"
        }, {
            "datatype": "string",
            "name": "x"
        }, {
            "datatype": "string",
            "name": "y"
        }],
        "contextObj": {
            "name": "frmInformationKA",
            "type": "forms",
            "platform": "",
            "KUID": "f18169832ba24ba09c8780278abfc207"
        },
        "language": "js",
        "actions": [{
            "id": "ADD_SNIPPET__c726cead740a4443a750e155f5f25491",
            "type": "ADD_SNIPPET",
            "codeSnippet": "open_SOCIALMEDIA(TWITTER);",
            "parentId": null
        }]
    }
}