{
    "AS_Label_gc7fd0fdf5534f2081480769d7efe06e": {
        "id": "AS_Label_gc7fd0fdf5534f2081480769d7efe06e",
        "type": "ACTION_SEQUENCE",
        "name": "onTouchEndContactUsFacebook",
        "params": [{
            "datatype": "collection",
            "name": "eventobject"
        }, {
            "datatype": "string",
            "name": "x"
        }, {
            "datatype": "string",
            "name": "y"
        }],
        "contextObj": {
            "name": "frmInformationKA",
            "type": "forms",
            "platform": "",
            "KUID": "f18169832ba24ba09c8780278abfc207"
        },
        "language": "js",
        "actions": [{
            "id": "ADD_SNIPPET__e0d3edb5b03a4030a5aad05724663a80",
            "type": "ADD_SNIPPET",
            "codeSnippet": "open_SOCIALMEDIA(FACEBOOK);",
            "parentId": null,
            "callbackType": null
        }]
    }
}