{
    "AS_TextField_ebad4acbe397482986551faac39ec772": {
        "id": "AS_TextField_ebad4acbe397482986551faac39ec772",
        "type": "ACTION_SEQUENCE",
        "name": "onTouchEndDescriptionJomopay",
        "params": [{
            "datatype": "collection",
            "name": "eventobject"
        }, {
            "datatype": "string",
            "name": "x"
        }, {
            "datatype": "string",
            "name": "y"
        }],
        "contextObj": {
            "name": "frmJoMoPay",
            "type": "forms",
            "platform": "",
            "KUID": "d41a38dfc97d4e0a8f3b1db96d6a1ca0"
        },
        "language": "js",
        "actions": [{
            "id": "ADD_SNIPPET__deb342b7e15842bca278c53f79a3a8f2",
            "type": "ADD_SNIPPET",
            "codeSnippet": "// animateLabel(\"UP\",\"lblstaticdescription\",frmJoMoPay.txtDescription.text);\nanimate_NEWCARDSOPTIOS(\"UP\",\"lblstaticdescription\",frmJoMoPay.txtDescription.text);",
            "parentId": null,
            "callbackType": null
        }]
    }
}