{
    "AS_Form_i86ae149903d41c18e07dc6fc6e21ab7": {
        "id": "AS_Form_i86ae149903d41c18e07dc6fc6e21ab7",
        "type": "ACTION_SEQUENCE",
        "name": "PayBillHomePreshow",
        "params": [{
            "datatype": "collection",
            "name": "eventobject"
        }],
        "contextObj": {
            "name": "frmPayBillHome",
            "type": "forms",
            "platform": "",
            "KUID": "fd7acf41c32b4b28938c2f8bcc4800db"
        },
        "language": "js",
        "actions": [{
            "id": "ADD_SNIPPET__i182dca1e4dd4495be2dda8e9844b690",
            "type": "ADD_SNIPPET",
            "codeSnippet": "gblBillHome = \"Home\";",
            "parentId": null,
            "callbackType": null
        }]
    }
}