{
    "AS_Button_ie729bbbcca24784a8c1aa45dfff67f7": {
        "id": "AS_Button_ie729bbbcca24784a8c1aa45dfff67f7",
        "type": "ACTION_SEQUENCE",
        "name": "PInloginCick",
        "params": [{
            "datatype": "collection",
            "name": "eventobject"
        }],
        "contextObj": {
            "name": "frmLoginKA",
            "type": "forms",
            "platform": "",
            "KUID": "7b1aa8fceb6b4070833e9eab879b0e5e"
        },
        "language": "js",
        "actions": [{
            "id": "ADD_SNIPPET_ide_onClick_ide439dd3b1a49b2834d3cd1ce31e5c2",
            "type": "ADD_SNIPPET",
            "codeSnippet": "var isPinSupported = kony.store.getItem(\"isPinSupported\");\n    if (isPinSupported !== null && isPinSupported !== undefined && isPinSupported !== \"\" && isPinSupported == \"Y\")\n    {\n         kony.sdk.mvvm.KonyApplicationContext.showLoadingScreen(\"\");\n         isAlternateLoginEnabled(\"P\");\n       }else{\n           customAlertPopup(\"\", kony.i18n.getLocalizedString(\"i18n.Pin.msg\"), popupCommonAlertDimiss, \"\");\n       } \n\n",
            "callbackType": null
        }]
    }
}