{
    "AS_Form_612ff8d459d04d5cb7a4539e7d3fbddf": {
        "id": "AS_Form_612ff8d459d04d5cb7a4539e7d3fbddf",
        "type": "ACTION_SEQUENCE",
        "name": "pinSettingsPreshow",
        "params": [{
            "datatype": "collection",
            "name": "eventobject"
        }],
        "contextObj": {
            "type": "forms",
            "platform": "",
            "KUID": "d417190aa4dd4674897d9097e5160f7e"
        },
        "language": "js",
        "actions": [{
            "id": "ADD_SNIPPET__7ea427e6421545609f82a8cf11e477db",
            "type": "ADD_SNIPPET",
            "codeSnippet": "kony.print(\"Removed\");",
            "parentId": null,
            "callbackType": null
        }]
    }
}