{
    "AS_Form_a7e2147f56044352bd3617efe1168d9f": {
        "id": "AS_Form_a7e2147f56044352bd3617efe1168d9f",
        "type": "ACTION_SEQUENCE",
        "name": "postshowMymoneyList",
        "params": [{
            "datatype": "collection",
            "name": "eventobject"
        }],
        "contextObj": {
            "name": "frmMyMoneyListKA",
            "type": "forms",
            "platform": "",
            "KUID": "4c6f3d4dd57b4bc3a51ee85d32b7cd14"
        },
        "language": "js",
        "actions": [{
            "id": "ADD_SNIPPET__gcbe9409e08b423aa30c19ab07bc4868",
            "type": "ADD_SNIPPET",
            "codeSnippet": "if(frmMyMoneyListKA.btnAllAccount.skin===\"slButtonWhiteTab\")\n  {\n    getstatistics();\n  }",
            "parentId": null,
            "callbackType": null
        }]
    }
}