{
    "AS_Form_ee4a2989fbdb4e88a135942451379940": {
        "id": "AS_Form_ee4a2989fbdb4e88a135942451379940",
        "type": "ACTION_SEQUENCE",
        "name": "postShowEnableInternetTransactionKA",
        "params": [{
            "datatype": "collection",
            "name": "eventobject"
        }],
        "contextObj": {
            "name": "frmEnableInternetTransactionKA",
            "type": "forms",
            "platform": "",
            "KUID": "fc2ebd4d755e4e999be8a252c972d865"
        },
        "language": "js",
        "actions": [{
            "id": "ADD_SNIPPET__e79fa449df144364b03f5a85e9378675",
            "type": "ADD_SNIPPET",
            "codeSnippet": "animateLabel(\"UP\",\"lblEcom\",frmEnableInternetTransactionKA.txtEcomLimit.text);\nanimateLabel(\"UP\",\"lblMailOrder\",frmEnableInternetTransactionKA.txtMailLimit.text);",
            "parentId": null,
            "callbackType": null
        }]
    }
}