{
    "AS_Form_8ba554ee8b9344c6b6070a472802c813": {
        "id": "AS_Form_8ba554ee8b9344c6b6070a472802c813",
        "type": "ACTION_SEQUENCE",
        "name": "scheduleDepositPreShowAction",
        "params": [{
            "datatype": "collection",
            "name": "eventobject"
        }],
        "contextObj": {
            "type": "forms",
            "platform": "",
            "KUID": "a5a2ca8c30444478bd542cf9f8178425"
        },
        "language": "js",
        "actions": [{
            "id": "ADD_SNIPPET__65ca6b88c01145b99f13c4b873bbc28e",
            "type": "ADD_SNIPPET",
            "codeSnippet": "scheduledTransactionDetailPreShow();",
            "parentId": null,
            "callbackType": null
        }]
    }
}