{
    "AS_Button_a6b8ccee7579411ba5191945fd3e4728": {
        "id": "AS_Button_a6b8ccee7579411ba5191945fd3e4728",
        "type": "ACTION_SEQUENCE",
        "name": "searchfrmicon",
        "params": [{
            "datatype": "collection",
            "name": "eventobject"
        }],
        "contextObj": {
            "name": "frmJoMoPayLanding",
            "type": "forms",
            "platform": "",
            "KUID": "d298f6fe5af04a4dbf76c2b5625a9f8c"
        },
        "language": "js",
        "actions": [{
            "id": "ADD_SNIPPET__f7555cd3dc7246b4b3aa0260450ac7df",
            "type": "ADD_SNIPPET",
            "codeSnippet": "searchString(frmJoMoPayLanding.txtSearch.text,jpdata);",
            "parentId": null,
            "callbackType": null
        }]
    }
}