{
    "AS_Segment_ed8832a250094b22af42d53f771def8e": {
        "id": "AS_Segment_ed8832a250094b22af42d53f771def8e",
        "type": "ACTION_SEQUENCE",
        "name": "SelectionFromDropDownjomopayaccount",
        "params": [{
            "datatype": "collection",
            "name": "eventobject"
        }, {
            "datatype": "number",
            "name": "sectionNumber"
        }, {
            "datatype": "number",
            "name": "rowNumber"
        }],
        "language": "js",
        "actions": [{
            "id": "ADD_SNIPPET_ide_onRowClick_f1c8ceca3cbe4cc2956ceec37d2a7aff",
            "type": "ADD_SNIPPET",
            "codeSnippet": "onclickofaccountseg();",
            "callbackType": null
        }]
    }
}