{
    "@class": "com.kony.gen.viz.model.component.KVizButton",
    "DNDConfig": null,
    "__parentReadjusting__": false,
    "_height_": {
        "type": "string",
        "value": "98%"
    },
    "_left_": {
        "type": "string",
        "value": "50%"
    },
    "_margin_": [
        6,
        6,
        6,
        6
    ],
    "_padding_": [
        0,
        0,
        0,
        0
    ],
    "_skin_": "s41fb5693a024ca6af3b2c8c71179333",
    "_text_": "Accept",
    "_width_": {
        "type": "string",
        "value": "25%"
    },
    "canUpdateUI": true,
    "centery": {
        "type": "string",
        "value": "50%"
    },
    "containerweight": 100,
    "contentalignment": 5,
    "displaytext": true,
    "focusskin": "s0eacd0585e64c81a58d225fcf6cd7c5",
    "id": "btnAccepted",
    "ide_onClick": "AS_Button_g6591d159ae44a0a90699cbb33a21892",
    "info": null,
    "iscustomlayout": true,
    "isvisible": true,
    "kuid": "f1846087c3d54006b4615b598d8b1025",
    "name": "kony.ui.Button",
    "paddinginpixel": false,
    "parent": "flxContent",
    "pf": "frmManageCardLess",
    "retainflexpositionproperties": false,
    "texti18n": "i18n.Cardless.accepted",
    "wType": "Button",
    "zindex": 2
}