{
    "AS_Button_d7ccab08d63d423597208dd59d36cb10": {
        "id": "AS_Button_d7ccab08d63d423597208dd59d36cb10",
        "type": "ACTION_SEQUENCE",
        "params": [{
            "datatype": "FormController",
            "name": "form"
        }],
        "contextObj": {
            "name": "frmWatMenu",
            "type": "forms",
            "platform": null,
            "KUID": "ea59f4de6a074958ad1b469a50249501"
        },
        "language": "swift",
        "actions": [{
            "id": "ADD_SNIPPET__b16118697b324d4cb0723159f5e45877",
            "type": "ADD_SNIPPET",
            "codeSnippet": "let context = [\"token\": \"1\"]\nform.pushController(withName: \"frmWatMenuItemList\", context: context);",
            "parentId": null,
            "callbackType": null
        }]
    }
}