{
    "AS_Button_c0906741677d4f4cbabe3e88b9fbb49b": {
        "id": "AS_Button_c0906741677d4f4cbabe3e88b9fbb49b",
        "type": "ACTION_SEQUENCE",
        "params": [{
            "datatype": "FormController",
            "name": "form"
        }],
        "contextObj": {
            "name": "frmWatMenu",
            "type": "forms",
            "platform": null,
            "KUID": "ea59f4de6a074958ad1b469a50249501"
        },
        "language": "swift",
        "actions": [{
            "id": "ADD_SNIPPET__f8de9bf154dd4a75a0b1d7c1d0a6dba1",
            "type": "ADD_SNIPPET",
            "codeSnippet": "let context = [\"token\": \"0\"]\nform.pushController(withName: \"frmWatMenuItemList\", context: context);",
            "parentId": null,
            "callbackType": null
        }]
    }
}