{
    "AS_Form_h3d27e330e04402e8def2935259d3b6b": {
        "id": "AS_Form_h3d27e330e04402e8def2935259d3b6b",
        "type": "ACTION_SEQUENCE",
        "params": [{
            "datatype": "FormController",
            "name": "form"
        }],
        "contextObj": {
            "name": "frmWatMenuDemo",
            "type": "forms",
            "platform": null,
            "KUID": "hfd1c6c3916b48c79e08169cc96dc59e"
        },
        "language": "swift",
        "actions": [{
            "id": "ADD_SNIPPET__e7231aeeb73c459c879465c0b9062363",
            "type": "ADD_SNIPPET",
            "codeSnippet": "//initFrmMenu(form: form)\n",
            "parentId": null,
            "callbackType": null
        }]
    }
}