{
    "@class": "com.kony.gen.viz.model.component.KVizLabel",
    "DNDConfig": null,
    "__parentReadjusting__": false,
    "_height_": {
        "type": "string",
        "value": "40%"
    },
    "_margin_": [
        1,
        1,
        1,
        1
    ],
    "_padding_": [
        0,
        0,
        0,
        0
    ],
    "_right_": {
        "type": "string",
        "value": "15%"
    },
    "_skin_": "s54bf0258815482d9431de67438bfce0",
    "_text_": "l",
    "_top_": {
        "type": "string",
        "value": "50%"
    },
    "_width_": {
        "type": "string",
        "value": "10%"
    },
    "_wrapping_": 2,
    "android": {
        "textStyle": {
            "letterSpacing": 0,
            "strikeThrough": false
        }
    },
    "canUpdateUI": true,
    "containerweight": 100,
    "contentalignment": 5,
    "id": "lblSortSI",
    "ide_onTouchEnd": "AS_Label_b383598ba901460b9cc21770b7049544",
    "info": null,
    "ipad": {
        "psp": {
            "wrapping": 2
        }
    },
    "iphone": {
        "psp": {
            "wrapping": 2
        }
    },
    "isvisible": true,
    "kuid": "c7de500fe5ca4025bd5822968105106a",
    "name": "kony.ui.Label",
    "parent": "flxSIHeader",
    "pf": "frmStandingInstructions",
    "tooltip": "",
    "wType": "Label",
    "zindex": 1
}