{
    "DNDConfig": null,
    "_height_": {
        "type": "string",
        "value": "60dp"
    },
    "_margin_": [
        0,
        0,
        0,
        0
    ],
    "_orientation_": 6,
    "_padding_": [
        0,
        0,
        0,
        0
    ],
    "_percent_": true,
    "_skin_": "s68c6a00fb1440c7ad8eafdfa9e188cf",
    "allboxes": [],
    "autogrowmode": 0,
    "canUpdateUI": true,
    "children": [
        "InnerFlexContainerRoundCornerKA"
    ],
    "clipbounds": true,
    "containerId": true,
    "containerweight": 100,
    "enablescrolling": true,
    "id": "OuterFlexContainerMainContentsKA",
    "info": null,
    "isTemplate": true,
    "isvisible": true,
    "kuid": "c4a99640dda74c8d9eab59bacff90766",
    "layouttype": 2,
    "name": "kony.ui.FlexContainer",
    "parent": "tempNUOClassificationTypesKA",
    "pf": "tempNUOClassificationTypesKA",
    "snapgridsize": 10,
    "snaptogrid": true,
    "wType": "FlexContainer",
    "widgetalignment": 1
}