{
    "@class": "com.kony.gen.viz.model.container.KVizHBox",
    "DNDConfig": null,
    "__markedForDelete__": true,
    "_margin_": [
        0,
        0,
        0,
        0
    ],
    "_orientation_": 1,
    "_padding_": [
        0,
        0,
        0,
        0
    ],
    "_percent_": true,
    "_position_": 3,
    "_skin_": "s251243d5eba45259b7c9f05207eb78d",
    "allboxes": [],
    "canUpdateUI": true,
    "children": [
        "lblCardCancelDesc"
    ],
    "containerweight": 100,
    "contextmenu": null,
    "id": "HBxTitleCancelCard",
    "info": null,
    "isvisible": true,
    "kuid": "dd337eca57e449aa9ccf5ce7e28cf4d2",
    "layouttype": 0,
    "name": "kony.ui.Box",
    "paddinginpixel": false,
    "parent": "PopupCancelAndReplaceCard",
    "pf": "PopupCancelAndReplaceCard",
    "vexpand": false,
    "wType": "HBox",
    "widgetalignment": 1
}