{
    "@class": "com.kony.gen.viz.model.component.KVizRadio",
    "DNDConfig": null,
    "_margin_": [
        2,
        5,
        2,
        2
    ],
    "_padding_": [
        1,
        1,
        1,
        1
    ],
    "_skin_": "s50e7052c03547a29390ba7e51018119",
    "android": {
        "psp": {
            "viewType": 0
        },
        "tickedImage": "radioselected.png",
        "untickedImage": "radiononselected.png"
    },
    "canUpdateUI": true,
    "containerweight": 100,
    "focusskin": "sbcd0111e65c42c687568e93dd9862fb",
    "groupcells": false,
    "id": "RdBtnCancelCard",
    "ide_onSelection": "AS_RadioButtonGroup_j2cf187be0a842a29e5ce8ba9f90c12f",
    "info": null,
    "ipad": {
        "psp": {
            "viewType": 0
        }
    },
    "iphone": {
        "psp": {
            "viewType": 3
        },
        "tickedImage": "radioselected.png",
        "untickedImage": "radiononselected.png"
    },
    "isvisible": true,
    "itemorientation": "vertical",
    "kuid": "b05f4b9c607e42d392f2533fbdfa743b",
    "margininpixel": false,
    "masterdata": [
        [
            "rbg1",
            "Cancel Card",
            "i18n.cardcancel.cardcancel"
        ]
    ],
    "name": "kony.ui.RadioButtonGroup",
    "paddInPixel": [
        9.66,
        9.66,
        9.66,
        9.66
    ],
    "paddinginpixel": false,
    "parent": "HBoxCacelCard",
    "pf": "PopupCancelAndReplaceCard",
    "selectedkey": "rbg1",
    "selectedkeyvalue": [
        "rbg1",
        "Card Cancel"
    ],
    "size": 18,
    "tickedimage": "radioselected.png",
    "untickedimage": "radiononselected.png",
    "viewconfig": {
        "toggleViewConfig": {
            "viewStyle": 0
        }
    },
    "viewtype": 0,
    "wType": "RadioButtonGroup",
    "widgetalignment": 5
}