{
    "@class": "com.kony.gen.viz.model.component.KVizTextBox2",
    "DNDConfig": null,
    "__parentReadjusting__": false,
    "_bottom_": {
        "type": "string",
        "value": "4%"
    },
    "_height_": {
        "type": "string",
        "value": "50%"
    },
    "_margin_": [
        0,
        0,
        0,
        0
    ],
    "_padding_": [
        3,
        0,
        0,
        0
    ],
    "_placeholder_": "",
    "_skin_": "s029998596d3421892d0917ea7492e1d",
    "_text_": "",
    "_width_": {
        "type": "string",
        "value": "100%"
    },
    "android": {
        "ide_onBeginEditing": "AS_TextField_h18a06ba52324382af2e86fe9dbb783e",
        "ide_onEndEditing": "AS_TextField_b8cdde6a76304a82ab11f0f91e9aeb49"
    },
    "autocapitalize": "none",
    "autocomplete": false,
    "autocorrect": false,
    "autofilter": false,
    "canUpdateUI": true,
    "centerx": {
        "type": "string",
        "value": "50%"
    },
    "containerheight": "",
    "containerheightmode": 1,
    "containerweight": 100,
    "contentalignment": 4,
    "focusskin": "s029998596d3421892d0917ea7492e1d",
    "id": "txtIBANBeneName",
    "ide_onDone": "AS_TextField_i521b8e7d6914fb4996712235b5a91b1",
    "ide_onTextChange": "AS_TextField_b57335955b5a47fc85b052226f26adff",
    "ide_onTouchEnd": "AS_TextField_f9a4f13593d74daa8f90f1856c3a0708",
    "info": null,
    "iphone": {
        "ide_onBeginEditing": "AS_TextField_j258c48a208e47b9a798b54ea402f3f1",
        "ide_onEndEditing": "AS_TextField_b5b57d87d5f644cd9ab52d808ee74515",
        "psp": {
            "keyboardActionLabel": 1,
            "showClearButton": false,
            "showCloseButton": false
        }
    },
    "isvisible": true,
    "keyboardactionlabel": 4,
    "keyboardtype": "A",
    "kuid": "gff8d333cc3a45639e4025a525448498",
    "mode": "A",
    "name": "kony.ui.TextBox2",
    "parent": "flxIbanBeneName",
    "pf": "frmEPS",
    "securetextentry": false,
    "showclearbutton": false,
    "textinputmode": "A",
    "viewtype": "default",
    "wType": "TextField",
    "zindex": 1
}