{
    "@class": "com.kony.gen.viz.model.component.KVizLabel",
    "DNDConfig": null,
    "__parentReadjusting__": false,
    "_height_": {
        "type": "ref",
        "value": "preferred"
    },
    "_margin_": [
        1,
        1,
        1,
        1
    ],
    "_padding_": [
        0,
        0,
        0,
        0
    ],
    "_skin_": "sad8c8ba36244cd5842d9e0223364c45",
    "_text_": "Incorrect enty,try again",
    "_top_": {
        "type": "string",
        "value": "2%"
    },
    "_width_": {
        "type": "ref",
        "value": "preferred"
    },
    "_wrapping_": 2,
    "canUpdateUI": true,
    "centerx": {
        "type": "string",
        "value": "50%"
    },
    "containerweight": 100,
    "contentalignment": 5,
    "enabled": false,
    "id": "lblInCorrectpinKA",
    "info": null,
    "ipad": {
        "psp": {
            "wrapping": 2
        }
    },
    "iphone": {
        "psp": {
            "wrapping": 2
        }
    },
    "isvisible": false,
    "kuid": "cf697a2ac6324849b26ab1aac2a6df3f",
    "name": "kony.ui.Label",
    "parent": "flxMainKA",
    "pf": "frmNewUserOnboardVerificationKA",
    "texti18n": "i18n.NewUserOnboarding.Incorrect entry,try again",
    "tooltip": "",
    "wType": "Label",
    "zindex": 1
}