{
    "@class": "com.kony.gen.viz.model.container.KVizSegment2",
    "DNDConfig": null,
    "__parentReadjusting__": false,
    "_bounces_": false,
    "_data_": [
        {
            "lblCardNum": {
                "@class": "com.viz.ide.model.segment.SimpleTextSegmentData",
                "text": "Label"
            },
            "lblCardType": {
                "@class": "com.viz.ide.model.segment.SimpleTextSegmentData",
                "text": "234567890"
            },
            "lblHiddenCardNum": {
                "@class": "com.viz.ide.model.segment.SimpleTextSegmentData",
                "text": "4321 56** **** 3456"
            }
        },
        {
            "lblCardNum": {
                "@class": "com.viz.ide.model.segment.SimpleTextSegmentData",
                "text": "Label"
            },
            "lblCardType": {
                "@class": "com.viz.ide.model.segment.SimpleTextSegmentData",
                "text": "234567890"
            },
            "lblHiddenCardNum": {
                "@class": "com.viz.ide.model.segment.SimpleTextSegmentData",
                "text": "4321 56** **** 3786"
            }
        },
        {
            "lblCardNum": {
                "@class": "com.viz.ide.model.segment.SimpleTextSegmentData",
                "text": "Label"
            },
            "lblCardType": {
                "@class": "com.viz.ide.model.segment.SimpleTextSegmentData",
                "text": "234567890"
            },
            "lblHiddenCardNum": {
                "@class": "com.viz.ide.model.segment.SimpleTextSegmentData",
                "text": "5261 56** **** 3456"
            }
        }
    ],
    "_height_": {
        "type": "string",
        "value": "90.22%"
    },
    "_indicator_": "none",
    "_left_": {
        "type": "string",
        "value": "0%"
    },
    "_margin_": [
        0,
        0,
        0,
        0
    ],
    "_orientation_": 2,
    "_padding_": [
        0,
        0,
        0,
        0
    ],
    "_top_": {
        "type": "string",
        "value": "10%"
    },
    "_width_": {
        "type": "string",
        "value": "100%"
    },
    "autogrowmode": 0,
    "canUpdateUI": true,
    "containerweight": 100,
    "counter": "02",
    "focusedindex": null,
    "focuseditem": null,
    "generatedtemplate": "hb099a19bc8c4e368989949bef39cbb3",
    "groupcells": false,
    "hasSections": false,
    "id": "segCreditCardNumber",
    "ide_onRowClick": "AS_Segment_de6903682b94416b8895ebbcb0c906e9",
    "info": null,
    "ipad": {
        "psp": {
            "indicator": "rowselect"
        }
    },
    "iphone": {
        "psp": {
            "bounces": false,
            "indicator": "none",
            "showProgressIndicator": true
        }
    },
    "isvisible": true,
    "kuid": "hc287fb141d540a9bb2ba1f788e3db12",
    "masterdata": {},
    "name": "kony.ui.SegmentedUI2",
    "needpageindicator": true,
    "pageoffdotimage": "pageoffdot.png",
    "pageondotimage": "pageondot.png",
    "paginationconfig": {
        "position": "bottom"
    },
    "parent": "flxCreditCardNumber",
    "pf": "frmCreditCardNumber",
    "retainselection": false,
    "rowTemplateId": "c56809e7dbb5418f947453b36ac5adf7",
    "rowcounter": 2,
    "rowfocusskin": "s5fa38be22fb4f22b7c642b08276ab82",
    "rowskin": "s502bad36fe345a1984e8592ba71ad32",
    "rowtemplate": "flxCardNumber",
    "screenlevelwidget": false,
    "seccounter": 0,
    "sectionheaderskin": "s67621b8a82d49f285da06b4f5a0c993",
    "selectedRows": null,
    "selectedState": false,
    "selectedindex": null,
    "selectedindices": null,
    "selecteditems": null,
    "selectedsectionindex": 0,
    "selectionbehavior": "default",
    "separatorcolor": "1e415b00",
    "separatorrequired": true,
    "separatorthickness": 1,
    "showprogressindicator": true,
    "showscrollbars": false,
    "viewtype": "tableview",
    "wType": "Segment",
    "widgetalignment": 5,
    "widgetdatamap": {
        "flxCardNumber": "flxCardNumber",
        "flxCardNumberContainer": "flxCardNumberContainer",
        "lblCardHolderName": "lblCardHolderName",
        "lblCardNum": "lblCardNum",
        "lblCardType": "lblCardType",
        "lblHiddenCardNum": "lblHiddenCardNum"
    },
    "zindex": 2
}