{
    "DNDConfig": null,
    "__parentReadjusting__": false,
    "_height_": {
        "type": "string",
        "value": "60dp"
    },
    "_left_": {
        "type": "string",
        "value": "0dp"
    },
    "_margin_": [
        0,
        0,
        0,
        0
    ],
    "_orientation_": 6,
    "_padding_": [
        0,
        0,
        0,
        0
    ],
    "_percent_": true,
    "_skin_": "s388f0c575ef4d08ac3a5ed0a4b90085",
    "_top_": {
        "type": "string",
        "value": "2%"
    },
    "_width_": {
        "type": "string",
        "value": "100%"
    },
    "allboxes": [],
    "autogrowmode": 0,
    "canUpdateUI": true,
    "children": [
        "lblCountryCodeTitle",
        "txtCountryCode",
        "flxLine2",
        "lblMobileNumberTitle",
        "txtMobileNumber",
        "CopyflxLine0a4214bb8a7c146",
        "btnMobileCode",
        "lblMobileNumberClear"
    ],
    "clipbounds": true,
    "containerweight": 100,
    "enablescrolling": true,
    "id": "flxMobContainer",
    "info": null,
    "isvisible": true,
    "kuid": "acdc751f64124c55a740dce9d4062676",
    "layouttype": 2,
    "name": "kony.ui.FlexContainer",
    "parent": "flxTxtMobileNukber",
    "pf": "frmRegisterUser",
    "snapgridsize": 10,
    "snaptogrid": true,
    "wType": "FlexContainer",
    "widgetalignment": 1,
    "zindex": 1
}