{
    "@class": "com.kony.gen.viz.model.component.KVizLabel",
    "DNDConfig": null,
    "__parentReadjusting__": false,
    "_height_": {
        "type": "ref",
        "value": "preferred"
    },
    "_margin_": [
        1,
        1,
        1,
        1
    ],
    "_padding_": [
        0,
        0,
        0,
        0
    ],
    "_right_": {
        "type": "string",
        "value": "3%"
    },
    "_skin_": "s82d79605bbc4b9b80dc11f7718fb010",
    "_text_": "O",
    "_top_": {
        "type": "string",
        "value": "55%"
    },
    "_width_": {
        "type": "ref",
        "value": "preferred"
    },
    "_wrapping_": 2,
    "android": {
        "textStyle": {
            "letterSpacing": 0,
            "strikeThrough": false
        }
    },
    "canUpdateUI": true,
    "containerweight": 100,
    "contentalignment": 4,
    "id": "lblMobileNumberClear",
    "ide_onTouchEnd": "AS_Label_g5a8dde9d55f42b9a57da8c2e7e11e6d",
    "info": null,
    "ipad": {
        "psp": {
            "wrapping": 2
        }
    },
    "iphone": {
        "psp": {
            "wrapping": 2
        }
    },
    "isvisible": false,
    "kuid": "fc2e7e84a1a0445b946717b7dfeca9ec",
    "name": "kony.ui.Label",
    "parent": "flxMobContainer",
    "pf": "frmRegisterUser",
    "textstyle": {},
    "tooltip": "",
    "wType": "Label",
    "zindex": 3
}