{
    "@class": "com.kony.gen.viz.model.component.KVizTextBox2",
    "DNDConfig": null,
    "__parentReadjusting__": false,
    "_height_": {
        "type": "string",
        "value": "60%"
    },
    "_left_": {
        "type": "string",
        "value": "0%"
    },
    "_margin_": [
        0,
        0,
        0,
        0
    ],
    "_padding_": [
        0,
        0,
        0,
        0
    ],
    "_placeholder_": "",
    "_skin_": "sa25e426dcb94c13ab46f59a2b31a09a",
    "_text_": "",
    "_top_": {
        "type": "string",
        "value": "35%"
    },
    "_width_": {
        "type": "string",
        "value": "100%"
    },
    "android": {
        "ide_onBeginEditing": "AS_TextField_g3308bf66f4745a89199794fba2c1137",
        "ide_onEndEditing": "AS_TextField_hcfabc2139954cf3a0a60a3a7302946f"
    },
    "autocapitalize": "none",
    "autocomplete": false,
    "autocorrect": false,
    "autofilter": false,
    "canUpdateUI": true,
    "containerheight": "",
    "containerheightmode": 1,
    "containerweight": 100,
    "contentalignment": 4,
    "focusskin": "sa25e426dcb94c13ab46f59a2b31a09a",
    "id": "txtAccountNumber",
    "ide_onDone": "AS_TextField_c17b4cdd4fb6418bbd8b299c204364f5",
    "ide_onTextChange": "AS_TextField_de95a56be40a4baabbf0056753601414",
    "info": null,
    "iphone": {
        "ide_onBeginEditing": "AS_TextField_d9e4bc7175ed4f418c68dcd339b0892a",
        "ide_onEndEditing": "AS_TextField_fe17f73288d343edafa8740e921ecde8",
        "psp": {
            "inputAccessoryViewType": 3,
            "keyboardActionLabel": 1
        }
    },
    "isvisible": true,
    "keyboardstyle": "A",
    "keyboardtype": "A",
    "kuid": "cbb2f8c08ad643f3a6f4c747fd748a07",
    "maxtextlength": 7,
    "mode": "N",
    "name": "kony.ui.TextBox2",
    "paddinginpixel": false,
    "parent": "flxAccountNumber",
    "pf": "frmRegisterUser",
    "securetextentry": false,
    "textinputmode": "N",
    "viewtype": "default",
    "wType": "TextField",
    "zindex": 1
}