{
    "DNDConfig": null,
    "_height_": {
        "type": "string",
        "value": "50dp"
    },
    "_margin_": [
        0,
        0,
        0,
        0
    ],
    "_orientation_": 6,
    "_padding_": [
        0,
        0,
        0,
        0
    ],
    "_percent_": true,
    "_skin_": "s388f0c575ef4d08ac3a5ed0a4b90085",
    "allboxes": [],
    "autogrowmode": 0,
    "canUpdateUI": true,
    "children": [
        "imgIcon",
        "lblLoginMethod",
        "tmpAuthMode",
        "imgEnable",
        "flxDivider1"
    ],
    "clipbounds": true,
    "containerId": true,
    "containerweight": 100,
    "enablescrolling": true,
    "id": "flxtmpMain",
    "info": null,
    "isTemplate": true,
    "isvisible": true,
    "kuid": "eb5cd2b7d1d049418ffb0ef23a0b331f",
    "layouttype": 2,
    "name": "kony.ui.FlexContainer",
    "parent": "tmpSegLoginMethods",
    "pf": "tmpSegLoginMethods",
    "snapgridsize": 10,
    "snaptogrid": true,
    "wType": "FlexContainer",
    "widgetalignment": 1
}