{
    "DNDConfig": null,
    "__parentReadjusting__": false,
    "_height_": {
        "type": "string",
        "value": "100%"
    },
    "_left_": {
        "type": "string",
        "value": "0%"
    },
    "_margin_": [
        0,
        0,
        0,
        0
    ],
    "_orientation_": 6,
    "_padding_": [
        0,
        0,
        0,
        0
    ],
    "_percent_": true,
    "_skin_": "s388f0c575ef4d08ac3a5ed0a4b90085",
    "_width_": {
        "type": "string",
        "value": "100%"
    },
    "allboxes": [],
    "autogrowmode": 0,
    "canUpdateUI": true,
    "children": [
        "flxAnimate",
        "flxButtonHolder",
        "contactListDivider",
        "btnEditBillerDetails",
        "verticalDivider",
        "btnBillsPayAccounts",
        "lblBulkSelection"
    ],
    "clipbounds": true,
    "containerId": true,
    "containerweight": 100,
    "enablescrolling": true,
    "id": "flxToAnimate",
    "ide_onClick": "AS_FlexContainer_c64d866ecd01409a8745624b1c18e24b",
    "info": null,
    "isvisible": true,
    "kuid": "d7a13ad07ed3411bab20ab0d98db9d3d",
    "layouttype": 2,
    "name": "kony.ui.FlexContainer",
    "parent": "flxManagePayeeNormal",
    "pf": "segmanagepayeetmplt",
    "snapgridsize": 10,
    "snaptogrid": true,
    "wType": "FlexContainer",
    "widgetalignment": 1,
    "zindex": 1
}