{
    "@class": "com.kony.gen.viz.model.component.KVizButton",
    "DNDConfig": null,
    "__parentReadjusting__": false,
    "_height_": {
        "type": "string",
        "value": "100%"
    },
    "_left_": {
        "type": "string",
        "value": "0%"
    },
    "_margin_": [
        6,
        6,
        6,
        6
    ],
    "_padding_": [
        0,
        0,
        0,
        1
    ],
    "_skin_": "s11bf16b2f204f8584ad51e44887c74d",
    "_text_": "inwards",
    "_top_": {
        "type": "string",
        "value": "0%"
    },
    "_width_": {
        "type": "string",
        "value": "50%"
    },
    "canUpdateUI": true,
    "containerweight": 100,
    "contentalignment": 5,
    "displaytext": true,
    "focusskin": "s0eacd0585e64c81a58d225fcf6cd7c5",
    "id": "btnInwards",
    "ide_onClick": "AS_Button_g2072f5db2ef478595e6b416c684512e",
    "info": null,
    "isvisible": true,
    "kuid": "f81707789aab4eb4b3f3faece7857c17",
    "name": "kony.ui.Button",
    "paddinginpixel": false,
    "parent": "flxTab",
    "pf": "frmTransferStatus",
    "texti18n": "i18n.transferstatus.inward",
    "wType": "Button",
    "zindex": 1
}