{
    "@class": "com.kony.gen.viz.model.component.KVizRichText",
    "DNDConfig": null,
    "__parentReadjusting__": false,
    "_height_": {
        "type": "ref",
        "value": "preferred"
    },
    "_left_": {
        "type": "string",
        "value": "2dp"
    },
    "_margin_": [
        0,
        0,
        0,
        0
    ],
    "_padding_": [
        5,
        2,
        2,
        0
    ],
    "_skin_": "s441cf7f1ea642b89dab44a82d831225",
    "_text_": "<br> Kony At xyzBank, we respect your right to privacy and we understand that visitors to www.xyzBank.com need to control the uses of their personal information.</br><b><br><br>What personally identifiable information do we collect and when do we collect it?</br></br></b><br><br>Etiam nec pulvinar dui, eget eleifend felis. Proin bibendum molestie dolor. Aenean dictum pharetra mauris, ultrices pretium nunc imperdiet in.</br></br><b><br><br>How do we use your personally identifiable information?</br></br></b><br><br>Nulla dictum tincidunt turpis eu consequat. Sed adipiscing eros a nisi dictum mollis. Vestibulum ante ipsum primis in faucibus orci luctus et ultrices posuere cubilia Curae; Vivamus urna lorem, porta sed congue ut, sollicitudin quis erat.</br></br><b><br><br>With whom do we share your personally identifiable information?</br></br></b><br><br>Vivamus massa odio, dignissim ac ante at, euismod dignissim risus. Cras ut blandit lorem. Maecenas nisl quam, cursus nec aliquet facilisis, mattis id augue. Fusce semper odio et gravida interdum. Suspendisse quis lacus nulla. Nullam et nibh ligula. Nunc vitae nulla et arcu mollis iaculis. Vestibulum venenatis risus ut ligula lacinia malesuada.</br></br>\n\n<b>\n<br><b>about your privacy?</br></b></b>\n\n<br><br>Fusce ac consectetur enim. Vivamus turpis tellus, malesuada ac erat vitae, pulvinar venenatis turpis. Quisque interdum blandit est id volutpat. Etiam in ipsum sagittis, accumsan ipsum vitae, tincidunt metus.</br>",
    "_top_": {
        "type": "string",
        "value": "0dp"
    },
    "_width_": {
        "type": "string",
        "value": "100%"
    },
    "_wrapping_": 2,
    "canUpdateUI": true,
    "containerweight": 100,
    "contentalignment": 1,
    "id": "rTxtPrivacyPolicyKA",
    "info": null,
    "isvisible": true,
    "kuid": "f0a4aa689a974f94b8bbfb63bda7fdb7",
    "name": "kony.ui.RichText",
    "paddinginpixel": false,
    "parent": "mainContent",
    "pf": "frmMorePrivacyPolicyKA",
    "wType": "RichText",
    "widgetalignment": 5
}