{
    "@class": "com.kony.gen.viz.model.component.KVizImage2",
    "DNDConfig": null,
    "__parentReadjusting__": false,
    "_base64_": null,
    "_height_": {
        "type": "string",
        "value": "30%"
    },
    "_left_": {
        "type": "string",
        "value": "2.50%"
    },
    "_margin_": [
        0,
        0,
        0,
        0
    ],
    "_padding_": [
        0,
        0,
        0,
        0
    ],
    "_skin_": "sa625024fef740fea5133ed43bbfac5f",
    "_src_": "pending.png",
    "_top_": {
        "type": "string",
        "value": "0dp"
    },
    "_width_": {
        "type": "ref",
        "value": "preferred"
    },
    "canUpdateUI": true,
    "centery": {
        "type": "string",
        "value": "37%"
    },
    "containerId": true,
    "containerweight": 100,
    "context": {
        "channel": "mobile",
        "formID": "tmpSearchResultsKA",
        "templateType": "segments",
        "topLevelBox": null
    },
    "id": "ImgWithDraw",
    "imagescalemode": 1,
    "info": null,
    "invokedProperty": "src",
    "isvisible": false,
    "kuid": "g5f88f3b0e8146b7b8d4cdf9b766dfab",
    "name": "kony.ui.Image2",
    "parent": "CopyFlexContainer0125626bedd894d",
    "pf": "tmpSearchResultsKA",
    "srcType": 1,
    "wType": "Image",
    "widgetalignment": 5
}