{
    "@class": "com.kony.gen.viz.model.component.KVizButton",
    "DNDConfig": null,
    "__parentReadjusting__": false,
    "_height_": {
        "type": "string",
        "value": "50dp"
    },
    "_left_": {
        "type": "string",
        "value": "0dp"
    },
    "_margin_": [
        6,
        6,
        6,
        6
    ],
    "_padding_": [
        0,
        0,
        0,
        0
    ],
    "_skin_": "s71d2e0963734c5f9de5055c32e797b8",
    "_text_": "",
    "_top_": {
        "type": "string",
        "value": "0dp"
    },
    "_width_": {
        "type": "string",
        "value": "50dp"
    },
    "canUpdateUI": true,
    "containerweight": 100,
    "contentalignment": 5,
    "displaytext": true,
    "focusskin": "s15223d3cb2a4a3ebea2e75e550bfa3e",
    "id": "hamburgerButton",
    "ide_onClick": "AS_Button_f73495e97ddf4bf1b95fb24f48223caf",
    "info": null,
    "iphone": {
        "psp": {
            "showProgressIndicator": false
        }
    },
    "isvisible": true,
    "kuid": "7fbc8c7be4f24d2d8c598e46dee6f58f",
    "name": "kony.ui.Button",
    "onclick": "AS_Button_297af52fc4aa41feac936a91240f0dfc",
    "parent": "androidTitleBar",
    "pf": "frmDepositPayLandingKA",
    "showprogressindicator": false,
    "wType": "Button",
    "zindex": 1
}