{
    "@class": "com.kony.gen.viz.model.component.KVizButton",
    "DNDConfig": null,
    "__parentReadjusting__": false,
    "_height_": {
        "type": "string",
        "value": "100%"
    },
    "_left_": {
        "type": "string",
        "value": "0dp"
    },
    "_margin_": [
        6,
        6,
        6,
        6
    ],
    "_padding_": [
        0,
        1,
        0,
        0
    ],
    "_skin_": "s80191b6ac7b456395dfcf46858959f6",
    "_text_": "RECENT",
    "_top_": {
        "type": "string",
        "value": "0dp"
    },
    "_width_": {
        "type": "string",
        "value": "50%"
    },
    "canUpdateUI": true,
    "containerweight": 100,
    "contentalignment": 5,
    "displaytext": true,
    "focusskin": "s80191b6ac7b456395dfcf46858959f6",
    "id": "recentTabButton",
    "ide_onClick": "AS_Button_dbbcf02af01949d980a6d577221dfa21",
    "info": null,
    "iphone": {
        "psp": {
            "showProgressIndicator": false
        }
    },
    "isvisible": true,
    "kuid": "cc263a7618ce4f1a9b7e3694f95d1609",
    "name": "kony.ui.Button",
    "onclick": "AS_Button_d2238de200444d63b227dd2292c1e0fc",
    "paddinginpixel": false,
    "parent": "tabsWrapper",
    "pf": "frmDepositPayLandingKA",
    "showprogressindicator": false,
    "texti18n": "i18n.deposit.recent",
    "wType": "Button"
}