{
    "@class": "com.kony.gen.viz.model.component.KVizTextBox2",
    "DNDConfig": null,
    "__parentReadjusting__": false,
    "_height_": {
        "type": "string",
        "value": "45%"
    },
    "_left_": {
        "type": "string",
        "value": "2%"
    },
    "_margin_": [
        0,
        0,
        0,
        0
    ],
    "_padding_": [
        0,
        0,
        0,
        0
    ],
    "_placeholder_": "",
    "_skin_": "s029998596d3421892d0917ea7492e1d",
    "_text_": "",
    "_top_": {
        "type": "string",
        "value": "40%"
    },
    "_width_": {
        "type": "string",
        "value": "99%"
    },
    "android": {
        "ide_onBeginEditing": "AS_TextField_ibb81040a82c42d08b8f0484f4de7c24"
    },
    "autocapitalize": "none",
    "autocomplete": false,
    "autocorrect": false,
    "autofilter": false,
    "canUpdateUI": true,
    "containerheight": "",
    "containerheightmode": 1,
    "containerweight": 100,
    "contentalignment": 4,
    "focusskin": "sa25e426dcb94c13ab46f59a2b31a09a",
    "id": "txtName",
    "ide_onTextChange": "AS_TextField_bb622a4caa0a48f59fa65a4cfb6f51d6",
    "info": null,
    "iphone": {
        "ide_onBeginEditing": "AS_TextField_i041ec0aaebe479b9dff0feb7fcbb8cb"
    },
    "isvisible": true,
    "keyboardtype": "A",
    "kuid": "hb33f2397ed845e0bb7af0beca0246cf",
    "maxtextlength": 30,
    "mode": "A",
    "name": "kony.ui.TextBox2",
    "paddinginpixel": false,
    "parent": "flxName",
    "pf": "frmJOMOPayAddBiller",
    "securetextentry": false,
    "textinputmode": "A",
    "viewtype": "default",
    "wType": "TextField",
    "zindex": 1
}