{
  "operationConfig" : {
    "name" : "prGetDomBankBenefDetails6052",
    "type" : "MappedToBackend",
    "cachable" : false,
    "smsEnabled" : false,
    "security" : "public",
    "responseEncoding" : "UTF-8",
    "httpMethod" : "GET",
    "decodeResponseBody" : false,
    "iMapping" : "<?xml version=\"1.0\" encoding=\"UTF-8\" standalone=\"yes\"?><mapper xmlns=\"http://www.kony.com/ns/mapper\">    <map inputpath=\"request_in\" outputpath=\"request_out\">        <set-param inputpath=\"flow\" outputpath=\"flow\"/>    </map></mapper>",
    "oMapping" : "<?xml version=\"1.0\" encoding=\"UTF-8\" standalone=\"yes\"?><mapper xmlns=\"http://www.kony.com/ns/mapper\">                                    <map inputpath=\"response_in\" outputpath=\"response_out\">                                       <set-param inputpath=\"bankList\" outputpath=\"bankList\"/>                                           </map>                  </mapper>",
    "applyCommonMapping" : false,
    "backendMeta" : {
      "serviceVersion" : "1.0",
      "operationName" : "prGetDomBankBenefDetails",
      "serviceName" : "BOJBankList"
    },
    "relationshipHierarchyMapping" : {
      "children" : [ ],
      "name" : "Country",
      "selected" : true
    },
    "requestXmlMappingOverride" : true,
    "responseXmlMappingOverride" : true
  }
}