{
    "@class": "com.kony.gen.viz.model.component.KVizLabel",
    "DNDConfig": null,
    "__parentReadjusting__": false,
    "_height_": {
        "type": "ref",
        "value": "preferred"
    },
    "_left_": {
        "type": "string",
        "value": "55dp"
    },
    "_margin_": [
        1,
        1,
        1,
        1
    ],
    "_padding_": [
        0,
        0,
        0,
        0
    ],
    "_skin_": "s7ecf8837330473696a383d6dc393d4d",
    "_text_": "Advanced Filter ",
    "_width_": {
        "type": "string",
        "value": "64.16%"
    },
    "_wrapping_": 2,
    "canUpdateUI": true,
    "centery": {
        "type": "string",
        "value": "50%"
    },
    "containerweight": 100,
    "contentalignment": 5,
    "enabled": false,
    "id": "androidTitleLabel",
    "info": null,
    "ipad": {
        "psp": {
            "wrapping": 2
        }
    },
    "iphone": {
        "psp": {
            "wrapping": 2
        }
    },
    "isvisible": true,
    "kuid": "cecdfb2801a249859d968869f9da1a76",
    "name": "kony.ui.Label",
    "parent": "androidTitleBar",
    "pf": "frmSetLocatorDistanceFilterKA",
    "texti18n": "i18n.search.advanceFilter",
    "tooltip": "",
    "wType": "Label"
}