{
    "@class": "com.kony.gen.viz.model.container.KVizWatchForm",
    "DNDConfig": null,
    "_margin_": [
        0,
        0,
        0,
        0
    ],
    "_orientation_": 1,
    "_padding_": [
        1,
        0,
        1,
        0
    ],
    "_percent_": true,
    "_skin_": "sb3cc533902a45a0945a2403f743792a",
    "_spacing_": 4,
    "_title_": null,
    "addWidgetsdone": false,
    "allboxes": [],
    "android": {
        "psp": {
            "windowSoftInputMode": 2
        }
    },
    "canUpdateUI": true,
    "children": [
        "imgSplash"
    ],
    "containerweight": 100,
    "currentLocale": "default",
    "desktopweb": {
        "needAppMenu": false
    },
    "device": "appleWatch42",
    "displayorientation": 1,
    "enabledforidletimeout": false,
    "hideswhenloading": true,
    "id": "frmWatLaunch",
    "ide_onAwake": "AS_Form_c2b12af5b4e64a759dfbc256cfeadbba",
    "ide_onInit": "AS_Form_fb09bee9f67c46a0b9c1ca1a1b333432",
    "ide_onWillActivate": "AS_Form_g23281d96eaa43eea2020dba0ae9d603",
    "info": null,
    "initdone": false,
    "inputaccessoryviewtype": 4,
    "ipad": {
        "psp": {
            "inputAccessoryViewType": 4
        }
    },
    "iphone": {
        "psp": {
            "inputAccessoryViewType": 4
        }
    },
    "isvisible": true,
    "kuid": "d314e06c5daa42ba9122f942d81605b2",
    "layouttype": 4,
    "name": "kony.ui.Form2",
    "needappmenu": true,
    "paddinginpixel": true,
    "platform": "watchos",
    "prevDevice": "appleWatch42",
    "prevPlatform": "watchos",
    "retainscrollposition": false,
    "shellCSS": "appleWatch42",
    "titleBarSkin": "s01a3c761ed44dcab0d6537d1b55b621",
    "titlebar": true,
    "type": 3,
    "wType": "Form"
}