{
    "@class": "com.kony.gen.viz.model.component.KVizButton",
    "DNDConfig": null,
    "__parentReadjusting__": false,
    "_height_": {
        "type": "string",
        "value": "100%"
    },
    "_left_": {
        "type": "string",
        "value": "75%"
    },
    "_margin_": [
        6,
        6,
        6,
        6
    ],
    "_padding_": [
        0,
        0,
        0,
        0
    ],
    "_skin_": "see3e5af693d42b5a9703374402e1a39",
    "_text_": "(",
    "_width_": {
        "type": "string",
        "value": "10%"
    },
    "canUpdateUI": true,
    "centery": {
        "type": "string",
        "value": "50%"
    },
    "containerweight": 100,
    "contentalignment": 5,
    "disabledSkins": {},
    "displaytext": true,
    "focusskin": "sd291eaf83084ea781b9988b6f1fc66d",
    "id": "btnSettings",
    "ide_onClick": "AS_Button_ac0cdcbada414be9884b89344478de37",
    "info": null,
    "isvisible": true,
    "kuid": "ac8a77941a2844d4abe5bbf33e14eea8",
    "name": "kony.ui.Button",
    "parent": "flxCardOptions",
    "pf": "frmManageCardsKA",
    "wType": "Button",
    "zindex": 1
}