{
    "@class": "com.kony.gen.viz.model.component.KVizLabel",
    "DNDConfig": null,
    "__parentReadjusting__": false,
    "_height_": {
        "type": "ref",
        "value": "preferred"
    },
    "_left_": {
        "type": "string",
        "value": "16%"
    },
    "_margin_": [
        1,
        1,
        1,
        1
    ],
    "_padding_": [
        0,
        0,
        0,
        0
    ],
    "_skin_": "se033b4241724171afff711026194d8f",
    "_text_": "",
    "_width_": {
        "type": "ref",
        "value": "preferred"
    },
    "_wrapping_": 2,
    "android": {
        "textStyle": {
            "letterSpacing": 0,
            "strikeThrough": false
        }
    },
    "canUpdateUI": true,
    "centery": {
        "type": "string",
        "value": "49%"
    },
    "containerweight": 100,
    "contentalignment": 4,
    "id": "CopylblStaticPayCredit0df900219f50849",
    "info": null,
    "ipad": {
        "psp": {
            "wrapping": 2
        }
    },
    "iphone": {
        "psp": {
            "wrapping": 2
        }
    },
    "isvisible": true,
    "kuid": "b7b03d4ab26e4440afc052802ae1a055",
    "name": "kony.ui.Label",
    "parent": "flxUnblockPin",
    "pf": "frmManageCardsKA",
    "texti18n": "i18n.cards.unblockPin",
    "textstyle": {},
    "tooltip": "",
    "wType": "Label",
    "zindex": 1
}