{
    "@class": "com.kony.gen.viz.model.component.KVizButton",
    "DNDConfig": null,
    "__parentReadjusting__": false,
    "_height_": {
        "type": "string",
        "value": "10%"
    },
    "_margin_": [
        6,
        6,
        6,
        6
    ],
    "_padding_": [
        0,
        0,
        0,
        0
    ],
    "_skin_": "sf7766faf6e34d0789442a84c1e76e1a",
    "_text_": "",
    "_width_": {
        "type": "string",
        "value": "80%"
    },
    "canUpdateUI": true,
    "centerx": {
        "type": "string",
        "value": "50%"
    },
    "centery": {
        "type": "string",
        "value": "90%"
    },
    "containerweight": 100,
    "contentalignment": 5,
    "displaytext": true,
    "focusskin": "sad5d6d4890b44858a39e4bf8a290332",
    "id": "btnConfirmInstantCash",
    "ide_onClick": "AS_Button_i0a78597c4b64619b770e0d5c9b43bbb",
    "info": null,
    "isvisible": true,
    "kuid": "ddf0a368718a47dcad3e0cc5a2836851",
    "name": "kony.ui.Button",
    "parent": "flxInstantCashPreConfirm",
    "pf": "frmInstantCash",
    "texti18n": "i18n.Bene.Confirm",
    "wType": "Button",
    "zindex": 1
}