{
    "@class": "com.kony.gen.viz.model.component.KVizButton",
    "DNDConfig": null,
    "__parentReadjusting__": false,
    "_height_": {
        "type": "string",
        "value": "93%"
    },
    "_margin_": [
        6,
        6,
        6,
        6
    ],
    "_padding_": [
        0,
        0,
        0,
        0
    ],
    "_right_": {
        "type": "string",
        "value": "0%"
    },
    "_skin_": "sef0e6318cb74729a63354552567c681",
    "_text_": "",
    "_top_": {
        "type": "string",
        "value": "0%"
    },
    "_width_": {
        "type": "string",
        "value": "20%"
    },
    "canUpdateUI": true,
    "containerweight": 100,
    "contentalignment": 5,
    "disabledSkins": {},
    "displaytext": true,
    "focusskin": "sef0e6318cb74729a63354552567c681",
    "id": "btnNext",
    "ide_onTouchEnd": "AS_Button_a435f6204edc483b855d839d16f932fc",
    "info": null,
    "iscustomlayout": true,
    "isvisible": true,
    "kuid": "gb75062d601943d18b17d8f731bec41f",
    "name": "kony.ui.Button",
    "parent": "flxInstantCashHeader",
    "pf": "frmInstantCash",
    "retainflexpositionproperties": true,
    "texti18n": "i18n.login.next",
    "wType": "Button",
    "zindex": 1
}