{
    "@class": "com.kony.gen.viz.model.component.KVizButton",
    "DNDConfig": null,
    "__parentReadjusting__": false,
    "_height_": {
        "type": "string",
        "value": "50dp"
    },
    "_left_": {
        "type": "string",
        "value": "0dp"
    },
    "_margin_": [
        6,
        6,
        6,
        6
    ],
    "_padding_": [
        0,
        0,
        0,
        0
    ],
    "_skin_": "s1b558d5a76c4e74aa712819f5be63d1",
    "_text_": "",
    "_top_": {
        "type": "string",
        "value": "0dp"
    },
    "_width_": {
        "type": "string",
        "value": "50dp"
    },
    "canUpdateUI": true,
    "containerweight": 100,
    "contentalignment": 5,
    "displaytext": true,
    "focusskin": "sb803869ef8f4c42a3233b6ac9dce91b",
    "id": "androidBackButton",
    "ide_onClick": "AS_Button_g75af8b7b91242bb99e1932068efbf0c",
    "info": null,
    "iphone": {
        "psp": {
            "showProgressIndicator": false
        }
    },
    "isvisible": true,
    "kuid": "f8aa3b5a444f4a47b304247d034de08f",
    "name": "kony.ui.Button",
    "onclick": "AS_Button_50e925a9c0b341f79cb9b6105268376a",
    "parent": "androidTitleBar",
    "pf": "frmDefaultLoginMethodKA",
    "showprogressindicator": false,
    "wType": "Button",
    "zindex": 1
}