{
    "DNDConfig": null,
    "__parentReadjusting__": false,
    "_height_": {
        "type": "string",
        "value": "25dp"
    },
    "_margin_": [
        0,
        0,
        0,
        0
    ],
    "_orientation_": 6,
    "_padding_": [
        0,
        0,
        0,
        0
    ],
    "_percent_": true,
    "_right_": {
        "type": "string",
        "value": "3%"
    },
    "_skin_": "s5384c55ad894841ae78a8cff35309bf",
    "_width_": {
        "type": "string",
        "value": "44dp"
    },
    "allboxes": [],
    "autogrowmode": 0,
    "canUpdateUI": true,
    "centery": {
        "type": "string",
        "value": "50%"
    },
    "children": [
        "CopyflxRoundDBlue0hfee6fe5ed994b",
        "Copyflxlakeer0a0654737f4504c"
    ],
    "clipbounds": true,
    "containerweight": 100,
    "enablescrolling": true,
    "id": "flxSwitchOffTouchLogin",
    "ide_onClick": "AS_FlexContainer_d1ea91157aa4431c8c002da4b74e7280",
    "info": null,
    "isvisible": true,
    "kuid": "b16b0ed11627495081e7271fc2bf0e1a",
    "layouttype": 2,
    "name": "kony.ui.FlexContainer",
    "parent": "flxAlterAuthTouchID",
    "pf": "frmUserSettingsTouchIdKA",
    "snapgridsize": 10,
    "snaptogrid": true,
    "wType": "FlexContainer",
    "widgetalignment": 1,
    "zindex": 1
}