{
    "@class": "com.kony.gen.viz.model.container.KVizScrollFlexForm",
    "DNDConfig": null,
    "_margin_": [
        0,
        0,
        0,
        0
    ],
    "_padding_": [
        0,
        0,
        0,
        0
    ],
    "_skin_": "s514062a92a0453ca21729ccedd369c7",
    "_title_": null,
    "addWidgetsdone": false,
    "allboxes": [],
    "canUpdateUI": true,
    "children": [
        "CopyFlexContainer0cf774a7e8bf142"
    ],
    "containerId": true,
    "containerweight": 100,
    "currentLocale": "en",
    "device": "iPhone6",
    "displayorientation": 3,
    "enabled": false,
    "enabledforidletimeout": false,
    "id": "tempPayPeopleKA",
    "info": null,
    "initdone": false,
    "inputaccessoryviewtype": 4,
    "intransitionconfig": {
        "formTransition": "None"
    },
    "isvisible": true,
    "kuid": "db1ef062d43549edb6e04a8d3e30e6eb",
    "name": "kony.ui.Form2",
    "needappmenu": true,
    "orientation": 1,
    "outtransitionconfig": {
        "formTransition": "None"
    },
    "paddinginpixel": false,
    "percent": true,
    "platform": "iphone",
    "prevDevice": "iPhone6",
    "prevPlatform": "iphone",
    "retainscrollposition": false,
    "shellCSS": "iOS_iPhone6",
    "titleBarSkin": "sf9d12b1e1d546169560d8b1b80caf35",
    "titlebar": true,
    "type": 3,
    "wType": "Form"
}