{
    "@class": "com.kony.gen.viz.model.component.KVizButton",
    "DNDConfig": null,
    "__parentReadjusting__": false,
    "_height_": {
        "type": "string",
        "value": "100%"
    },
    "_left_": {
        "type": "string",
        "value": "0"
    },
    "_margin_": [
        6,
        6,
        6,
        6
    ],
    "_padding_": [
        0,
        0,
        0,
        0
    ],
    "_skin_": "saa7cae8f83e4f0baa016a00ee3543dd",
    "_text_": "",
    "_top_": {
        "type": "string",
        "value": "0dp"
    },
    "_width_": {
        "type": "string",
        "value": "22.50%"
    },
    "canUpdateUI": true,
    "centery": {
        "type": "string",
        "value": "50%"
    },
    "containerweight": 100,
    "contentalignment": 5,
    "displaytext": true,
    "focusskin": "sf31a7f2de3f4239a785d44cc5239e61",
    "id": "btnIncoming",
    "ide_onClick": "AS_Button_h7cb1349585c4927ae00890163092a84",
    "info": null,
    "isvisible": true,
    "kuid": "d015895664d74d0f98eed62cafa286ba",
    "name": "kony.ui.Button",
    "paddinginpixel": false,
    "parent": "flxContent",
    "pf": "frmIPSRequests",
    "texti18n": "i18n.CLIQ.Incoming",
    "wType": "Button",
    "zindex": 2
}