{
    "DNDConfig": null,
    "__parentReadjusting__": false,
    "_bottom_": {
        "type": "string",
        "value": "7%"
    },
    "_height_": {
        "type": "string",
        "value": "60%"
    },
    "_margin_": [
        0,
        0,
        0,
        0
    ],
    "_orientation_": 6,
    "_padding_": [
        0,
        0,
        0,
        0
    ],
    "_percent_": true,
    "_skin_": "s388f0c575ef4d08ac3a5ed0a4b90085",
    "_width_": {
        "type": "string",
        "value": "100%"
    },
    "allboxes": [],
    "autogrowmode": 0,
    "canUpdateUI": true,
    "centerx": {
        "type": "string",
        "value": "49%"
    },
    "children": [
        "lblReasonRP",
        "lblArrowReasonRP"
    ],
    "clipbounds": true,
    "containerweight": 100,
    "enablescrolling": true,
    "id": "flxReasonInsideRP",
    "ide_onClick": "AS_FlexContainer_gf50d2155e164e8db41593924a353d52",
    "info": null,
    "isvisible": true,
    "kuid": "cfab22e3c3b34c1b85a0bd6febf4abea",
    "layouttype": 2,
    "name": "kony.ui.FlexContainer",
    "parent": "flxRPRequestReason",
    "pf": "frmIPSRequests",
    "snapgridsize": 10,
    "snaptogrid": true,
    "wType": "FlexContainer",
    "widgetalignment": 1,
    "zindex": 2
}