{
    "@class": "com.kony.gen.viz.model.component.KVizLabel",
    "DNDConfig": null,
    "__parentReadjusting__": false,
    "_bottom_": {
        "type": "string",
        "value": "20dp"
    },
    "_height_": {
        "type": "ref",
        "value": "preferred"
    },
    "_left_": {
        "type": "string",
        "value": "0dp"
    },
    "_margin_": [
        1,
        1,
        1,
        1
    ],
    "_padding_": [
        0,
        0,
        0,
        0
    ],
    "_skin_": "s86ec0623e9f461a996351afb1a95219",
    "_text_": "Cancelling Credit Card",
    "_top_": {
        "type": "string",
        "value": "0dp"
    },
    "_width_": {
        "type": "string",
        "value": "100%"
    },
    "_wrapping_": 2,
    "canUpdateUI": true,
    "containerweight": 100,
    "contentalignment": 2,
    "enabled": false,
    "id": "lblCardOperationHeaderKA",
    "info": null,
    "ipad": {
        "psp": {
            "wrapping": 2
        }
    },
    "iphone": {
        "psp": {
            "wrapping": 2
        }
    },
    "isvisible": true,
    "kuid": "4c4fe06721c942508a8b0403d1cedca1",
    "name": "kony.ui.Label",
    "parent": "flxCardDetailsKA",
    "pf": "frmCardOperationsKA",
    "texti18n": "i18n.manage_cards.cancellingCreditCard",
    "tooltip": "",
    "wType": "Label"
}