{
    "@class": "com.kony.gen.viz.model.component.KVizTextBox2",
    "DNDConfig": null,
    "__parentReadjusting__": false,
    "_bottom_": {
        "type": "string",
        "value": "7%"
    },
    "_height_": {
        "type": "string",
        "value": "60%"
    },
    "_margin_": [
        0,
        0,
        0,
        0
    ],
    "_padding_": [
        3,
        0,
        0,
        0
    ],
    "_placeholder_": "",
    "_skin_": "s029998596d3421892d0917ea7492e1d",
    "_text_": "",
    "_width_": {
        "type": "string",
        "value": "100%"
    },
    "accessibilityconfig": {
        "a11yLabel": "Enter your Username"
    },
    "android": {
        "onEndEditing": "AS_TextField_ja28486c7a3043998424fea66ecabfa6",
        "psp": {
            "keyboardActionLabel": 1
        }
    },
    "autocapitalize": "none",
    "autocomplete": false,
    "autocorrect": false,
    "autofilter": false,
    "canUpdateUI": true,
    "centerx": {
        "type": "string",
        "value": "50%"
    },
    "containerheight": "",
    "containerheightmode": 1,
    "containerweight": 100,
    "contentalignment": 4,
    "disabledSkins": {},
    "focusskin": "s029998596d3421892d0917ea7492e1d",
    "id": "tbxAmount",
    "ide_onDone": "AS_TextField_e9766bcb83ec4c5e8537e028cb5e94fe",
    "ide_onTextChange": "AS_TextField_j5263505cb7740ada2114f998a54fc55",
    "ide_onTouchStart": "AS_TextField_da22164789fb4dfdb1f63e5ab8e3f71d",
    "info": null,
    "iphone": {
        "onBeginEditing": "AS_TextField_c0713df9ccfc44dba27a3f28bca350b8",
        "onEndEditing": "AS_TextField_c0713df9ccfc44dba27a3f28bca350b8"
    },
    "isvisible": true,
    "keyboardstyle": "number",
    "keyboardtype": "A",
    "kuid": "a4b1fdbd52454c6f96ec6dcb38db364a",
    "maxtextlength": 13,
    "mode": "N",
    "name": "kony.ui.TextBox2",
    "parent": "flxAmount",
    "pf": "frmNewBillDetails",
    "securetextentry": false,
    "textinputmode": "N",
    "viewtype": "default",
    "wType": "TextField",
    "zindex": 2
}