{
    "@class": "com.kony.gen.viz.model.component.KVizButton",
    "DNDConfig": null,
    "__parentReadjusting__": false,
    "_height_": {
        "type": "string",
        "value": "100%"
    },
    "_left_": {
        "type": "string",
        "value": "0dp"
    },
    "_margin_": [
        6,
        6,
        6,
        6
    ],
    "_padding_": [
        0,
        0,
        0,
        0
    ],
    "_skin_": "sebb134299554c34b0d89108e7730e05",
    "_text_": "O",
    "_top_": {
        "type": "string",
        "value": "0dp"
    },
    "_width_": {
        "type": "string",
        "value": "50%"
    },
    "canUpdateUI": true,
    "containerweight": 100,
    "contentalignment": 5,
    "displaytext": true,
    "focusskin": "s3a2dbead7cc4c83984735a2417af7b9",
    "id": "btnAddBeneficiaryClose",
    "ide_onTouchEnd": "AS_FlexContainer_cf7372c1662a4101aa72788b7dc046d5",
    "info": null,
    "iphone": {
        "psp": {
            "showProgressIndicator": false
        }
    },
    "isvisible": false,
    "kuid": "a56d93ed43094f07b41d9cfae5f33cd8",
    "name": "kony.ui.Button",
    "parent": "flxIcons",
    "pf": "frmManagePayeeKA",
    "wType": "Button",
    "zindex": 1
}