{
    "@class": "com.kony.gen.viz.model.component.KVizButton",
    "DNDConfig": null,
    "__parentReadjusting__": false,
    "_height_": {
        "type": "string",
        "value": "60%"
    },
    "_left_": {
        "type": "string",
        "value": "0%"
    },
    "_margin_": [
        6,
        6,
        6,
        6
    ],
    "_padding_": [
        0,
        0,
        0,
        0
    ],
    "_skin_": "s1858dc0a19e403a93a532b59571c961",
    "_text_": "s",
    "_width_": {
        "type": "string",
        "value": "15%"
    },
    "canUpdateUI": true,
    "centery": {
        "type": "string",
        "value": "50%"
    },
    "containerweight": 100,
    "contentalignment": 5,
    "displaytext": true,
    "focusskin": "s1858dc0a19e403a93a532b59571c961",
    "id": "btnCurLoanInst",
    "ide_onClick": "AS_Button_i2c92883041d44448c155f46ca5079cd",
    "info": null,
    "isvisible": true,
    "kuid": "adecf6b29e704d4185fe6b02295ed0aa",
    "name": "kony.ui.Button",
    "parent": "flxCurLoanInst",
    "pf": "frmLoanPostpone",
    "wType": "Button",
    "zindex": 1
}