{
    "@class": "com.kony.gen.viz.model.component.KVizButton",
    "DNDConfig": null,
    "__parentReadjusting__": false,
    "_height_": {
        "type": "string",
        "value": "60%"
    },
    "_left_": {
        "type": "string",
        "value": "0%"
    },
    "_margin_": [
        6,
        6,
        6,
        6
    ],
    "_padding_": [
        0,
        0,
        0,
        0
    ],
    "_skin_": "sfdddcea6cff4d788f42120343a323ef",
    "_text_": "d",
    "_top_": {
        "type": "string",
        "value": "35%"
    },
    "_width_": {
        "type": "string",
        "value": "100%"
    },
    "canUpdateUI": true,
    "containerweight": 100,
    "contentalignment": 6,
    "displaytext": true,
    "focusskin": "sfdddcea6cff4d788f42120343a323ef",
    "id": "btnMonthsList",
    "ide_onClick": "AS_Button_c7b6b465849d4afe8ef1b6b15b4f492f",
    "info": null,
    "isvisible": true,
    "kuid": "d0b241cfa26b493bac4d07c462cfbe00",
    "name": "kony.ui.Button",
    "parent": "flxMonths",
    "pf": "frmLoanPostpone",
    "wType": "Button",
    "zindex": 1
}