{
  "operationConfig" : {
    "name" : "ApplyCards2896",
    "type" : "MappedToBackend",
    "cachable" : false,
    "smsEnabled" : false,
    "security" : "authorized_app_user",
    "responseEncoding" : "UTF-8",
    "httpMethod" : "GET",
    "decodeResponseBody" : false,
    "iMapping" : "<?xml version=\"1.0\" encoding=\"UTF-8\" standalone=\"yes\"?><mapper xmlns=\"http://www.kony.com/ns/mapper\">  <map inputpath=\"request_in\" outputpath=\"request_out\">    <set-param inputpath=\"p_name_on_card\" outputpath=\"p_name_on_card\"/>    <set-param inputpath=\"limit_type\" outputpath=\"limit_type\"/>    <set-param inputpath=\"p_monthly_income\" outputpath=\"p_monthly_income\"/>    <set-param inputpath=\"pass\" outputpath=\"pass\"/>    <set-param inputpath=\"p_acc_br\" outputpath=\"p_acc_br\"/>    <set-param inputpath=\"p_card_color\" outputpath=\"p_card_color\"/>    <set-param inputpath=\"p_reason\" outputpath=\"p_reason\"/>    <set-param inputpath=\"p_transferred_salary\" outputpath=\"p_transferred_salary\"/>    <set-param inputpath=\"p_notes\" outputpath=\"p_notes\"/>    <set-param inputpath=\"p_relationship\" outputpath=\"p_relationship\"/>    <set-param inputpath=\"primary_creditCard_number\" outputpath=\"primary_creditCard_number\"/>    <set-param inputpath=\"suplementry_card_type\" outputpath=\"suplementry_card_type\"/>    <set-param inputpath=\"Flag\" outputpath=\"Flag\"/>    <set-param inputpath=\"usr\" outputpath=\"usr\"/>    <set-param inputpath=\"p_acc_no\" outputpath=\"p_acc_no\"/>    <set-param inputpath=\"p_requested_limit\" outputpath=\"p_requested_limit\"/>    <set-param inputpath=\"p_delv_mod\" outputpath=\"p_delv_mod\"/>    <set-param inputpath=\"p_name_on_card\" outputpath=\"p_name_on_Card\"/>    <set-param inputpath=\"custId\" outputpath=\"custId\"/>    <set-param inputpath=\"p_profession\" outputpath=\"p_profession\"/>    <set-param inputpath=\"p_user_id\" outputpath=\"p_user_id\"/>    <set-param inputpath=\"p_employment_status\" outputpath=\"p_employment_status\"/>    <set-param inputpath=\"p_channel\" outputpath=\"p_channel\"/>  </map></mapper>",
    "oMapping" : "<?xml version=\"1.0\" encoding=\"UTF-8\" standalone=\"yes\"?><mapper xmlns=\"http://www.kony.com/ns/mapper\">  <map inputpath=\"response_in\" outputpath=\"response_out\">    <set-param inputpath=\"ref_no\" outputpath=\"ref_no\"/>    <set-param inputpath=\"ErrorCode\" outputpath=\"ErrorCode\"/>  </map></mapper>",
    "applyCommonMapping" : true,
    "backendMeta" : {
      "serviceVersion" : "1.0",
      "operationName" : "ApplyCards",
      "serviceName" : "ApplyCards"
    },
    "relationshipHierarchyMapping" : {
      "children" : [ ],
      "name" : "Cards",
      "selected" : true
    },
    "requestXmlMappingOverride" : true,
    "responseXmlMappingOverride" : true
  }
}