{
  "operationConfig" : {
    "name" : "prCcUnblockPin3294",
    "type" : "MappedToBackend",
    "cachable" : false,
    "smsEnabled" : false,
    "security" : "public",
    "responseEncoding" : "UTF-8",
    "httpMethod" : "GET",
    "decodeResponseBody" : false,
    "iMapping" : "<?xml version=\"1.0\" encoding=\"UTF-8\" standalone=\"yes\"?><mapper xmlns=\"http://www.kony.com/ns/mapper\">    <map inputpath=\"request_in\" outputpath=\"request_out\">        <set-param inputpath=\"p_card_no\" outputpath=\"p_card_no\"/>        <set-param inputpath=\"usr\" outputpath=\"usr\"/>        <set-param inputpath=\"pass\" outputpath=\"pass\"/>        <set-param inputpath=\"custId\" outputpath=\"custId\"/>        <set-param inputpath=\"p_channel\" outputpath=\"p_channel\"/>    </map></mapper>",
    "oMapping" : "<?xml version=\"1.0\" encoding=\"UTF-8\" standalone=\"yes\"?><mapper xmlns=\"http://www.kony.com/ns/mapper\">      <map inputpath=\"response_in\" outputpath=\"response_out\">            <set-param inputpath=\"result\" outputpath=\"result\"/>      </map></mapper>",
    "applyCommonMapping" : false,
    "backendMeta" : {
      "serviceVersion" : "1.0",
      "operationName" : "prCcUnblockPin",
      "serviceName" : "BOJprCcUnblockPin"
    },
    "relationshipHierarchyMapping" : {
      "children" : [ ],
      "name" : "Cards",
      "selected" : true
    },
    "requestXmlMappingOverride" : true,
    "responseXmlMappingOverride" : true
  }
}